     _/_/_/_/  _/_/_/    _/_/_/                     
    _/        _/    _/    _/          _/_/_/        
   _/_/_/    _/_/_/      _/        _/    _/         
  _/        _/          _/        _/    _/          
 _/_/_/_/  _/        _/_/_/        _/_/_/           
                                      _/            
                                     _/        1.0  

 Electron-Phonon wannier Interpolation over k and q-points 
                                              ^^^ 

 ideated by Matteo Calandra, Gianni Profeta and Francesco Mauri
 maintained by Guglielmo Marchese, Giovanni Marini
 developers: M. Calandra, F. Macheda, G. Marchese, G. Marini,
             F. Mauri, G. Profeta, J. Sjakste, N. Vast

  Please cite: 

 [1] "Adiabatic and nonadiabatic phonon dispersion
            in a Wannier function approach"       
      M. Calandra, G. Profeta and F. Mauri         
      Phys. Rev. B 82, 165111 (2010)               


 [2] P. Giannozzi et al., 
     J. Phys.:Condens. Matter 21 395502 (2009)
     http://www.quantum-espresso.org


 [3] A. A. Mostofi, J. R. Yates,                
     N. Marzari, I. Souza and D. Vanderbilt,    
     http://www.wannier.org/                    


 Reading Wannier information
 Reading restart information from file graphene.chk :
 written on 20Sep2022 at 10:24:28 ... done


 From  Wannier Interpolation File 
 ---------------------------------

  Lattice Vectors (Ang)

  a_1     2.458718   0.000000   0.000000
  a_2    -1.229359   2.129311   0.000000
  a_3     0.000000   0.000000  14.998178

  Reciprocal-Space Vectors (Ang^-1)

  b_1     2.555472   1.475403  -0.000000
  b_2     0.000000   2.950807   0.000000
  b_3     0.000000  -0.000000   0.418930

  Number of bands in QE calculation=  15
  Number of wannier functions=   2
  Number of k-points for wannierization=  36
  Disentanglement performed
  Omega_I=  1.82967754

  Coordinate of Wannier centres and spreads 
  wfc #   1   [   0.00000000 -0.00000000  7.49908884 ]  sprd=  0.92648469
  wfc #   2   [   0.00000000  1.41954130  7.49908884 ]  sprd=  0.92648375



 -------------------------------------
      Reading el-ph mat elements
 -------------------------------------


 -------------------------------------
     Reading el-ph mat elements
 -------------------------------------


 -------------------------------------
           Disentanglement
 -------------------------------------


  -> Disentangling gop
     -----------------

      ... done in     0.0135020 seconds


  -> Disentangling commutator
     ------------------------


  -> Disentangling Hamiltonian
     -------------------------

      ... done in     0.0000280 seconds


  -> Fourier transform of H
     ----------------------

      ... done in     0.2485450 seconds


  -> Fourier transform transform of g
     --------------------------------

      ... done in     0.0866970 seconds


  -> Fourier transform transform of commutator
     -----------------------------------------

      ... done in     0.0001910 seconds

      Dumping file G_and_H_and_chi.asc                                                                                                                                                                                                                                             
   Dumping commutator in real space
 ---------------------------------
            JOB ended             
 ---------------------------------

 =====================================
         Begin interpolation
 =====================================

 ===================================
          End interpolation       
 ===================================
