     _/_/_/_/  _/_/_/    _/_/_/                     
    _/        _/    _/    _/          _/_/_/        
   _/_/_/    _/_/_/      _/        _/    _/         
  _/        _/          _/        _/    _/          
 _/_/_/_/  _/        _/_/_/        _/_/_/           
                                      _/            
                                     _/        1.0  

 Electron-Phonon wannier Interpolation over k and q-points 
                                              ^^^ 

 ideated by Matteo Calandra, Gianni Profeta and Francesco Mauri
 maintained by Guglielmo Marchese, Giovanni Marini
 developers: M. Calandra, F. Macheda, G. Marchese, G. Marini,
             F. Mauri, G. Profeta, J. Sjakste, N. Vast

  Please cite: 

 [1] "Adiabatic and nonadiabatic phonon dispersion
            in a Wannier function approach"       
      M. Calandra, G. Profeta and F. Mauri         
      Phys. Rev. B 82, 165111 (2010)               


 [2] P. Giannozzi et al., 
     J. Phys.:Condens. Matter 21 395502 (2009)
     http://www.quantum-espresso.org


 [3] A. A. Mostofi, J. R. Yates,                
     N. Marzari, I. Souza and D. Vanderbilt,    
     http://www.wannier.org/                    


 Reading Wannier information
 Reading restart information from file graphene.chk :
 written on 20Sep2022 at 10:24:28 ... done


 From  Wannier Interpolation File 
 ---------------------------------

  Lattice Vectors (Ang)

  a_1     2.458718   0.000000   0.000000
  a_2    -1.229359   2.129311   0.000000
  a_3     0.000000   0.000000  14.998178

  Reciprocal-Space Vectors (Ang^-1)

  b_1     2.555472   1.475403  -0.000000
  b_2     0.000000   2.950807   0.000000
  b_3     0.000000  -0.000000   0.418930

  Number of bands in QE calculation=  15
  Number of wannier functions=   2
  Number of k-points for wannierization=  36
  Disentanglement performed
  Omega_I=  1.82967754

  Coordinate of Wannier centres and spreads 
  wfc #   1   [   0.00000000 -0.00000000  7.49908884 ]  sprd=  0.92648469
  wfc #   2   [   0.00000000  1.41954130  7.49908884 ]  sprd=  0.92648375


   Starting differential parameters read (eV):
      nel_r =     2.000000
      efermi =    -1.671419
      homo =     0.000000
      lumo =     0.000000


 Reading/calculating k and q-points for interpolation
 using iseed=      473989
 Reading k-grid from file: 
 /home/babby/git/epiq-develop/tutorials/graphene/automatic_run/k_mesh_small.dat                                                                                                                                                                                  
 Reading q-grid from file: 
 /home/babby/git/epiq-develop/tutorials/graphene/automatic_run/k_mesh_small.dat                                                                                                                                                                                  
 Writing k mesh filekmesh.dat
 Done

 -------------------------------------
      Reading el-ph mat elements
 -------------------------------------


 -------------------------------------
     Reading el-ph mat elements
 -------------------------------------


 -------------------------------------
           Disentanglement
 -------------------------------------


  -> Disentangling gop
     -----------------

      ... done in     0.0136370 seconds


  -> Disentangling commutator
     ------------------------


  -> Disentangling Hamiltonian
     -------------------------

      ... done in     0.0000380 seconds


  -> Fourier transform of H
     ----------------------

      ... done in     0.2383230 seconds


  -> Fourier transform transform of g
     --------------------------------

      ... done in     0.1271940 seconds


  -> Fourier transform transform of commutator
     -----------------------------------------

      ... done in     0.0001910 seconds


 =====================================
         Begin interpolation
 =====================================


 -------------------------------------
           Resonant Raman
 -------------------------------------


  -> Running main-drive
     ------------------

     Buffer size for dynamical matrix is nq_buffer=    78
     The number of electrons should be      2.000000
     The Fermi level on the dense grid for sigma(     1)=     0.272114 is     -1.676152
     Elapsed time in calculating Fermi Energy      0.000634 seconds
     Around     20 q-points for      4 processes
     output file: graphene_resonant_raman.d                                                                                                                                                                                                                                       
     output file: graphene_drr_intensity.d                                                                                                                                                                                                                                        

  -> Running post-proccessing
     ------------------------

     reading from output file named: graphene_drr_intensity.d
     writing output file named: graphene_drr_spectrum.d

 -------------------------------------
                TIMING                
 -------------------------------------

   Elapsed time in reading / interpolating dyn_mat is     0.0298460 secs.

   Elapsed time in interpolating matrix elements is     0.2180090 secs.

   Elapsed time in g basis transformation     0.0067460 secs
   Elapsed time in calculation of the resonant Kernel    0.1019520secs

   ===> TOTAL ELAPSED TIME (without init.)=    0.6625700 secs.

 ===================================
          End interpolation       
 ===================================
    Time required:	 0   minutes and 1 seconds 
