
     Program PWSCF v.7.1 starts on 20Sep2022 at 10:24:13 

     This program is part of the open-source Quantum ESPRESSO suite
     for quantum simulation of materials; please cite
         "P. Giannozzi et al., J. Phys.:Condens. Matter 21 395502 (2009);
         "P. Giannozzi et al., J. Phys.:Condens. Matter 29 465901 (2017);
         "P. Giannozzi et al., J. Chem. Phys. 152 154105 (2020);
          URL http://www.quantum-espresso.org", 
     in publications or presentations arising from this work. More details at
     http://www.quantum-espresso.org/quote

     Parallel version (MPI), running on     8 processors

     MPI processes distributed on     1 nodes
     5191 MiB available memory on the printing compute node when the environment starts

     Waiting for input...
     Reading input from standard input

     Current dimensions of program PWSCF are:
     Max number of different atomic species (ntypx) = 10
     Max number of k-points (npk) =  40000
     Max angular momentum in pseudopotentials (lmaxx) =  4

     Atomic positions and unit cell read from directory:
     /home/babby/epiq_tutorial_test//tutorials/graphene/results/nscf_wann/graphene.save/
     Atomic positions from file used, from input discarded


     K-points division:     npool     =       8
     Subspace diagonalization in iterative solution of the eigenvalue problem:
     a serial algorithm will be used


     G-vector sticks info
     --------------------
     sticks:   dense  smooth     PW     G-vecs:    dense   smooth      PW
     Sum         313     313    121                28981    28981    6079

     Using Slab Decomposition



     bravais-lattice index     =            4
     lattice parameter (alat)  =       4.6463  a.u.
     unit-cell volume          =     529.8869 (a.u.)^3
     number of atoms/cell      =            2
     number of atomic types    =            1
     number of electrons       =         8.00
     number of Kohn-Sham states=           15
     kinetic-energy cutoff     =      55.0000  Ry
     charge density cutoff     =     220.0000  Ry
     Exchange-correlation= PBE
                           (   1   4   3   4   0   0   0)

     celldm(1)=   4.646303  celldm(2)=   0.000000  celldm(3)=   6.100000
     celldm(4)=   0.000000  celldm(5)=   0.000000  celldm(6)=   0.000000

     crystal axes: (cart. coord. in units of alat)
               a(1) = (   1.000000   0.000000   0.000000 )  
               a(2) = (  -0.500000   0.866025   0.000000 )  
               a(3) = (   0.000000   0.000000   6.100000 )  

     reciprocal axes: (cart. coord. in units 2 pi/alat)
               b(1) = (  1.000000  0.577350 -0.000000 )  
               b(2) = (  0.000000  1.154701  0.000000 )  
               b(3) = (  0.000000 -0.000000  0.163934 )  


     PseudoPot. # 1 for C  read from file:
     /home/babby/epiq_tutorial_test//tutorials/graphene/pseudo/C.UPF
     MD5 check sum: 34a24e64c0a39f27c6c36b90a16ac686
     Pseudo is Norm-conserving + core correction, Zval =  4.0
     Generated using ONCVPSP code by D. R. Hamann
     Using radial grid of 1248 points,  4 beta functions with: 
                l(1) =   0
                l(2) =   0
                l(3) =   1
                l(4) =   1

     atomic species   valence    mass     pseudopotential
        C              4.00    12.01000     C ( 1.00)

     24 Sym. Ops., with inversion, found (12 have fractional translation)


                                    s                        frac. trans.

      isym =  1     identity                                     

 cryst.   s( 1) = (     1          0          0      )
                  (     0          1          0      )
                  (     0          0          1      )

 cart.    s( 1) = (  1.0000000  0.0000000  0.0000000 )
                  (  0.0000000  1.0000000  0.0000000 )
                  (  0.0000000  0.0000000  1.0000000 )


      isym =  2     180 deg rotation - cart. axis [0,0,1]        

 cryst.   s( 2) = (    -1          0          0      )    f =( -0.3333333 )
                  (     0         -1          0      )       (  0.3333333 )
                  (     0          0          1      )       (  0.0000000 )

 cart.    s( 2) = ( -1.0000000  0.0000000  0.0000000 )    f =( -0.5000000 )
                  (  0.0000000 -1.0000000  0.0000000 )       (  0.2886751 )
                  (  0.0000000  0.0000000  1.0000000 )       (  0.0000000 )


      isym =  3     180 deg rotation - cart. axis [0,1,0]        

 cryst.   s( 3) = (    -1          0          0      )
                  (     1          1          0      )
                  (     0          0         -1      )

 cart.    s( 3) = ( -1.0000000  0.0000000  0.0000000 )
                  (  0.0000000  1.0000000  0.0000000 )
                  (  0.0000000  0.0000000 -1.0000000 )


      isym =  4     180 deg rotation - cart. axis [1,0,0]        

 cryst.   s( 4) = (     1          0          0      )    f =( -0.3333333 )
                  (    -1         -1          0      )       (  0.3333333 )
                  (     0          0         -1      )       (  0.0000000 )

 cart.    s( 4) = (  1.0000000  0.0000000  0.0000000 )    f =( -0.5000000 )
                  (  0.0000000 -1.0000000  0.0000000 )       (  0.2886751 )
                  (  0.0000000  0.0000000 -1.0000000 )       (  0.0000000 )


      isym =  5      60 deg rotation - cryst. axis [0,0,1]       

 cryst.   s( 5) = (     1          1          0      )    f =( -0.3333333 )
                  (    -1          0          0      )       (  0.3333333 )
                  (     0          0          1      )       (  0.0000000 )

 cart.    s( 5) = (  0.5000000 -0.8660254  0.0000000 )    f =( -0.5000000 )
                  (  0.8660254  0.5000000  0.0000000 )       (  0.2886751 )
                  (  0.0000000  0.0000000  1.0000000 )       (  0.0000000 )


      isym =  6      60 deg rotation - cryst. axis [0,0,-1]      

 cryst.   s( 6) = (     0         -1          0      )    f =( -0.3333333 )
                  (     1          1          0      )       (  0.3333333 )
                  (     0          0          1      )       (  0.0000000 )

 cart.    s( 6) = (  0.5000000  0.8660254  0.0000000 )    f =( -0.5000000 )
                  ( -0.8660254  0.5000000  0.0000000 )       (  0.2886751 )
                  (  0.0000000  0.0000000  1.0000000 )       (  0.0000000 )


      isym =  7     120 deg rotation - cryst. axis [0,0,1]       

 cryst.   s( 7) = (     0          1          0      )
                  (    -1         -1          0      )
                  (     0          0          1      )

 cart.    s( 7) = ( -0.5000000 -0.8660254  0.0000000 )
                  (  0.8660254 -0.5000000  0.0000000 )
                  (  0.0000000  0.0000000  1.0000000 )


      isym =  8     120 deg rotation - cryst. axis [0,0,-1]      

 cryst.   s( 8) = (    -1         -1          0      )
                  (     1          0          0      )
                  (     0          0          1      )

 cart.    s( 8) = ( -0.5000000  0.8660254  0.0000000 )
                  ( -0.8660254 -0.5000000  0.0000000 )
                  (  0.0000000  0.0000000  1.0000000 )


      isym =  9     180 deg rotation - cryst. axis [1,-1,0]      

 cryst.   s( 9) = (     0         -1          0      )
                  (    -1          0          0      )
                  (     0          0         -1      )

 cart.    s( 9) = (  0.5000000 -0.8660254  0.0000000 )
                  ( -0.8660254 -0.5000000  0.0000000 )
                  (  0.0000000  0.0000000 -1.0000000 )


      isym = 10     180 deg rotation - cryst. axis [2,1,0]       

 cryst.   s(10) = (     1          1          0      )
                  (     0         -1          0      )
                  (     0          0         -1      )

 cart.    s(10) = (  0.5000000  0.8660254  0.0000000 )
                  (  0.8660254 -0.5000000  0.0000000 )
                  (  0.0000000  0.0000000 -1.0000000 )


      isym = 11     180 deg rotation - cryst. axis [0,1,0]       

 cryst.   s(11) = (    -1         -1          0      )    f =( -0.3333333 )
                  (     0          1          0      )       (  0.3333333 )
                  (     0          0         -1      )       (  0.0000000 )

 cart.    s(11) = ( -0.5000000 -0.8660254  0.0000000 )    f =( -0.5000000 )
                  ( -0.8660254  0.5000000  0.0000000 )       (  0.2886751 )
                  (  0.0000000  0.0000000 -1.0000000 )       (  0.0000000 )


      isym = 12     180 deg rotation - cryst. axis [1,1,0]       

 cryst.   s(12) = (     0          1          0      )    f =( -0.3333333 )
                  (     1          0          0      )       (  0.3333333 )
                  (     0          0         -1      )       (  0.0000000 )

 cart.    s(12) = ( -0.5000000  0.8660254  0.0000000 )    f =( -0.5000000 )
                  (  0.8660254  0.5000000  0.0000000 )       (  0.2886751 )
                  (  0.0000000  0.0000000 -1.0000000 )       (  0.0000000 )


      isym = 13     inversion                                    

 cryst.   s(13) = (    -1          0          0      )    f =( -0.3333333 )
                  (     0         -1          0      )       (  0.3333333 )
                  (     0          0         -1      )       (  0.0000000 )

 cart.    s(13) = ( -1.0000000  0.0000000  0.0000000 )    f =( -0.5000000 )
                  (  0.0000000 -1.0000000  0.0000000 )       (  0.2886751 )
                  (  0.0000000  0.0000000 -1.0000000 )       (  0.0000000 )


      isym = 14     inv. 180 deg rotation - cart. axis [0,0,1]   

 cryst.   s(14) = (     1          0          0      )
                  (     0          1          0      )
                  (     0          0         -1      )

 cart.    s(14) = (  1.0000000  0.0000000  0.0000000 )
                  (  0.0000000  1.0000000  0.0000000 )
                  (  0.0000000  0.0000000 -1.0000000 )


      isym = 15     inv. 180 deg rotation - cart. axis [0,1,0]   

 cryst.   s(15) = (     1          0          0      )    f =( -0.3333333 )
                  (    -1         -1          0      )       (  0.3333333 )
                  (     0          0          1      )       (  0.0000000 )

 cart.    s(15) = (  1.0000000  0.0000000  0.0000000 )    f =( -0.5000000 )
                  (  0.0000000 -1.0000000  0.0000000 )       (  0.2886751 )
                  (  0.0000000  0.0000000  1.0000000 )       (  0.0000000 )


      isym = 16     inv. 180 deg rotation - cart. axis [1,0,0]   

 cryst.   s(16) = (    -1          0          0      )
                  (     1          1          0      )
                  (     0          0          1      )

 cart.    s(16) = ( -1.0000000  0.0000000  0.0000000 )
                  (  0.0000000  1.0000000  0.0000000 )
                  (  0.0000000  0.0000000  1.0000000 )


      isym = 17     inv.  60 deg rotation - cryst. axis [0,0,1]  

 cryst.   s(17) = (    -1         -1          0      )
                  (     1          0          0      )
                  (     0          0         -1      )

 cart.    s(17) = ( -0.5000000  0.8660254  0.0000000 )
                  ( -0.8660254 -0.5000000  0.0000000 )
                  (  0.0000000  0.0000000 -1.0000000 )


      isym = 18     inv.  60 deg rotation - cryst. axis [0,0,-1] 

 cryst.   s(18) = (     0          1          0      )
                  (    -1         -1          0      )
                  (     0          0         -1      )

 cart.    s(18) = ( -0.5000000 -0.8660254  0.0000000 )
                  (  0.8660254 -0.5000000  0.0000000 )
                  (  0.0000000  0.0000000 -1.0000000 )


      isym = 19     inv. 120 deg rotation - cryst. axis [0,0,1]  

 cryst.   s(19) = (     0         -1          0      )    f =( -0.3333333 )
                  (     1          1          0      )       (  0.3333333 )
                  (     0          0         -1      )       (  0.0000000 )

 cart.    s(19) = (  0.5000000  0.8660254  0.0000000 )    f =( -0.5000000 )
                  ( -0.8660254  0.5000000  0.0000000 )       (  0.2886751 )
                  (  0.0000000  0.0000000 -1.0000000 )       (  0.0000000 )


      isym = 20     inv. 120 deg rotation - cryst. axis [0,0,-1] 

 cryst.   s(20) = (     1          1          0      )    f =( -0.3333333 )
                  (    -1          0          0      )       (  0.3333333 )
                  (     0          0         -1      )       (  0.0000000 )

 cart.    s(20) = (  0.5000000 -0.8660254  0.0000000 )    f =( -0.5000000 )
                  (  0.8660254  0.5000000  0.0000000 )       (  0.2886751 )
                  (  0.0000000  0.0000000 -1.0000000 )       (  0.0000000 )


      isym = 21     inv. 180 deg rotation - cryst. axis [1,-1,0] 

 cryst.   s(21) = (     0          1          0      )    f =( -0.3333333 )
                  (     1          0          0      )       (  0.3333333 )
                  (     0          0          1      )       (  0.0000000 )

 cart.    s(21) = ( -0.5000000  0.8660254  0.0000000 )    f =( -0.5000000 )
                  (  0.8660254  0.5000000  0.0000000 )       (  0.2886751 )
                  (  0.0000000  0.0000000  1.0000000 )       (  0.0000000 )


      isym = 22     inv. 180 deg rotation - cryst. axis [2,1,0]  

 cryst.   s(22) = (    -1         -1          0      )    f =( -0.3333333 )
                  (     0          1          0      )       (  0.3333333 )
                  (     0          0          1      )       (  0.0000000 )

 cart.    s(22) = ( -0.5000000 -0.8660254  0.0000000 )    f =( -0.5000000 )
                  ( -0.8660254  0.5000000  0.0000000 )       (  0.2886751 )
                  (  0.0000000  0.0000000  1.0000000 )       (  0.0000000 )


      isym = 23     inv. 180 deg rotation - cryst. axis [0,1,0]  

 cryst.   s(23) = (     1          1          0      )
                  (     0         -1          0      )
                  (     0          0          1      )

 cart.    s(23) = (  0.5000000  0.8660254  0.0000000 )
                  (  0.8660254 -0.5000000  0.0000000 )
                  (  0.0000000  0.0000000  1.0000000 )


      isym = 24     inv. 180 deg rotation - cryst. axis [1,1,0]  

 cryst.   s(24) = (     0         -1          0      )
                  (    -1          0          0      )
                  (     0          0          1      )

 cart.    s(24) = (  0.5000000 -0.8660254  0.0000000 )
                  ( -0.8660254 -0.5000000  0.0000000 )
                  (  0.0000000  0.0000000  1.0000000 )


     point group D_6h(6/mmm)
     there are 12 classes
     the character table:

       E     2C6   2C3   C2    3C2'  3C2'' i     2S3   2S6   s_h   3s_d  3s_v 
A_1g   1.00  1.00  1.00  1.00  1.00  1.00  1.00  1.00  1.00  1.00  1.00  1.00
A_2g   1.00  1.00  1.00  1.00 -1.00 -1.00  1.00  1.00  1.00  1.00 -1.00 -1.00
B_1g   1.00 -1.00  1.00 -1.00  1.00 -1.00  1.00 -1.00  1.00 -1.00  1.00 -1.00
B_2g   1.00 -1.00  1.00 -1.00 -1.00  1.00  1.00 -1.00  1.00 -1.00 -1.00  1.00
E_1g   2.00  1.00 -1.00 -2.00  0.00  0.00  2.00  1.00 -1.00 -2.00  0.00  0.00
E_2g   2.00 -1.00 -1.00  2.00  0.00  0.00  2.00 -1.00 -1.00  2.00  0.00  0.00
A_1u   1.00  1.00  1.00  1.00  1.00  1.00 -1.00 -1.00 -1.00 -1.00 -1.00 -1.00
A_2u   1.00  1.00  1.00  1.00 -1.00 -1.00 -1.00 -1.00 -1.00 -1.00  1.00  1.00
B_1u   1.00 -1.00  1.00 -1.00  1.00 -1.00 -1.00  1.00 -1.00  1.00 -1.00  1.00
B_2u   1.00 -1.00  1.00 -1.00 -1.00  1.00 -1.00  1.00 -1.00  1.00  1.00 -1.00
E_1u   2.00  1.00 -1.00 -2.00  0.00  0.00 -2.00 -1.00  1.00  2.00  0.00  0.00
E_2u   2.00 -1.00 -1.00  2.00  0.00  0.00 -2.00  1.00  1.00 -2.00  0.00  0.00

     the symmetry operations in each class and the name of the first element:

     E        1
          identity                                               
     2C6      5    6
           60 deg rotation - cryst. axis [0,0,1]                 
     2C3      7    8
          120 deg rotation - cryst. axis [0,0,1]                 
     C2       2
          180 deg rotation - cart. axis [0,0,1]                  
     3C2'     4   12   11
          180 deg rotation - cart. axis [1,0,0]                  
     3C2''    3    9   10
          180 deg rotation - cart. axis [0,1,0]                  
     i       13
          inversion                                              
     2S3     17   18
          inv.  60 deg rotation - cryst. axis [0,0,1]            
     2S6     19   20
          inv. 120 deg rotation - cryst. axis [0,0,1]            
     s_h     14
          inv. 180 deg rotation - cart. axis [0,0,1]             
     3s_d    16   24   23
          inv. 180 deg rotation - cart. axis [1,0,0]             
     3s_v    15   21   22
          inv. 180 deg rotation - cart. axis [0,1,0]             

   Cartesian axes

     site n.     atom                  positions (alat units)
         1           C   tau(   1) = (   0.0000000   0.0000000   3.0500000  )
         2           C   tau(   2) = (  -0.0000000   0.5773503   3.0500000  )

   Crystallographic axes

     site n.     atom                  positions (cryst. coord.)
         1           C   tau(   1) = (  0.0000000  0.0000000  0.5000000  )
         2           C   tau(   2) = (  0.3333333  0.6666667  0.5000000  )

     number of k points=    36  Methfessel-Paxton smearing, width (Ry)=  0.0250
                       cart. coord. in units 2pi/alat
        k(    1) = (   0.0000000   0.0000000   0.0000000), wk =   0.0555556
        k(    2) = (   0.0000000   0.1924501   0.0000000), wk =   0.0555556
        k(    3) = (   0.0000000   0.3849002   0.0000000), wk =   0.0555556
        k(    4) = (   0.0000000  -0.5773503   0.0000000), wk =   0.0555556
        k(    5) = (   0.0000000  -0.3849002   0.0000000), wk =   0.0555556
        k(    6) = (   0.0000000  -0.1924501   0.0000000), wk =   0.0555556
        k(    7) = (   0.1666667   0.0962250   0.0000000), wk =   0.0555556
        k(    8) = (   0.1666667   0.2886751   0.0000000), wk =   0.0555556
        k(    9) = (   0.1666667   0.4811252   0.0000000), wk =   0.0555556
        k(   10) = (   0.1666667  -0.4811252   0.0000000), wk =   0.0555556
        k(   11) = (   0.1666667  -0.2886751   0.0000000), wk =   0.0555556
        k(   12) = (   0.1666667  -0.0962250   0.0000000), wk =   0.0555556
        k(   13) = (   0.3333333   0.1924501   0.0000000), wk =   0.0555556
        k(   14) = (   0.3333333   0.3849002   0.0000000), wk =   0.0555556
        k(   15) = (   0.3333333   0.5773503   0.0000000), wk =   0.0555556
        k(   16) = (   0.3333333  -0.3849002   0.0000000), wk =   0.0555556
        k(   17) = (   0.3333333  -0.1924501   0.0000000), wk =   0.0555556
        k(   18) = (   0.3333333  -0.0000000   0.0000000), wk =   0.0555556
        k(   19) = (  -0.5000000  -0.2886751   0.0000000), wk =   0.0555556
        k(   20) = (  -0.5000000  -0.0962250   0.0000000), wk =   0.0555556
        k(   21) = (  -0.5000000   0.0962250   0.0000000), wk =   0.0555556
        k(   22) = (  -0.5000000  -0.8660254   0.0000000), wk =   0.0555556
        k(   23) = (  -0.5000000  -0.6735753   0.0000000), wk =   0.0555556
        k(   24) = (  -0.5000000  -0.4811252   0.0000000), wk =   0.0555556
        k(   25) = (  -0.3333333  -0.1924501   0.0000000), wk =   0.0555556
        k(   26) = (  -0.3333333   0.0000000   0.0000000), wk =   0.0555556
        k(   27) = (  -0.3333333   0.1924501   0.0000000), wk =   0.0555556
        k(   28) = (  -0.3333333  -0.7698004   0.0000000), wk =   0.0555556
        k(   29) = (  -0.3333333  -0.5773503   0.0000000), wk =   0.0555556
        k(   30) = (  -0.3333333  -0.3849002   0.0000000), wk =   0.0555556
        k(   31) = (  -0.1666667  -0.0962250   0.0000000), wk =   0.0555556
        k(   32) = (  -0.1666667   0.0962250   0.0000000), wk =   0.0555556
        k(   33) = (  -0.1666667   0.2886751   0.0000000), wk =   0.0555556
        k(   34) = (  -0.1666667  -0.6735753   0.0000000), wk =   0.0555556
        k(   35) = (  -0.1666667  -0.4811252   0.0000000), wk =   0.0555556
        k(   36) = (  -0.1666667  -0.2886751   0.0000000), wk =   0.0555556

                       cryst. coord.
        k(    1) = (   0.0000000   0.0000000   0.0000000), wk =   0.0555556
        k(    2) = (   0.0000000   0.1666667   0.0000000), wk =   0.0555556
        k(    3) = (   0.0000000   0.3333333   0.0000000), wk =   0.0555556
        k(    4) = (   0.0000000  -0.5000000   0.0000000), wk =   0.0555556
        k(    5) = (   0.0000000  -0.3333333   0.0000000), wk =   0.0555556
        k(    6) = (   0.0000000  -0.1666667   0.0000000), wk =   0.0555556
        k(    7) = (   0.1666667   0.0000000   0.0000000), wk =   0.0555556
        k(    8) = (   0.1666667   0.1666667   0.0000000), wk =   0.0555556
        k(    9) = (   0.1666667   0.3333333   0.0000000), wk =   0.0555556
        k(   10) = (   0.1666667  -0.5000000   0.0000000), wk =   0.0555556
        k(   11) = (   0.1666667  -0.3333333   0.0000000), wk =   0.0555556
        k(   12) = (   0.1666667  -0.1666667   0.0000000), wk =   0.0555556
        k(   13) = (   0.3333333  -0.0000000   0.0000000), wk =   0.0555556
        k(   14) = (   0.3333333   0.1666667   0.0000000), wk =   0.0555556
        k(   15) = (   0.3333333   0.3333333   0.0000000), wk =   0.0555556
        k(   16) = (   0.3333333  -0.5000000   0.0000000), wk =   0.0555556
        k(   17) = (   0.3333333  -0.3333333   0.0000000), wk =   0.0555556
        k(   18) = (   0.3333333  -0.1666667   0.0000000), wk =   0.0555556
        k(   19) = (  -0.5000000   0.0000000   0.0000000), wk =   0.0555556
        k(   20) = (  -0.5000000   0.1666667   0.0000000), wk =   0.0555556
        k(   21) = (  -0.5000000   0.3333333   0.0000000), wk =   0.0555556
        k(   22) = (  -0.5000000  -0.5000000   0.0000000), wk =   0.0555556
        k(   23) = (  -0.5000000  -0.3333333   0.0000000), wk =   0.0555556
        k(   24) = (  -0.5000000  -0.1666667   0.0000000), wk =   0.0555556
        k(   25) = (  -0.3333333   0.0000000   0.0000000), wk =   0.0555556
        k(   26) = (  -0.3333333   0.1666667   0.0000000), wk =   0.0555556
        k(   27) = (  -0.3333333   0.3333333   0.0000000), wk =   0.0555556
        k(   28) = (  -0.3333333  -0.5000000   0.0000000), wk =   0.0555556
        k(   29) = (  -0.3333333  -0.3333333   0.0000000), wk =   0.0555556
        k(   30) = (  -0.3333333  -0.1666667   0.0000000), wk =   0.0555556
        k(   31) = (  -0.1666667   0.0000000   0.0000000), wk =   0.0555556
        k(   32) = (  -0.1666667   0.1666667   0.0000000), wk =   0.0555556
        k(   33) = (  -0.1666667   0.3333333   0.0000000), wk =   0.0555556
        k(   34) = (  -0.1666667  -0.5000000   0.0000000), wk =   0.0555556
        k(   35) = (  -0.1666667  -0.3333333   0.0000000), wk =   0.0555556
        k(   36) = (  -0.1666667  -0.1666667   0.0000000), wk =   0.0555556

     Dense  grid:    28981 G-vectors     FFT dimensions: (  24,  24, 135)

     Dynamical RAM for                 wfc:       0.84 MB

     Dynamical RAM for     wfc (w. buffer):       0.84 MB

     Dynamical RAM for           str. fact:       0.44 MB

     Dynamical RAM for           local pot:       0.00 MB

     Dynamical RAM for          nlocal pot:       0.89 MB

     Dynamical RAM for                qrad:       0.34 MB

     Dynamical RAM for          rho,v,vnew:       3.11 MB

     Dynamical RAM for           G-vectors:       1.88 MB

     Dynamical RAM for          h,s,v(r/c):       0.04 MB

     Dynamical RAM for          <psi|beta>:       0.00 MB

     Dynamical RAM for                 psi:       1.67 MB

     Dynamical RAM for                hpsi:       1.67 MB

     Dynamical RAM for      wfcinit/wfcrot:       1.68 MB

     Estimated static dynamical RAM per process >      11.35 MB

     Estimated max dynamical RAM per process >      14.73 MB

     Estimated total dynamical RAM >     117.86 MB

     The potential is recalculated from file :
     /home/babby/epiq_tutorial_test//tutorials/graphene/results/nscf_wann/graphene.save/charge-density

     Starting wfcs are    8 randomized atomic wfcs +    7 random wfcs

     Band Structure Calculation
     Davidson diagonalization with overlap

     Computing kpt #:     1  of     5 on this pool
     total cpu time spent up to now is        3.4 secs

     Computing kpt #:     2  of     5 on this pool
     total cpu time spent up to now is        6.0 secs

     Computing kpt #:     3  of     5 on this pool
     total cpu time spent up to now is        8.4 secs

     Computing kpt #:     4  of     5 on this pool
     total cpu time spent up to now is       10.8 secs

     Computing kpt #:     5  of     5 on this pool
     total cpu time spent up to now is       11.8 secs

     ethr =  1.25E-13,  avg # of iterations = 59.4

     total cpu time spent up to now is       12.6 secs

     End of band structure calculation

          k = 0.0000 0.0000 0.0000 (  3703 PWs)   bands (ev):

   -21.3144  -9.3720  -4.7379  -4.7379   1.5392   2.4381   2.9326   4.8057
     5.6320   6.7840   6.7840   8.7467   9.8599   9.8746  11.0154

     occupation numbers 
     1.0000   1.0000   1.0000   1.0000  -0.0000  -0.0000  -0.0000  -0.0000
    -0.0000  -0.0000  -0.0000  -0.0000  -0.0000  -0.0000  -0.0000

          k = 0.0000 0.1925 0.0000 (  3691 PWs)   bands (ev):

   -20.6576  -8.5863  -7.0439  -5.8842   2.4362   3.3411   3.8456   5.7011
     6.4826   6.8508   7.7806   9.3520   9.6168  10.7566  12.2952

     occupation numbers 
     1.0000   1.0000   1.0000   1.0000  -0.0000  -0.0000  -0.0000  -0.0000
    -0.0000  -0.0000  -0.0000  -0.0000  -0.0000  -0.0000  -0.0000

          k = 0.0000 0.3849 0.0000 (  3646 PWs)   bands (ev):

   -18.7181 -11.3775  -7.5181  -6.3474   3.2856   5.1111   6.0646   6.1697
     6.6006   8.3869   9.2308  12.1206  13.3859  14.2510  14.7981

     occupation numbers 
     1.0000   1.0000   1.0000   1.0000  -0.0000  -0.0000  -0.0000  -0.0000
    -0.0000  -0.0000  -0.0000  -0.0000  -0.0000  -0.0000  -0.0000

          k = 0.0000-0.5774 0.0000 (  3592 PWs)   bands (ev):

   -16.0321 -15.0157  -8.1611  -4.0596   0.0198   5.8373   9.4548   9.5983
    10.3379  10.5651  11.1293  11.1503  12.4711  12.9360  13.5879

     occupation numbers 
     1.0000   1.0000   1.0000   1.0000  -0.0000  -0.0000  -0.0000  -0.0000
    -0.0000  -0.0000  -0.0000  -0.0000  -0.0000  -0.0000  -0.0000

          k = 0.0000-0.3849 0.0000 (  3646 PWs)   bands (ev):

   -18.7181 -11.3775  -7.5181  -6.3474   3.2856   5.1111   6.0646   6.1697
     6.6006   8.3869   9.2308  12.1206  13.3859  14.2510  14.7981

     occupation numbers 
     1.0000   1.0000   1.0000   1.0000  -0.0000  -0.0000  -0.0000  -0.0000
    -0.0000  -0.0000  -0.0000  -0.0000  -0.0000  -0.0000  -0.0000

          k = 0.0000-0.1925 0.0000 (  3691 PWs)   bands (ev):

   -20.6576  -8.5863  -7.0439  -5.8842   2.4362   3.3411   3.8456   5.7011
     6.4826   6.8508   7.7806   9.3520   9.6168  10.7566  12.2952

     occupation numbers 
     1.0000   1.0000   1.0000   1.0000  -0.0000  -0.0000  -0.0000  -0.0000
    -0.0000  -0.0000  -0.0000  -0.0000  -0.0000  -0.0000  -0.0000

          k = 0.1667 0.0962 0.0000 (  3691 PWs)   bands (ev):

   -20.6576  -8.5863  -7.0439  -5.8842   2.4362   3.3411   3.8456   5.7011
     6.4826   6.8508   7.7806   9.3520   9.6168  10.7566  12.2952

     occupation numbers 
     1.0000   1.0000   1.0000   1.0000  -0.0000  -0.0000  -0.0000  -0.0000
    -0.0000  -0.0000  -0.0000  -0.0000  -0.0000  -0.0000  -0.0000

          k = 0.1667 0.2887 0.0000 (  3653 PWs)   bands (ev):

   -19.3592  -9.4959  -8.1535  -7.0612   4.2284   4.7693   5.1324   5.6726
     7.4699   8.2348   8.5954  10.0320  11.2330  12.5265  15.2625

     occupation numbers 
     1.0000   1.0000   1.0000   1.0000  -0.0000  -0.0000  -0.0000  -0.0000
    -0.0000  -0.0000  -0.0000  -0.0000  -0.0000  -0.0000  -0.0000

          k = 0.1667 0.4811 0.0000 (  3630 PWs)   bands (ev):

   -16.8595 -13.1611  -9.8009  -4.3570   0.8721   7.7603   8.5055   8.5574
     9.3229  10.6021  11.8510  12.2829  12.3017  14.4738  14.4952

     occupation numbers 
     1.0000   1.0000   1.0000   1.0000  -0.0000  -0.0000  -0.0000  -0.0000
    -0.0000  -0.0000  -0.0000  -0.0000  -0.0000  -0.0000  -0.0000

          k = 0.1667-0.4811 0.0000 (  3630 PWs)   bands (ev):

   -16.8595 -13.1611  -9.8009  -4.3570   0.8721   7.7603   8.5055   8.5574
     9.3229  10.6021  11.8510  12.2829  12.3017  14.4738  14.4952

     occupation numbers 
     1.0000   1.0000   1.0000   1.0000  -0.0000  -0.0000  -0.0000  -0.0000
    -0.0000  -0.0000  -0.0000  -0.0000  -0.0000  -0.0000  -0.0000

          k = 0.1667-0.2887 0.0000 (  3653 PWs)   bands (ev):

   -19.3592  -9.4959  -8.1535  -7.0612   4.2284   4.7693   5.1324   5.6726
     7.4699   8.2348   8.5954  10.0320  11.2330  12.5265  15.2625

     occupation numbers 
     1.0000   1.0000   1.0000   1.0000  -0.0000  -0.0000  -0.0000  -0.0000
    -0.0000  -0.0000  -0.0000  -0.0000  -0.0000  -0.0000  -0.0000

          k = 0.1667-0.0962 0.0000 (  3691 PWs)   bands (ev):

   -20.6576  -8.5863  -7.0439  -5.8842   2.4362   3.3411   3.8456   5.7011
     6.4826   6.8508   7.7806   9.3520   9.6168  10.7566  12.2952

     occupation numbers 
     1.0000   1.0000   1.0000   1.0000  -0.0000  -0.0000  -0.0000  -0.0000
    -0.0000  -0.0000  -0.0000  -0.0000  -0.0000  -0.0000  -0.0000

          k = 0.3333 0.1925 0.0000 (  3646 PWs)   bands (ev):

   -18.7181 -11.3775  -7.5181  -6.3474   3.2856   5.1111   6.0646   6.1697
     6.6006   8.3869   9.2308  12.1206  13.3859  14.2510  14.7981

     occupation numbers 
     1.0000   1.0000   1.0000   1.0000  -0.0000  -0.0000  -0.0000  -0.0000
    -0.0000  -0.0000  -0.0000  -0.0000  -0.0000  -0.0000  -0.0000

          k = 0.3333 0.3849 0.0000 (  3630 PWs)   bands (ev):

   -16.8595 -13.1611  -9.8009  -4.3570   0.8721   7.7603   8.5055   8.5574
     9.3229  10.6021  11.8510  12.2829  12.3017  14.4738  14.4952

     occupation numbers 
     1.0000   1.0000   1.0000   1.0000  -0.0000  -0.0000  -0.0000  -0.0000
    -0.0000  -0.0000  -0.0000  -0.0000  -0.0000  -0.0000  -0.0000

          k = 0.3333 0.5774 0.0000 (  3660 PWs)   bands (ev):

   -14.3493 -14.3493 -12.3427  -1.6739  -1.6739   8.9844  11.2912  11.2912
    11.8580  13.2810  13.2810  13.5663  13.5663  13.7649  14.1357

     occupation numbers 
     1.0000   1.0000   1.0000   0.5000   0.5000  -0.0000  -0.0000  -0.0000
    -0.0000  -0.0000  -0.0000  -0.0000  -0.0000  -0.0000  -0.0000

          k = 0.3333-0.3849 0.0000 (  3630 PWs)   bands (ev):

   -16.8595 -13.1611  -9.8009  -4.3570   0.8721   7.7603   8.5055   8.5574
     9.3229  10.6021  11.8510  12.2829  12.3017  14.4738  14.4952

     occupation numbers 
     1.0000   1.0000   1.0000   1.0000  -0.0000  -0.0000  -0.0000  -0.0000
    -0.0000  -0.0000  -0.0000  -0.0000  -0.0000  -0.0000  -0.0000

          k = 0.3333-0.1925 0.0000 (  3646 PWs)   bands (ev):

   -18.7181 -11.3775  -7.5181  -6.3474   3.2856   5.1111   6.0646   6.1697
     6.6006   8.3869   9.2308  12.1206  13.3859  14.2510  14.7981

     occupation numbers 
     1.0000   1.0000   1.0000   1.0000  -0.0000  -0.0000  -0.0000  -0.0000
    -0.0000  -0.0000  -0.0000  -0.0000  -0.0000  -0.0000  -0.0000

          k = 0.3333-0.0000 0.0000 (  3653 PWs)   bands (ev):

   -19.3592  -9.4959  -8.1535  -7.0612   4.2284   4.7693   5.1324   5.6726
     7.4699   8.2348   8.5954  10.0320  11.2330  12.5265  15.2625

     occupation numbers 
     1.0000   1.0000   1.0000   1.0000  -0.0000  -0.0000  -0.0000  -0.0000
    -0.0000  -0.0000  -0.0000  -0.0000  -0.0000  -0.0000  -0.0000

          k =-0.5000-0.2887 0.0000 (  3592 PWs)   bands (ev):

   -16.0321 -15.0157  -8.1611  -4.0596   0.0198   5.8373   9.4548   9.5983
    10.3379  10.5651  11.1293  11.1503  12.4711  12.9360  13.5879

     occupation numbers 
     1.0000   1.0000   1.0000   1.0000  -0.0000  -0.0000  -0.0000  -0.0000
    -0.0000  -0.0000  -0.0000  -0.0000  -0.0000  -0.0000  -0.0000

          k =-0.5000-0.0962 0.0000 (  3630 PWs)   bands (ev):

   -16.8595 -13.1611  -9.8009  -4.3570   0.8721   7.7603   8.5055   8.5574
     9.3229  10.6021  11.8510  12.2829  12.3017  14.4738  14.4952

     occupation numbers 
     1.0000   1.0000   1.0000   1.0000  -0.0000  -0.0000  -0.0000  -0.0000
    -0.0000  -0.0000  -0.0000  -0.0000  -0.0000  -0.0000  -0.0000

          k =-0.5000 0.0962 0.0000 (  3630 PWs)   bands (ev):

   -16.8595 -13.1611  -9.8009  -4.3570   0.8721   7.7603   8.5055   8.5574
     9.3229  10.6021  11.8510  12.2829  12.3017  14.4738  14.4952

     occupation numbers 
     1.0000   1.0000   1.0000   1.0000  -0.0000  -0.0000  -0.0000  -0.0000
    -0.0000  -0.0000  -0.0000  -0.0000  -0.0000  -0.0000  -0.0000

          k =-0.5000-0.8660 0.0000 (  3592 PWs)   bands (ev):

   -16.0321 -15.0157  -8.1611  -4.0596   0.0198   5.8373   9.4548   9.5983
    10.3379  10.5651  11.1293  11.1503  12.4711  12.9360  13.5879

     occupation numbers 
     1.0000   1.0000   1.0000   1.0000  -0.0000  -0.0000  -0.0000  -0.0000
    -0.0000  -0.0000  -0.0000  -0.0000  -0.0000  -0.0000  -0.0000

          k =-0.5000-0.6736 0.0000 (  3630 PWs)   bands (ev):

   -16.8595 -13.1611  -9.8009  -4.3570   0.8721   7.7603   8.5055   8.5574
     9.3229  10.6021  11.8510  12.2829  12.3017  14.4738  14.4952

     occupation numbers 
     1.0000   1.0000   1.0000   1.0000  -0.0000  -0.0000  -0.0000  -0.0000
    -0.0000  -0.0000  -0.0000  -0.0000  -0.0000  -0.0000  -0.0000

          k =-0.5000-0.4811 0.0000 (  3630 PWs)   bands (ev):

   -16.8595 -13.1611  -9.8009  -4.3570   0.8721   7.7603   8.5055   8.5574
     9.3229  10.6021  11.8510  12.2829  12.3017  14.4738  14.4952

     occupation numbers 
     1.0000   1.0000   1.0000   1.0000  -0.0000  -0.0000  -0.0000  -0.0000
    -0.0000  -0.0000  -0.0000  -0.0000  -0.0000  -0.0000  -0.0000

          k =-0.3333-0.1925 0.0000 (  3646 PWs)   bands (ev):

   -18.7181 -11.3775  -7.5181  -6.3474   3.2856   5.1111   6.0646   6.1697
     6.6006   8.3869   9.2308  12.1206  13.3859  14.2510  14.7981

     occupation numbers 
     1.0000   1.0000   1.0000   1.0000  -0.0000  -0.0000  -0.0000  -0.0000
    -0.0000  -0.0000  -0.0000  -0.0000  -0.0000  -0.0000  -0.0000

          k =-0.3333 0.0000 0.0000 (  3653 PWs)   bands (ev):

   -19.3592  -9.4959  -8.1535  -7.0612   4.2284   4.7693   5.1324   5.6726
     7.4699   8.2348   8.5954  10.0320  11.2330  12.5265  15.2625

     occupation numbers 
     1.0000   1.0000   1.0000   1.0000  -0.0000  -0.0000  -0.0000  -0.0000
    -0.0000  -0.0000  -0.0000  -0.0000  -0.0000  -0.0000  -0.0000

          k =-0.3333 0.1925 0.0000 (  3646 PWs)   bands (ev):

   -18.7181 -11.3775  -7.5181  -6.3474   3.2856   5.1111   6.0646   6.1697
     6.6006   8.3869   9.2308  12.1206  13.3859  14.2510  14.7981

     occupation numbers 
     1.0000   1.0000   1.0000   1.0000  -0.0000  -0.0000  -0.0000  -0.0000
    -0.0000  -0.0000  -0.0000  -0.0000  -0.0000  -0.0000  -0.0000

          k =-0.3333-0.7698 0.0000 (  3630 PWs)   bands (ev):

   -16.8595 -13.1611  -9.8009  -4.3570   0.8721   7.7603   8.5055   8.5574
     9.3229  10.6021  11.8510  12.2829  12.3017  14.4738  14.4952

     occupation numbers 
     1.0000   1.0000   1.0000   1.0000  -0.0000  -0.0000  -0.0000  -0.0000
    -0.0000  -0.0000  -0.0000  -0.0000  -0.0000  -0.0000  -0.0000

          k =-0.3333-0.5774 0.0000 (  3660 PWs)   bands (ev):

   -14.3493 -14.3493 -12.3427  -1.6739  -1.6739   8.9844  11.2912  11.2912
    11.8580  13.2810  13.2810  13.5663  13.5663  13.7649  14.1357

     occupation numbers 
     1.0000   1.0000   1.0000   0.5000   0.5000  -0.0000  -0.0000  -0.0000
    -0.0000  -0.0000  -0.0000  -0.0000  -0.0000  -0.0000  -0.0000

          k =-0.3333-0.3849 0.0000 (  3630 PWs)   bands (ev):

   -16.8595 -13.1611  -9.8009  -4.3570   0.8721   7.7603   8.5055   8.5574
     9.3229  10.6021  11.8510  12.2829  12.3017  14.4738  14.4952

     occupation numbers 
     1.0000   1.0000   1.0000   1.0000  -0.0000  -0.0000  -0.0000  -0.0000
    -0.0000  -0.0000  -0.0000  -0.0000  -0.0000  -0.0000  -0.0000

          k =-0.1667-0.0962 0.0000 (  3691 PWs)   bands (ev):

   -20.6576  -8.5863  -7.0439  -5.8842   2.4362   3.3411   3.8456   5.7011
     6.4826   6.8508   7.7806   9.3520   9.6168  10.7566  12.2952

     occupation numbers 
     1.0000   1.0000   1.0000   1.0000  -0.0000  -0.0000  -0.0000  -0.0000
    -0.0000  -0.0000  -0.0000  -0.0000  -0.0000  -0.0000  -0.0000

          k =-0.1667 0.0962 0.0000 (  3691 PWs)   bands (ev):

   -20.6576  -8.5863  -7.0439  -5.8842   2.4362   3.3411   3.8456   5.7011
     6.4826   6.8508   7.7806   9.3520   9.6168  10.7566  12.2952

     occupation numbers 
     1.0000   1.0000   1.0000   1.0000  -0.0000  -0.0000  -0.0000  -0.0000
    -0.0000  -0.0000  -0.0000  -0.0000  -0.0000  -0.0000  -0.0000

          k =-0.1667 0.2887 0.0000 (  3653 PWs)   bands (ev):

   -19.3592  -9.4959  -8.1535  -7.0612   4.2284   4.7693   5.1324   5.6726
     7.4699   8.2348   8.5954  10.0320  11.2330  12.5265  15.2625

     occupation numbers 
     1.0000   1.0000   1.0000   1.0000  -0.0000  -0.0000  -0.0000  -0.0000
    -0.0000  -0.0000  -0.0000  -0.0000  -0.0000  -0.0000  -0.0000

          k =-0.1667-0.6736 0.0000 (  3630 PWs)   bands (ev):

   -16.8595 -13.1611  -9.8009  -4.3570   0.8721   7.7603   8.5055   8.5574
     9.3229  10.6021  11.8510  12.2829  12.3017  14.4738  14.4952

     occupation numbers 
     1.0000   1.0000   1.0000   1.0000  -0.0000  -0.0000  -0.0000  -0.0000
    -0.0000  -0.0000  -0.0000  -0.0000  -0.0000  -0.0000  -0.0000

          k =-0.1667-0.4811 0.0000 (  3630 PWs)   bands (ev):

   -16.8595 -13.1611  -9.8009  -4.3570   0.8721   7.7603   8.5055   8.5574
     9.3229  10.6021  11.8510  12.2829  12.3017  14.4738  14.4952

     occupation numbers 
     1.0000   1.0000   1.0000   1.0000  -0.0000  -0.0000  -0.0000  -0.0000
    -0.0000  -0.0000  -0.0000  -0.0000  -0.0000  -0.0000  -0.0000

          k =-0.1667-0.2887 0.0000 (  3653 PWs)   bands (ev):

   -19.3592  -9.4959  -8.1535  -7.0612   4.2284   4.7693   5.1324   5.6726
     7.4699   8.2348   8.5954  10.0320  11.2330  12.5265  15.2625

     occupation numbers 
     1.0000   1.0000   1.0000   1.0000  -0.0000  -0.0000  -0.0000  -0.0000
    -0.0000  -0.0000  -0.0000  -0.0000  -0.0000  -0.0000  -0.0000

     the Fermi energy is    -1.6739 ev
     (compare with:    -1.6714 eV, computed in scf)

     Writing all to output data dir /home/babby/epiq_tutorial_test//tutorials/graphene/results/nscf_wann/graphene.save/

     init_run     :      0.66s CPU      0.68s WALL (       1 calls)
     electrons    :     10.54s CPU     11.62s WALL (       1 calls)

     Called by init_run:
     wfcinit      :      0.00s CPU      0.00s WALL (       1 calls)
     wfcinit:atom :      0.00s CPU      0.00s WALL (       5 calls)
     wfcinit:wfcr :      0.24s CPU      0.24s WALL (       5 calls)
     potinit      :      0.41s CPU      0.42s WALL (       1 calls)
     hinit0       :      0.22s CPU      0.22s WALL (       1 calls)

     Called by electrons:
     c_bands      :     10.54s CPU     11.62s WALL (       1 calls)
     v_of_rho     :      0.04s CPU      0.04s WALL (       1 calls)
     v_h          :      0.00s CPU      0.00s WALL (       1 calls)
     v_xc         :      0.04s CPU      0.04s WALL (       1 calls)

     Called by c_bands:
     init_us_2    :      0.00s CPU      0.00s WALL (       5 calls)
     init_us_2:cp :      0.00s CPU      0.00s WALL (       5 calls)
     cegterg      :      5.69s CPU      6.14s WALL (      15 calls)

     Called by sum_band:

     Called by *egterg:
     cdiaghg      :      0.06s CPU      0.06s WALL (     246 calls)
     cegterg:over :      0.64s CPU      0.67s WALL (     241 calls)
     cegterg:upda :      0.39s CPU      0.43s WALL (     241 calls)
     cegterg:last :      0.86s CPU      0.94s WALL (     169 calls)
     h_psi        :      3.86s CPU      4.15s WALL (     261 calls)
     g_psi        :      0.03s CPU      0.03s WALL (     241 calls)

     Called by h_psi:
     h_psi:calbec :      0.24s CPU      0.26s WALL (     261 calls)
     vloc_psi     :      3.40s CPU      3.65s WALL (     261 calls)
     add_vuspsi   :      0.20s CPU      0.22s WALL (     261 calls)

     General routines
     calbec       :      0.24s CPU      0.26s WALL (     261 calls)
     fft          :      0.18s CPU      0.19s WALL (      11 calls)
     fftw         :      2.94s CPU      3.15s WALL (    4754 calls)
     davcio       :      0.00s CPU      0.00s WALL (      10 calls)

     Parallel routines

     PWSCF        :     11.53s CPU     12.63s WALL


   This run was terminated on:  10:24:25  20Sep2022            

=------------------------------------------------------------------------------=
   JOB DONE.
=------------------------------------------------------------------------------=

Time required:	 0   minutes and 12 seconds 
