
     Program PWSCF v.7.1 starts on 20Sep2022 at 10:23: 6 

     This program is part of the open-source Quantum ESPRESSO suite
     for quantum simulation of materials; please cite
         "P. Giannozzi et al., J. Phys.:Condens. Matter 21 395502 (2009);
         "P. Giannozzi et al., J. Phys.:Condens. Matter 29 465901 (2017);
         "P. Giannozzi et al., J. Chem. Phys. 152 154105 (2020);
          URL http://www.quantum-espresso.org", 
     in publications or presentations arising from this work. More details at
     http://www.quantum-espresso.org/quote

     Parallel version (MPI), running on     8 processors

     MPI processes distributed on     1 nodes
     5713 MiB available memory on the printing compute node when the environment starts

     Reading input from graphene.scf.in

     Current dimensions of program PWSCF are:
     Max number of different atomic species (ntypx) = 10
     Max number of k-points (npk) =  40000
     Max angular momentum in pseudopotentials (lmaxx) =  4

     K-points division:     npool     =       8
     Subspace diagonalization in iterative solution of the eigenvalue problem:
     a serial algorithm will be used


     G-vector sticks info
     --------------------
     sticks:   dense  smooth     PW     G-vecs:    dense   smooth      PW
     Sum         313     313    109                28981    28981    5151

     Using Slab Decomposition



     bravais-lattice index     =            4
     lattice parameter (alat)  =       4.6463  a.u.
     unit-cell volume          =     529.8869 (a.u.)^3
     number of atoms/cell      =            2
     number of atomic types    =            1
     number of electrons       =         8.00
     number of Kohn-Sham states=            8
     kinetic-energy cutoff     =      55.0000  Ry
     charge density cutoff     =     220.0000  Ry
     scf convergence threshold =      1.0E-14
     mixing beta               =       0.2000
     number of iterations used =            8  plain     mixing
     Exchange-correlation= PBE
                           (   1   4   3   4   0   0   0)

     celldm(1)=   4.646303  celldm(2)=   0.000000  celldm(3)=   6.100000
     celldm(4)=   0.000000  celldm(5)=   0.000000  celldm(6)=   0.000000

     crystal axes: (cart. coord. in units of alat)
               a(1) = (   1.000000   0.000000   0.000000 )  
               a(2) = (  -0.500000   0.866025   0.000000 )  
               a(3) = (   0.000000   0.000000   6.100000 )  

     reciprocal axes: (cart. coord. in units 2 pi/alat)
               b(1) = (  1.000000  0.577350 -0.000000 )  
               b(2) = (  0.000000  1.154701  0.000000 )  
               b(3) = (  0.000000 -0.000000  0.163934 )  


     PseudoPot. # 1 for C  read from file:
     /home/babby/epiq_tutorial_test//tutorials/graphene/pseudo/C.UPF
     MD5 check sum: 34a24e64c0a39f27c6c36b90a16ac686
     Pseudo is Norm-conserving + core correction, Zval =  4.0
     Generated using ONCVPSP code by D. R. Hamann
     Using radial grid of 1248 points,  4 beta functions with: 
                l(1) =   0
                l(2) =   0
                l(3) =   1
                l(4) =   1

     atomic species   valence    mass     pseudopotential
        C              4.00    12.01000     C ( 1.00)

     24 Sym. Ops., with inversion, found (12 have fractional translation)


                                    s                        frac. trans.

      isym =  1     identity                                     

 cryst.   s( 1) = (     1          0          0      )
                  (     0          1          0      )
                  (     0          0          1      )

 cart.    s( 1) = (  1.0000000  0.0000000  0.0000000 )
                  (  0.0000000  1.0000000  0.0000000 )
                  (  0.0000000  0.0000000  1.0000000 )


      isym =  2     180 deg rotation - cart. axis [0,0,1]        

 cryst.   s( 2) = (    -1          0          0      )    f =( -0.3333333 )
                  (     0         -1          0      )       (  0.3333333 )
                  (     0          0          1      )       (  0.0000000 )

 cart.    s( 2) = ( -1.0000000  0.0000000  0.0000000 )    f =( -0.5000000 )
                  (  0.0000000 -1.0000000  0.0000000 )       (  0.2886751 )
                  (  0.0000000  0.0000000  1.0000000 )       (  0.0000000 )


      isym =  3     180 deg rotation - cart. axis [0,1,0]        

 cryst.   s( 3) = (    -1          0          0      )
                  (     1          1          0      )
                  (     0          0         -1      )

 cart.    s( 3) = ( -1.0000000  0.0000000  0.0000000 )
                  (  0.0000000  1.0000000  0.0000000 )
                  (  0.0000000  0.0000000 -1.0000000 )


      isym =  4     180 deg rotation - cart. axis [1,0,0]        

 cryst.   s( 4) = (     1          0          0      )    f =( -0.3333333 )
                  (    -1         -1          0      )       (  0.3333333 )
                  (     0          0         -1      )       (  0.0000000 )

 cart.    s( 4) = (  1.0000000  0.0000000  0.0000000 )    f =( -0.5000000 )
                  (  0.0000000 -1.0000000  0.0000000 )       (  0.2886751 )
                  (  0.0000000  0.0000000 -1.0000000 )       (  0.0000000 )


      isym =  5      60 deg rotation - cryst. axis [0,0,1]       

 cryst.   s( 5) = (     1          1          0      )    f =( -0.3333333 )
                  (    -1          0          0      )       (  0.3333333 )
                  (     0          0          1      )       (  0.0000000 )

 cart.    s( 5) = (  0.5000000 -0.8660254  0.0000000 )    f =( -0.5000000 )
                  (  0.8660254  0.5000000  0.0000000 )       (  0.2886751 )
                  (  0.0000000  0.0000000  1.0000000 )       (  0.0000000 )


      isym =  6      60 deg rotation - cryst. axis [0,0,-1]      

 cryst.   s( 6) = (     0         -1          0      )    f =( -0.3333333 )
                  (     1          1          0      )       (  0.3333333 )
                  (     0          0          1      )       (  0.0000000 )

 cart.    s( 6) = (  0.5000000  0.8660254  0.0000000 )    f =( -0.5000000 )
                  ( -0.8660254  0.5000000  0.0000000 )       (  0.2886751 )
                  (  0.0000000  0.0000000  1.0000000 )       (  0.0000000 )


      isym =  7     120 deg rotation - cryst. axis [0,0,1]       

 cryst.   s( 7) = (     0          1          0      )
                  (    -1         -1          0      )
                  (     0          0          1      )

 cart.    s( 7) = ( -0.5000000 -0.8660254  0.0000000 )
                  (  0.8660254 -0.5000000  0.0000000 )
                  (  0.0000000  0.0000000  1.0000000 )


      isym =  8     120 deg rotation - cryst. axis [0,0,-1]      

 cryst.   s( 8) = (    -1         -1          0      )
                  (     1          0          0      )
                  (     0          0          1      )

 cart.    s( 8) = ( -0.5000000  0.8660254  0.0000000 )
                  ( -0.8660254 -0.5000000  0.0000000 )
                  (  0.0000000  0.0000000  1.0000000 )


      isym =  9     180 deg rotation - cryst. axis [1,-1,0]      

 cryst.   s( 9) = (     0         -1          0      )
                  (    -1          0          0      )
                  (     0          0         -1      )

 cart.    s( 9) = (  0.5000000 -0.8660254  0.0000000 )
                  ( -0.8660254 -0.5000000  0.0000000 )
                  (  0.0000000  0.0000000 -1.0000000 )


      isym = 10     180 deg rotation - cryst. axis [2,1,0]       

 cryst.   s(10) = (     1          1          0      )
                  (     0         -1          0      )
                  (     0          0         -1      )

 cart.    s(10) = (  0.5000000  0.8660254  0.0000000 )
                  (  0.8660254 -0.5000000  0.0000000 )
                  (  0.0000000  0.0000000 -1.0000000 )


      isym = 11     180 deg rotation - cryst. axis [0,1,0]       

 cryst.   s(11) = (    -1         -1          0      )    f =( -0.3333333 )
                  (     0          1          0      )       (  0.3333333 )
                  (     0          0         -1      )       (  0.0000000 )

 cart.    s(11) = ( -0.5000000 -0.8660254  0.0000000 )    f =( -0.5000000 )
                  ( -0.8660254  0.5000000  0.0000000 )       (  0.2886751 )
                  (  0.0000000  0.0000000 -1.0000000 )       (  0.0000000 )


      isym = 12     180 deg rotation - cryst. axis [1,1,0]       

 cryst.   s(12) = (     0          1          0      )    f =( -0.3333333 )
                  (     1          0          0      )       (  0.3333333 )
                  (     0          0         -1      )       (  0.0000000 )

 cart.    s(12) = ( -0.5000000  0.8660254  0.0000000 )    f =( -0.5000000 )
                  (  0.8660254  0.5000000  0.0000000 )       (  0.2886751 )
                  (  0.0000000  0.0000000 -1.0000000 )       (  0.0000000 )


      isym = 13     inversion                                    

 cryst.   s(13) = (    -1          0          0      )    f =( -0.3333333 )
                  (     0         -1          0      )       (  0.3333333 )
                  (     0          0         -1      )       (  0.0000000 )

 cart.    s(13) = ( -1.0000000  0.0000000  0.0000000 )    f =( -0.5000000 )
                  (  0.0000000 -1.0000000  0.0000000 )       (  0.2886751 )
                  (  0.0000000  0.0000000 -1.0000000 )       (  0.0000000 )


      isym = 14     inv. 180 deg rotation - cart. axis [0,0,1]   

 cryst.   s(14) = (     1          0          0      )
                  (     0          1          0      )
                  (     0          0         -1      )

 cart.    s(14) = (  1.0000000  0.0000000  0.0000000 )
                  (  0.0000000  1.0000000  0.0000000 )
                  (  0.0000000  0.0000000 -1.0000000 )


      isym = 15     inv. 180 deg rotation - cart. axis [0,1,0]   

 cryst.   s(15) = (     1          0          0      )    f =( -0.3333333 )
                  (    -1         -1          0      )       (  0.3333333 )
                  (     0          0          1      )       (  0.0000000 )

 cart.    s(15) = (  1.0000000  0.0000000  0.0000000 )    f =( -0.5000000 )
                  (  0.0000000 -1.0000000  0.0000000 )       (  0.2886751 )
                  (  0.0000000  0.0000000  1.0000000 )       (  0.0000000 )


      isym = 16     inv. 180 deg rotation - cart. axis [1,0,0]   

 cryst.   s(16) = (    -1          0          0      )
                  (     1          1          0      )
                  (     0          0          1      )

 cart.    s(16) = ( -1.0000000  0.0000000  0.0000000 )
                  (  0.0000000  1.0000000  0.0000000 )
                  (  0.0000000  0.0000000  1.0000000 )


      isym = 17     inv.  60 deg rotation - cryst. axis [0,0,1]  

 cryst.   s(17) = (    -1         -1          0      )
                  (     1          0          0      )
                  (     0          0         -1      )

 cart.    s(17) = ( -0.5000000  0.8660254  0.0000000 )
                  ( -0.8660254 -0.5000000  0.0000000 )
                  (  0.0000000  0.0000000 -1.0000000 )


      isym = 18     inv.  60 deg rotation - cryst. axis [0,0,-1] 

 cryst.   s(18) = (     0          1          0      )
                  (    -1         -1          0      )
                  (     0          0         -1      )

 cart.    s(18) = ( -0.5000000 -0.8660254  0.0000000 )
                  (  0.8660254 -0.5000000  0.0000000 )
                  (  0.0000000  0.0000000 -1.0000000 )


      isym = 19     inv. 120 deg rotation - cryst. axis [0,0,1]  

 cryst.   s(19) = (     0         -1          0      )    f =( -0.3333333 )
                  (     1          1          0      )       (  0.3333333 )
                  (     0          0         -1      )       (  0.0000000 )

 cart.    s(19) = (  0.5000000  0.8660254  0.0000000 )    f =( -0.5000000 )
                  ( -0.8660254  0.5000000  0.0000000 )       (  0.2886751 )
                  (  0.0000000  0.0000000 -1.0000000 )       (  0.0000000 )


      isym = 20     inv. 120 deg rotation - cryst. axis [0,0,-1] 

 cryst.   s(20) = (     1          1          0      )    f =( -0.3333333 )
                  (    -1          0          0      )       (  0.3333333 )
                  (     0          0         -1      )       (  0.0000000 )

 cart.    s(20) = (  0.5000000 -0.8660254  0.0000000 )    f =( -0.5000000 )
                  (  0.8660254  0.5000000  0.0000000 )       (  0.2886751 )
                  (  0.0000000  0.0000000 -1.0000000 )       (  0.0000000 )


      isym = 21     inv. 180 deg rotation - cryst. axis [1,-1,0] 

 cryst.   s(21) = (     0          1          0      )    f =( -0.3333333 )
                  (     1          0          0      )       (  0.3333333 )
                  (     0          0          1      )       (  0.0000000 )

 cart.    s(21) = ( -0.5000000  0.8660254  0.0000000 )    f =( -0.5000000 )
                  (  0.8660254  0.5000000  0.0000000 )       (  0.2886751 )
                  (  0.0000000  0.0000000  1.0000000 )       (  0.0000000 )


      isym = 22     inv. 180 deg rotation - cryst. axis [2,1,0]  

 cryst.   s(22) = (    -1         -1          0      )    f =( -0.3333333 )
                  (     0          1          0      )       (  0.3333333 )
                  (     0          0          1      )       (  0.0000000 )

 cart.    s(22) = ( -0.5000000 -0.8660254  0.0000000 )    f =( -0.5000000 )
                  ( -0.8660254  0.5000000  0.0000000 )       (  0.2886751 )
                  (  0.0000000  0.0000000  1.0000000 )       (  0.0000000 )


      isym = 23     inv. 180 deg rotation - cryst. axis [0,1,0]  

 cryst.   s(23) = (     1          1          0      )
                  (     0         -1          0      )
                  (     0          0          1      )

 cart.    s(23) = (  0.5000000  0.8660254  0.0000000 )
                  (  0.8660254 -0.5000000  0.0000000 )
                  (  0.0000000  0.0000000  1.0000000 )


      isym = 24     inv. 180 deg rotation - cryst. axis [1,1,0]  

 cryst.   s(24) = (     0         -1          0      )
                  (    -1          0          0      )
                  (     0          0          1      )

 cart.    s(24) = (  0.5000000 -0.8660254  0.0000000 )
                  ( -0.8660254 -0.5000000  0.0000000 )
                  (  0.0000000  0.0000000  1.0000000 )


     point group D_6h(6/mmm)
     there are 12 classes
     the character table:

       E     2C6   2C3   C2    3C2'  3C2'' i     2S3   2S6   s_h   3s_d  3s_v 
A_1g   1.00  1.00  1.00  1.00  1.00  1.00  1.00  1.00  1.00  1.00  1.00  1.00
A_2g   1.00  1.00  1.00  1.00 -1.00 -1.00  1.00  1.00  1.00  1.00 -1.00 -1.00
B_1g   1.00 -1.00  1.00 -1.00  1.00 -1.00  1.00 -1.00  1.00 -1.00  1.00 -1.00
B_2g   1.00 -1.00  1.00 -1.00 -1.00  1.00  1.00 -1.00  1.00 -1.00 -1.00  1.00
E_1g   2.00  1.00 -1.00 -2.00  0.00  0.00  2.00  1.00 -1.00 -2.00  0.00  0.00
E_2g   2.00 -1.00 -1.00  2.00  0.00  0.00  2.00 -1.00 -1.00  2.00  0.00  0.00
A_1u   1.00  1.00  1.00  1.00  1.00  1.00 -1.00 -1.00 -1.00 -1.00 -1.00 -1.00
A_2u   1.00  1.00  1.00  1.00 -1.00 -1.00 -1.00 -1.00 -1.00 -1.00  1.00  1.00
B_1u   1.00 -1.00  1.00 -1.00  1.00 -1.00 -1.00  1.00 -1.00  1.00 -1.00  1.00
B_2u   1.00 -1.00  1.00 -1.00 -1.00  1.00 -1.00  1.00 -1.00  1.00  1.00 -1.00
E_1u   2.00  1.00 -1.00 -2.00  0.00  0.00 -2.00 -1.00  1.00  2.00  0.00  0.00
E_2u   2.00 -1.00 -1.00  2.00  0.00  0.00 -2.00  1.00  1.00 -2.00  0.00  0.00

     the symmetry operations in each class and the name of the first element:

     E        1
          identity                                               
     2C6      5    6
           60 deg rotation - cryst. axis [0,0,1]                 
     2C3      7    8
          120 deg rotation - cryst. axis [0,0,1]                 
     C2       2
          180 deg rotation - cart. axis [0,0,1]                  
     3C2'     4   12   11
          180 deg rotation - cart. axis [1,0,0]                  
     3C2''    3    9   10
          180 deg rotation - cart. axis [0,1,0]                  
     i       13
          inversion                                              
     2S3     17   18
          inv.  60 deg rotation - cryst. axis [0,0,1]            
     2S6     19   20
          inv. 120 deg rotation - cryst. axis [0,0,1]            
     s_h     14
          inv. 180 deg rotation - cart. axis [0,0,1]             
     3s_d    16   24   23
          inv. 180 deg rotation - cart. axis [1,0,0]             
     3s_v    15   21   22
          inv. 180 deg rotation - cart. axis [0,1,0]             

   Cartesian axes

     site n.     atom                  positions (alat units)
         1           C   tau(   1) = (   0.0000000   0.0000000   3.0500000  )
         2           C   tau(   2) = (  -0.0000000   0.5773503   3.0500000  )

   Crystallographic axes

     site n.     atom                  positions (cryst. coord.)
         1           C   tau(   1) = (  0.0000000  0.0000000  0.5000000  )
         2           C   tau(   2) = (  0.3333333  0.6666667  0.5000000  )

     number of k points=    78  Methfessel-Paxton smearing, width (Ry)=  0.0250
                       cart. coord. in units 2pi/alat
        k(    1) = (  -0.6666667   0.0000002   0.0000000), wk =   0.0004883
        k(    2) = (   0.1666667   0.2886751   0.0000000), wk =   0.0937500
        k(    3) = (  -0.5833333  -0.1443373   0.0000000), wk =   0.0234375
        k(    4) = (   0.3333333   0.2886751   0.0000000), wk =   0.0468750
        k(    5) = (   0.0833333   0.1443376   0.0000000), wk =   0.0937500
        k(    6) = (   0.2916667   0.5051815   0.0000000), wk =   0.0058594
        k(    7) = (   0.3333333   0.4330127   0.0000000), wk =   0.0117188
        k(    8) = (  -0.5416667  -0.2165061   0.0000000), wk =   0.0234375
        k(    9) = (   0.2083333   0.3608439   0.0000000), wk =   0.0234375
        k(   10) = (   0.2083333   0.2165064   0.0000000), wk =   0.1875000
        k(   11) = (   0.2916667   0.3608439   0.0000000), wk =   0.0468750
        k(   12) = (   0.2916667   0.2165064   0.0000000), wk =   0.1875000
        k(   13) = (   0.4166667   0.2886751   0.0000000), wk =   0.0468750
        k(   14) = (   0.1666667   0.1443376   0.0000000), wk =   0.1875000
        k(   15) = (   0.0416667   0.0721688   0.0000000), wk =   0.0937500
        k(   16) = (  -0.6458333  -0.0360841   0.0000000), wk =   0.0014648
        k(   17) = (   0.3333333   0.5051815   0.0000000), wk =   0.0029297
        k(   18) = (   0.2708333   0.4690971   0.0000000), wk =   0.0058594
        k(   19) = (  -0.6041667  -0.1082529   0.0000000), wk =   0.0058594
        k(   20) = (   0.3958333   0.3969283   0.0000000), wk =   0.0468750
        k(   21) = (   0.3541667   0.4690971   0.0000000), wk =   0.0117188
        k(   22) = (   0.3541667   0.3969283   0.0000000), wk =   0.0468750
        k(   23) = (   0.2916667   0.4330127   0.0000000), wk =   0.0117188
        k(   24) = (   0.4166667   0.3608439   0.0000000), wk =   0.0468750
        k(   25) = (  -0.5208333  -0.2525905   0.0000000), wk =   0.0234375
        k(   26) = (   0.2291667   0.3247595   0.0000000), wk =   0.0468750
        k(   27) = (   0.2291667   0.3969283   0.0000000), wk =   0.0234375
        k(   28) = (   0.2916667   0.2886751   0.0000000), wk =   0.0468750
        k(   29) = (   0.3541667   0.3247595   0.0000000), wk =   0.0468750
        k(   30) = (   0.3541667   0.2525907   0.0000000), wk =   0.0468750
        k(   31) = (   0.2708333   0.3247595   0.0000000), wk =   0.0468750
        k(   32) = (   0.3333333   0.3608439   0.0000000), wk =   0.0468750
        k(   33) = (   0.2708333   0.3969283   0.0000000), wk =   0.0468750
        k(   34) = (   0.3958333   0.3247595   0.0000000), wk =   0.0468750
        k(   35) = (   0.3958333   0.2525907   0.0000000), wk =   0.0468750
        k(   36) = (   0.4583333   0.2886751   0.0000000), wk =   0.0468750
        k(   37) = (   0.3229167   0.5593081   0.0000000), wk =   0.0014648
        k(   38) = (   0.3333333   0.5412659   0.0000000), wk =   0.0029297
        k(   39) = (  -0.6354167  -0.0541263   0.0000000), wk =   0.0014648
        k(   40) = (   0.3020833   0.5232237   0.0000000), wk =   0.0014648
        k(   41) = (   0.3020833   0.4871393   0.0000000), wk =   0.0117188
        k(   42) = (   0.3229167   0.5232237   0.0000000), wk =   0.0029297
        k(   43) = (   0.3229167   0.4871393   0.0000000), wk =   0.0117188
        k(   44) = (   0.3541667   0.5051815   0.0000000), wk =   0.0029297
        k(   45) = (   0.2916667   0.4690971   0.0000000), wk =   0.0117188
        k(   46) = (   0.2604167   0.4510549   0.0000000), wk =   0.0058594
        k(   47) = (   0.3854167   0.4510549   0.0000000), wk =   0.0117188
        k(   48) = (  -0.6145833  -0.0902107   0.0000000), wk =   0.0058594
        k(   49) = (   0.3541667   0.4330127   0.0000000), wk =   0.0117188
        k(   50) = (   0.3229167   0.4510549   0.0000000), wk =   0.0117188
        k(   51) = (   0.3229167   0.4149705   0.0000000), wk =   0.0117188
        k(   52) = (   0.3645833   0.4510549   0.0000000), wk =   0.0117188
        k(   53) = (   0.3333333   0.4690971   0.0000000), wk =   0.0117188
        k(   54) = (   0.3645833   0.4871393   0.0000000), wk =   0.0117188
        k(   55) = (   0.3020833   0.4510549   0.0000000), wk =   0.0117188
        k(   56) = (   0.3020833   0.4149705   0.0000000), wk =   0.0117188
        k(   57) = (   0.2708333   0.4330127   0.0000000), wk =   0.0117188
        k(   58) = (  -0.6614583  -0.0090208   0.0000000), wk =   0.0014648
        k(   59) = (   0.3333333   0.5593081   0.0000000), wk =   0.0029297
        k(   60) = (   0.3177083   0.5502870   0.0000000), wk =   0.0014648
        k(   61) = (  -0.6510417  -0.0270630   0.0000000), wk =   0.0014648
        k(   62) = (   0.3489583   0.5322448   0.0000000), wk =   0.0029297
        k(   63) = (   0.3385417   0.5502870   0.0000000), wk =   0.0029297
        k(   64) = (   0.3385417   0.5322448   0.0000000), wk =   0.0029297
        k(   65) = (   0.3229167   0.5412659   0.0000000), wk =   0.0029297
        k(   66) = (   0.3541667   0.5232237   0.0000000), wk =   0.0029297
        k(   67) = (  -0.6302083  -0.0631474   0.0000000), wk =   0.0014648
        k(   68) = (   0.3072917   0.5142026   0.0000000), wk =   0.0029297
        k(   69) = (   0.3072917   0.5322448   0.0000000), wk =   0.0014648
        k(   70) = (   0.3229167   0.5051815   0.0000000), wk =   0.0029297
        k(   71) = (   0.3385417   0.5142026   0.0000000), wk =   0.0029297
        k(   72) = (   0.3385417   0.4961604   0.0000000), wk =   0.0029297
        k(   73) = (   0.3177083   0.5142026   0.0000000), wk =   0.0029297
        k(   74) = (   0.3333333   0.5232237   0.0000000), wk =   0.0029297
        k(   75) = (   0.3177083   0.5322448   0.0000000), wk =   0.0029297
        k(   76) = (   0.3489583   0.5142026   0.0000000), wk =   0.0029297
        k(   77) = (   0.3489583   0.4961604   0.0000000), wk =   0.0029297
        k(   78) = (   0.3645833   0.5051815   0.0000000), wk =   0.0029297

                       cryst. coord.
        k(    1) = (  -0.6666667   0.3333335   0.0000000), wk =   0.0004883
        k(    2) = (   0.1666667   0.1666667   0.0000000), wk =   0.0937500
        k(    3) = (  -0.5833333   0.1666669   0.0000000), wk =   0.0234375
        k(    4) = (   0.3333333   0.0833333   0.0000000), wk =   0.0468750
        k(    5) = (   0.0833333   0.0833333   0.0000000), wk =   0.0937500
        k(    6) = (   0.2916667   0.2916667   0.0000000), wk =   0.0058594
        k(    7) = (   0.3333333   0.2083333   0.0000000), wk =   0.0117188
        k(    8) = (  -0.5416667   0.0833336   0.0000000), wk =   0.0234375
        k(    9) = (   0.2083333   0.2083333   0.0000000), wk =   0.0234375
        k(   10) = (   0.2083333   0.0833333   0.0000000), wk =   0.1875000
        k(   11) = (   0.2916667   0.1666667   0.0000000), wk =   0.0468750
        k(   12) = (   0.2916667   0.0416667   0.0000000), wk =   0.1875000
        k(   13) = (   0.4166667   0.0416667   0.0000000), wk =   0.0468750
        k(   14) = (   0.1666667   0.0416667   0.0000000), wk =   0.1875000
        k(   15) = (   0.0416667   0.0416667   0.0000000), wk =   0.0937500
        k(   16) = (  -0.6458333   0.2916669   0.0000000), wk =   0.0014648
        k(   17) = (   0.3333333   0.2708333   0.0000000), wk =   0.0029297
        k(   18) = (   0.2708333   0.2708333   0.0000000), wk =   0.0058594
        k(   19) = (  -0.6041667   0.2083335   0.0000000), wk =   0.0058594
        k(   20) = (   0.3958333   0.1458333   0.0000000), wk =   0.0468750
        k(   21) = (   0.3541667   0.2291667   0.0000000), wk =   0.0117188
        k(   22) = (   0.3541667   0.1666667   0.0000000), wk =   0.0468750
        k(   23) = (   0.2916667   0.2291667   0.0000000), wk =   0.0117188
        k(   24) = (   0.4166667   0.1041667   0.0000000), wk =   0.0468750
        k(   25) = (  -0.5208333   0.0416669   0.0000000), wk =   0.0234375
        k(   26) = (   0.2291667   0.1666667   0.0000000), wk =   0.0468750
        k(   27) = (   0.2291667   0.2291667   0.0000000), wk =   0.0234375
        k(   28) = (   0.2916667   0.1041667   0.0000000), wk =   0.0468750
        k(   29) = (   0.3541667   0.1041667   0.0000000), wk =   0.0468750
        k(   30) = (   0.3541667   0.0416667   0.0000000), wk =   0.0468750
        k(   31) = (   0.2708333   0.1458333   0.0000000), wk =   0.0468750
        k(   32) = (   0.3333333   0.1458333   0.0000000), wk =   0.0468750
        k(   33) = (   0.2708333   0.2083333   0.0000000), wk =   0.0468750
        k(   34) = (   0.3958333   0.0833333   0.0000000), wk =   0.0468750
        k(   35) = (   0.3958333   0.0208333   0.0000000), wk =   0.0468750
        k(   36) = (   0.4583333   0.0208333   0.0000000), wk =   0.0468750
        k(   37) = (   0.3229167   0.3229167   0.0000000), wk =   0.0014648
        k(   38) = (   0.3333333   0.3020833   0.0000000), wk =   0.0029297
        k(   39) = (  -0.6354167   0.2708335   0.0000000), wk =   0.0014648
        k(   40) = (   0.3020833   0.3020833   0.0000000), wk =   0.0014648
        k(   41) = (   0.3020833   0.2708333   0.0000000), wk =   0.0117188
        k(   42) = (   0.3229167   0.2916667   0.0000000), wk =   0.0029297
        k(   43) = (   0.3229167   0.2604167   0.0000000), wk =   0.0117188
        k(   44) = (   0.3541667   0.2604167   0.0000000), wk =   0.0029297
        k(   45) = (   0.2916667   0.2604167   0.0000000), wk =   0.0117188
        k(   46) = (   0.2604167   0.2604167   0.0000000), wk =   0.0058594
        k(   47) = (   0.3854167   0.1979167   0.0000000), wk =   0.0117188
        k(   48) = (  -0.6145833   0.2291669   0.0000000), wk =   0.0058594
        k(   49) = (   0.3541667   0.1979167   0.0000000), wk =   0.0117188
        k(   50) = (   0.3229167   0.2291667   0.0000000), wk =   0.0117188
        k(   51) = (   0.3229167   0.1979167   0.0000000), wk =   0.0117188
        k(   52) = (   0.3645833   0.2083333   0.0000000), wk =   0.0117188
        k(   53) = (   0.3333333   0.2395833   0.0000000), wk =   0.0117188
        k(   54) = (   0.3645833   0.2395833   0.0000000), wk =   0.0117188
        k(   55) = (   0.3020833   0.2395833   0.0000000), wk =   0.0117188
        k(   56) = (   0.3020833   0.2083333   0.0000000), wk =   0.0117188
        k(   57) = (   0.2708333   0.2395833   0.0000000), wk =   0.0117188
        k(   58) = (  -0.6614583   0.3229169   0.0000000), wk =   0.0014648
        k(   59) = (   0.3333333   0.3177083   0.0000000), wk =   0.0029297
        k(   60) = (   0.3177083   0.3177083   0.0000000), wk =   0.0014648
        k(   61) = (  -0.6510417   0.3020835   0.0000000), wk =   0.0014648
        k(   62) = (   0.3489583   0.2864583   0.0000000), wk =   0.0029297
        k(   63) = (   0.3385417   0.3072917   0.0000000), wk =   0.0029297
        k(   64) = (   0.3385417   0.2916667   0.0000000), wk =   0.0029297
        k(   65) = (   0.3229167   0.3072917   0.0000000), wk =   0.0029297
        k(   66) = (   0.3541667   0.2760417   0.0000000), wk =   0.0029297
        k(   67) = (  -0.6302083   0.2604169   0.0000000), wk =   0.0014648
        k(   68) = (   0.3072917   0.2916667   0.0000000), wk =   0.0029297
        k(   69) = (   0.3072917   0.3072917   0.0000000), wk =   0.0014648
        k(   70) = (   0.3229167   0.2760417   0.0000000), wk =   0.0029297
        k(   71) = (   0.3385417   0.2760417   0.0000000), wk =   0.0029297
        k(   72) = (   0.3385417   0.2604167   0.0000000), wk =   0.0029297
        k(   73) = (   0.3177083   0.2864583   0.0000000), wk =   0.0029297
        k(   74) = (   0.3333333   0.2864583   0.0000000), wk =   0.0029297
        k(   75) = (   0.3177083   0.3020833   0.0000000), wk =   0.0029297
        k(   76) = (   0.3489583   0.2708333   0.0000000), wk =   0.0029297
        k(   77) = (   0.3489583   0.2552083   0.0000000), wk =   0.0029297
        k(   78) = (   0.3645833   0.2552083   0.0000000), wk =   0.0029297

     Dense  grid:    28981 G-vectors     FFT dimensions: (  24,  24, 135)

     Dynamical RAM for                 wfc:       0.45 MB

     Dynamical RAM for     wfc (w. buffer):       4.90 MB

     Dynamical RAM for           str. fact:       0.44 MB

     Dynamical RAM for           local pot:       0.00 MB

     Dynamical RAM for          nlocal pot:       0.89 MB

     Dynamical RAM for                qrad:       0.34 MB

     Dynamical RAM for          rho,v,vnew:       3.11 MB

     Dynamical RAM for               rhoin:       1.04 MB

     Dynamical RAM for            rho*nmix:       7.08 MB

     Dynamical RAM for           G-vectors:       1.88 MB

     Dynamical RAM for          h,s,v(r/c):       0.01 MB

     Dynamical RAM for          <psi|beta>:       0.00 MB

     Dynamical RAM for                 psi:       0.89 MB

     Dynamical RAM for                hpsi:       0.89 MB

     Dynamical RAM for      wfcinit/wfcrot:       0.89 MB

     Estimated static dynamical RAM per process >      16.45 MB

     Estimated max dynamical RAM per process >      25.32 MB

     Estimated total dynamical RAM >     153.02 MB

     Initial potential from superposition of free atoms

     starting charge       7.9999, renormalised to       8.0000

     negative rho (up, down):  5.843E-05 0.000E+00
     Starting wfcs are    8 randomized atomic wfcs

     total cpu time spent up to now is        0.6 secs

     Self-consistent Calculation

     iteration #  1     ecut=    55.00 Ry     beta= 0.20
     Davidson diagonalization with overlap

---- Real-time Memory Report at c_bands before calling an iterative solver
            56 MiB given to the printing process from OS
             0 MiB allocation reported by mallinfo(arena+hblkhd)
          5517 MiB available memory on the node where the printing process lives
------------------
     ethr =  1.00E-02,  avg # of iterations =  5.5

     negative rho (up, down):  4.263E-05 0.000E+00

     total cpu time spent up to now is        1.5 secs

     total energy              =     -24.12538637 Ry
     estimated scf accuracy    <       0.19518879 Ry

     iteration #  2     ecut=    55.00 Ry     beta= 0.20
     Davidson diagonalization with overlap

---- Real-time Memory Report at c_bands before calling an iterative solver
            67 MiB given to the printing process from OS
             0 MiB allocation reported by mallinfo(arena+hblkhd)
          5447 MiB available memory on the node where the printing process lives
------------------
     ethr =  2.44E-03,  avg # of iterations =  1.3

     negative rho (up, down):  7.393E-06 0.000E+00

     total cpu time spent up to now is        2.1 secs

     total energy              =     -24.06340924 Ry
     estimated scf accuracy    <       0.10643655 Ry

     iteration #  3     ecut=    55.00 Ry     beta= 0.20
     Davidson diagonalization with overlap

---- Real-time Memory Report at c_bands before calling an iterative solver
            68 MiB given to the printing process from OS
             0 MiB allocation reported by mallinfo(arena+hblkhd)
          5449 MiB available memory on the node where the printing process lives
------------------
     ethr =  1.33E-03,  avg # of iterations =  4.2

     negative rho (up, down):  7.000E-06 0.000E+00

     total cpu time spent up to now is        2.9 secs

     total energy              =     -24.08504908 Ry
     estimated scf accuracy    <       0.00288714 Ry

     iteration #  4     ecut=    55.00 Ry     beta= 0.20
     Davidson diagonalization with overlap

---- Real-time Memory Report at c_bands before calling an iterative solver
            69 MiB given to the printing process from OS
             0 MiB allocation reported by mallinfo(arena+hblkhd)
          5443 MiB available memory on the node where the printing process lives
------------------
     ethr =  3.61E-05,  avg # of iterations = 10.5

     total cpu time spent up to now is        4.1 secs

     total energy              =     -24.08211422 Ry
     estimated scf accuracy    <       0.00605196 Ry

     iteration #  5     ecut=    55.00 Ry     beta= 0.20
     Davidson diagonalization with overlap

---- Real-time Memory Report at c_bands before calling an iterative solver
            70 MiB given to the printing process from OS
             0 MiB allocation reported by mallinfo(arena+hblkhd)
          5444 MiB available memory on the node where the printing process lives
------------------
     ethr =  3.61E-05,  avg # of iterations =  5.1

     total cpu time spent up to now is        4.9 secs

     total energy              =     -24.08297393 Ry
     estimated scf accuracy    <       0.00003598 Ry

     iteration #  6     ecut=    55.00 Ry     beta= 0.20
     Davidson diagonalization with overlap

---- Real-time Memory Report at c_bands before calling an iterative solver
            71 MiB given to the printing process from OS
             0 MiB allocation reported by mallinfo(arena+hblkhd)
          5442 MiB available memory on the node where the printing process lives
------------------
     ethr =  4.50E-07,  avg # of iterations =  6.6

     total cpu time spent up to now is        5.8 secs

     total energy              =     -24.08295014 Ry
     estimated scf accuracy    <       0.00007298 Ry

     iteration #  7     ecut=    55.00 Ry     beta= 0.20
     Davidson diagonalization with overlap

---- Real-time Memory Report at c_bands before calling an iterative solver
            72 MiB given to the printing process from OS
             0 MiB allocation reported by mallinfo(arena+hblkhd)
          5442 MiB available memory on the node where the printing process lives
------------------
     ethr =  4.50E-07,  avg # of iterations =  1.7

     total cpu time spent up to now is        6.4 secs

     total energy              =     -24.08294576 Ry
     estimated scf accuracy    <       0.00001480 Ry

     iteration #  8     ecut=    55.00 Ry     beta= 0.20
     Davidson diagonalization with overlap

---- Real-time Memory Report at c_bands before calling an iterative solver
            73 MiB given to the printing process from OS
             0 MiB allocation reported by mallinfo(arena+hblkhd)
          5440 MiB available memory on the node where the printing process lives
------------------
     ethr =  1.85E-07,  avg # of iterations =  2.2

     total cpu time spent up to now is        7.0 secs

     total energy              =     -24.08294721 Ry
     estimated scf accuracy    <       0.00000090 Ry

     iteration #  9     ecut=    55.00 Ry     beta= 0.20
     Davidson diagonalization with overlap

---- Real-time Memory Report at c_bands before calling an iterative solver
            73 MiB given to the printing process from OS
             0 MiB allocation reported by mallinfo(arena+hblkhd)
          5439 MiB available memory on the node where the printing process lives
------------------
     ethr =  1.12E-08,  avg # of iterations =  1.6

     total cpu time spent up to now is        7.6 secs

     total energy              =     -24.08294716 Ry
     estimated scf accuracy    <       0.00000027 Ry

     iteration # 10     ecut=    55.00 Ry     beta= 0.20
     Davidson diagonalization with overlap

---- Real-time Memory Report at c_bands before calling an iterative solver
            74 MiB given to the printing process from OS
             0 MiB allocation reported by mallinfo(arena+hblkhd)
          5440 MiB available memory on the node where the printing process lives
------------------
     ethr =  3.36E-09,  avg # of iterations =  2.0

     total cpu time spent up to now is        8.2 secs

     total energy              =     -24.08294723 Ry
     estimated scf accuracy    <          3.5E-09 Ry

     iteration # 11     ecut=    55.00 Ry     beta= 0.20
     Davidson diagonalization with overlap

---- Real-time Memory Report at c_bands before calling an iterative solver
            74 MiB given to the printing process from OS
             0 MiB allocation reported by mallinfo(arena+hblkhd)
          5438 MiB available memory on the node where the printing process lives
------------------
     ethr =  4.40E-11,  avg # of iterations =  3.1

     total cpu time spent up to now is        8.9 secs

     total energy              =     -24.08294723 Ry
     estimated scf accuracy    <          1.7E-09 Ry

     iteration # 12     ecut=    55.00 Ry     beta= 0.20
     Davidson diagonalization with overlap

---- Real-time Memory Report at c_bands before calling an iterative solver
            74 MiB given to the printing process from OS
             0 MiB allocation reported by mallinfo(arena+hblkhd)
          5437 MiB available memory on the node where the printing process lives
------------------
     ethr =  2.11E-11,  avg # of iterations =  2.0

     total cpu time spent up to now is        9.6 secs

     total energy              =     -24.08294723 Ry
     estimated scf accuracy    <          4.1E-10 Ry

     iteration # 13     ecut=    55.00 Ry     beta= 0.20
     Davidson diagonalization with overlap

---- Real-time Memory Report at c_bands before calling an iterative solver
            74 MiB given to the printing process from OS
             0 MiB allocation reported by mallinfo(arena+hblkhd)
          5436 MiB available memory on the node where the printing process lives
------------------
     ethr =  5.07E-12,  avg # of iterations =  2.0

     total cpu time spent up to now is       10.3 secs

     total energy              =     -24.08294723 Ry
     estimated scf accuracy    <          3.6E-11 Ry

     iteration # 14     ecut=    55.00 Ry     beta= 0.20
     Davidson diagonalization with overlap

---- Real-time Memory Report at c_bands before calling an iterative solver
            74 MiB given to the printing process from OS
             0 MiB allocation reported by mallinfo(arena+hblkhd)
          5434 MiB available memory on the node where the printing process lives
------------------
     ethr =  4.48E-13,  avg # of iterations =  2.0

     total cpu time spent up to now is       10.9 secs

     total energy              =     -24.08294723 Ry
     estimated scf accuracy    <          7.6E-13 Ry

     iteration # 15     ecut=    55.00 Ry     beta= 0.20
     Davidson diagonalization with overlap

---- Real-time Memory Report at c_bands before calling an iterative solver
            74 MiB given to the printing process from OS
             0 MiB allocation reported by mallinfo(arena+hblkhd)
          5443 MiB available memory on the node where the printing process lives
------------------
     ethr =  1.00E-13,  avg # of iterations =  1.0

     total cpu time spent up to now is       11.4 secs

     total energy              =     -24.08294723 Ry
     estimated scf accuracy    <          6.6E-13 Ry

     iteration # 16     ecut=    55.00 Ry     beta= 0.20
     Davidson diagonalization with overlap

---- Real-time Memory Report at c_bands before calling an iterative solver
            74 MiB given to the printing process from OS
             0 MiB allocation reported by mallinfo(arena+hblkhd)
          5451 MiB available memory on the node where the printing process lives
------------------
     ethr =  1.00E-13,  avg # of iterations =  1.0

     total cpu time spent up to now is       11.9 secs

     total energy              =     -24.08294723 Ry
     estimated scf accuracy    <          1.0E-14 Ry

     iteration # 17     ecut=    55.00 Ry     beta= 0.20
     Davidson diagonalization with overlap

---- Real-time Memory Report at c_bands before calling an iterative solver
            74 MiB given to the printing process from OS
             0 MiB allocation reported by mallinfo(arena+hblkhd)
          5443 MiB available memory on the node where the printing process lives
------------------
     ethr =  1.00E-13,  avg # of iterations =  1.0

     total cpu time spent up to now is       12.5 secs

     End of self-consistent calculation

          k =-0.6667 0.0000 0.0000 (  3660 PWs)   bands (ev):

   -14.3493 -14.3493 -12.3427  -1.6739  -1.6739   8.9844  11.2912  11.2912

     occupation numbers 
     1.0000   1.0000   1.0000   0.5062   0.5062  -0.0000  -0.0000  -0.0000

          k = 0.1667 0.2887 0.0000 (  3653 PWs)   bands (ev):

   -19.3592  -9.4959  -8.1535  -7.0612   4.2284   4.7693   5.1324   5.6726

     occupation numbers 
     1.0000   1.0000   1.0000   1.0000  -0.0000  -0.0000  -0.0000  -0.0000

          k =-0.5833-0.1443 0.0000 (  3632 PWs)   bands (ev):

   -15.6109 -14.6137  -9.9880  -3.4555  -0.2068   8.4016   9.9737  10.0246

     occupation numbers 
     1.0000   1.0000   1.0000   1.0000  -0.0000  -0.0000  -0.0000  -0.0000

          k = 0.3333 0.2887 0.0000 (  3639 PWs)   bands (ev):

   -17.9302 -12.3844  -8.3159  -5.4892   2.0859   6.2134   6.7727   7.1555

     occupation numbers 
     1.0000   1.0000   1.0000   1.0000  -0.0000  -0.0000  -0.0000  -0.0000

          k = 0.0833 0.1443 0.0000 (  3693 PWs)   bands (ev):

   -20.8213  -8.7812  -6.4348  -5.7676   2.2122   3.1160   3.6175   5.4787

     occupation numbers 
     1.0000   1.0000   1.0000   1.0000  -0.0000  -0.0000  -0.0000  -0.0000

          k = 0.2917 0.5052 0.0000 (  3652 PWs)   bands (ev):

   -15.5974 -13.4096 -11.7775  -2.9917  -0.3708   9.1158   9.6089  11.2642

     occupation numbers 
     1.0000   1.0000   1.0000   1.0000  -0.0000  -0.0000  -0.0000  -0.0000

          k = 0.3333 0.4330 0.0000 (  3641 PWs)   bands (ev):

   -16.2366 -13.4580 -10.6344  -3.7153   0.2614   8.6761   9.1418   9.5981

     occupation numbers 
     1.0000   1.0000   1.0000   1.0000  -0.0000  -0.0000  -0.0000  -0.0000

          k =-0.5417-0.2165 0.0000 (  3614 PWs)   bands (ev):

   -15.9271 -14.9118  -8.6900  -3.9084  -0.0194   6.5606   9.6007   9.7533

     occupation numbers 
     1.0000   1.0000   1.0000   1.0000  -0.0000  -0.0000  -0.0000  -0.0000

          k = 0.2083 0.3608 0.0000 (  3669 PWs)   bands (ev):

   -18.2849 -10.9600  -9.4749  -5.8366   2.9106   5.7317   6.6096   7.2121

     occupation numbers 
     1.0000   1.0000   1.0000   1.0000  -0.0000  -0.0000  -0.0000  -0.0000

          k = 0.2083 0.2165 0.0000 (  3652 PWs)   bands (ev):

   -19.7217  -9.1792  -7.4842  -7.2515   3.7244   4.6196   5.1582   5.4593

     occupation numbers 
     1.0000   1.0000   1.0000   1.0000  -0.0000  -0.0000  -0.0000  -0.0000

          k = 0.2917 0.3608 0.0000 (  3642 PWs)   bands (ev):

   -17.5820 -12.2001  -9.5637  -5.0801   1.8063   6.7253   7.5848   8.2296

     occupation numbers 
     1.0000   1.0000   1.0000   1.0000  -0.0000  -0.0000  -0.0000  -0.0000

          k = 0.2917 0.2165 0.0000 (  3662 PWs)   bands (ev):

   -18.9976 -10.8152  -7.4889  -6.6570   3.8365   4.7260   5.6736   6.1701

     occupation numbers 
     1.0000   1.0000   1.0000   1.0000  -0.0000  -0.0000  -0.0000  -0.0000

          k = 0.4167 0.2887 0.0000 (  3611 PWs)   bands (ev):

   -16.9017 -13.9579  -8.2066  -4.5508   0.6836   6.0704   7.7331   8.6568

     occupation numbers 
     1.0000   1.0000   1.0000   1.0000  -0.0000  -0.0000  -0.0000  -0.0000

          k = 0.1667 0.1443 0.0000 (  3665 PWs)   bands (ev):

   -20.4530  -8.3437  -7.5731  -6.2260   2.7166   3.6223   4.1310   5.9781

     occupation numbers 
     1.0000   1.0000   1.0000   1.0000  -0.0000  -0.0000  -0.0000  -0.0000

          k = 0.0417 0.0722 0.0000 (  3719 PWs)   bands (ev):

   -21.1912  -9.2244  -5.2274  -5.0083   1.7074   2.6077   3.1038   4.9741

     occupation numbers 
     1.0000   1.0000   1.0000   1.0000  -0.0000  -0.0000  -0.0000  -0.0000

          k =-0.6458-0.0361 0.0000 (  3640 PWs)   bands (ev):

   -14.7424 -14.1273 -12.1106  -2.2256  -1.1372   9.0585  11.0050  11.1537

     occupation numbers 
     1.0000   1.0000   1.0000   1.0217  -0.0244  -0.0000  -0.0000  -0.0000

          k = 0.3333 0.5052 0.0000 (  3644 PWs)   bands (ev):

   -15.2426 -13.8300 -11.7841  -2.7002  -0.6815   9.1582  10.1603  11.1100

     occupation numbers 
     1.0000   1.0000   1.0000   1.0001  -0.0002  -0.0000  -0.0000  -0.0000

          k = 0.2708 0.4691 0.0000 (  3650 PWs)   bands (ev):

   -16.3125 -12.8661 -11.2807  -3.7131   0.3735   8.5567   8.9181  10.1458

     occupation numbers 
     1.0000   1.0000   1.0000   1.0000  -0.0000  -0.0000  -0.0000  -0.0000

          k =-0.6042-0.1083 0.0000 (  3632 PWs)   bands (ev):

   -15.3733 -14.4124 -10.7567  -3.1181  -0.4085   9.5243   9.6232  10.3251

     occupation numbers 
     1.0000   1.0000   1.0000   1.0000  -0.0000  -0.0000  -0.0000  -0.0000

          k = 0.3958 0.3969 0.0000 (  3623 PWs)   bands (ev):

   -16.0351 -14.3471  -9.5955  -3.7544   0.0488   7.8822   9.0623   9.7016

     occupation numbers 
     1.0000   1.0000   1.0000   1.0000  -0.0000  -0.0000  -0.0000  -0.0000

          k = 0.3542 0.4691 0.0000 (  3643 PWs)   bands (ev):

   -15.5549 -13.9724 -11.1060  -3.1083  -0.3472   9.3870   9.7165  10.1373

     occupation numbers 
     1.0000   1.0000   1.0000   1.0000  -0.0000  -0.0000  -0.0000  -0.0000

          k = 0.3542 0.3969 0.0000 (  3637 PWs)   bands (ev):

   -16.4839 -13.6248  -9.8829  -4.0213   0.4589   8.2815   8.5041   9.0419

     occupation numbers 
     1.0000   1.0000   1.0000   1.0000  -0.0000  -0.0000  -0.0000  -0.0000

          k = 0.2917 0.4330 0.0000 (  3644 PWs)   bands (ev):

   -16.6439 -12.7626 -10.8105  -4.0705   0.7268   8.0752   8.6829   9.6366

     occupation numbers 
     1.0000   1.0000   1.0000   1.0000  -0.0000  -0.0000  -0.0000  -0.0000

          k = 0.4167 0.3608 0.0000 (  3618 PWs)   bands (ev):

   -16.1970 -14.4919  -8.9393  -3.9755   0.1378   6.9513   8.8272   9.6502

     occupation numbers 
     1.0000   1.0000   1.0000   1.0000  -0.0000  -0.0000  -0.0000  -0.0000

          k =-0.5208-0.2526 0.0000 (  3606 PWs)   bands (ev):

   -16.0060 -14.9896  -8.2996  -4.0221   0.0114   6.0245   9.4914   9.6371

     occupation numbers 
     1.0000   1.0000   1.0000   1.0000  -0.0000  -0.0000  -0.0000  -0.0000

          k = 0.2292 0.3248 0.0000 (  3667 PWs)   bands (ev):

   -18.5510 -10.7673  -9.0041  -6.1385   3.3039   5.3567   6.2503   6.8271

     occupation numbers 
     1.0000   1.0000   1.0000   1.0000  -0.0000  -0.0000  -0.0000  -0.0000

          k = 0.2292 0.3969 0.0000 (  3657 PWs)   bands (ev):

   -17.6696 -11.6380 -10.1131  -5.1548   2.0205   6.6023   7.4364   8.1084

     occupation numbers 
     1.0000   1.0000   1.0000   1.0000  -0.0000  -0.0000  -0.0000  -0.0000

          k = 0.2917 0.2887 0.0000 (  3649 PWs)   bands (ev):

   -18.3722 -11.5611  -8.3725  -5.9536   2.8482   5.6036   6.5247   7.0639

     occupation numbers 
     1.0000   1.0000   1.0000   1.0000  -0.0000  -0.0000  -0.0000  -0.0000

          k = 0.3542 0.3248 0.0000 (  3631 PWs)   bands (ev):

   -17.3224 -13.1076  -8.7488  -4.8679   1.2845   6.9726   7.1841   8.0033

     occupation numbers 
     1.0000   1.0000   1.0000   1.0000  -0.0000  -0.0000  -0.0000  -0.0000

          k = 0.3542 0.2526 0.0000 (  3641 PWs)   bands (ev):

   -18.0175 -12.4400  -7.9323  -5.5929   2.1384   6.0378   6.2896   7.0459

     occupation numbers 
     1.0000   1.0000   1.0000   1.0000  -0.0000  -0.0000  -0.0000  -0.0000

          k = 0.2708 0.3248 0.0000 (  3659 PWs)   bands (ev):

   -18.1957 -11.4975  -8.9890  -5.7483   2.6741   5.8554   6.7511   7.3374

     occupation numbers 
     1.0000   1.0000   1.0000   1.0000  -0.0000  -0.0000  -0.0000  -0.0000

          k = 0.3333 0.3608 0.0000 (  3628 PWs)   bands (ev):

   -17.1514 -12.9900  -9.3940  -4.6613   1.1754   7.3355   7.9984   8.1976

     occupation numbers 
     1.0000   1.0000   1.0000   1.0000  -0.0000  -0.0000  -0.0000  -0.0000

          k = 0.2708 0.3969 0.0000 (  3643 PWs)   bands (ev):

   -17.3227 -12.1413 -10.2393  -4.7847   1.5395   7.0966   7.8964   8.6189

     occupation numbers 
     1.0000   1.0000   1.0000   1.0000  -0.0000  -0.0000  -0.0000  -0.0000

          k = 0.3958 0.3248 0.0000 (  3620 PWs)   bands (ev):

   -16.8178 -13.8875  -8.5959  -4.4439   0.6511   6.6049   7.8555   8.7497

     occupation numbers 
     1.0000   1.0000   1.0000   1.0000  -0.0000  -0.0000  -0.0000  -0.0000

          k = 0.3958 0.2526 0.0000 (  3628 PWs)   bands (ev):

   -17.4941 -13.2345  -7.9890  -5.0777   1.3674   5.9821   6.8738   7.7973

     occupation numbers 
     1.0000   1.0000   1.0000   1.0000  -0.0000  -0.0000  -0.0000  -0.0000

          k = 0.4583 0.2887 0.0000 (  3602 PWs)   bands (ev):

   -16.3597 -14.6413  -8.1733  -4.1982   0.2028   5.8964   8.5911   9.5179

     occupation numbers 
     1.0000   1.0000   1.0000   1.0000  -0.0000  -0.0000  -0.0000  -0.0000

          k = 0.3229 0.5593 0.0000 (  3656 PWs)   bands (ev):

   -14.5983 -14.1333 -12.2941  -1.9777  -1.3726   9.0002  11.0490  11.3905

     occupation numbers 
     1.0000   1.0000   1.0000   1.0115  -0.0075  -0.0000  -0.0000  -0.0000

          k = 0.3333 0.5413 0.0000 (  3637 PWs)   bands (ev):

   -14.7625 -14.0441 -12.1872  -2.1848  -1.1709   9.0338  10.8582  11.3593

     occupation numbers 
     1.0000   1.0000   1.0000   1.0272  -0.0289  -0.0000  -0.0000  -0.0000

          k =-0.6354-0.0541 0.0000 (  3636 PWs)   bands (ev):

   -14.9197 -14.1472 -11.8402  -2.4755  -0.9112   9.1536  10.8369  10.9262

     occupation numbers 
     1.0000   1.0000   1.0000   1.0021  -0.0035  -0.0000  -0.0000  -0.0000

          k = 0.3021 0.5232 0.0000 (  3644 PWs)   bands (ev):

   -15.2435 -13.6634 -11.9902  -2.6401  -0.7199   9.0885  10.1329  11.4680

     occupation numbers 
     1.0000   1.0000   1.0000   1.0002  -0.0003  -0.0000  -0.0000  -0.0000

          k = 0.3021 0.4871 0.0000 (  3656 PWs)   bands (ev):

   -15.7724 -13.3296 -11.6047  -3.1751  -0.1925   9.1253   9.3518  10.9839

     occupation numbers 
     1.0000   1.0000   1.0000   1.0000  -0.0000  -0.0000  -0.0000  -0.0000

          k = 0.3229 0.5232 0.0000 (  3646 PWs)   bands (ev):

   -15.0740 -13.8277 -12.0297  -2.4908  -0.8721   9.0820  10.3931  11.3867

     occupation numbers 
     1.0000   1.0000   1.0000   1.0017  -0.0022  -0.0000  -0.0000  -0.0000

          k = 0.3229 0.4871 0.0000 (  3650 PWs)   bands (ev):

   -15.5851 -13.5920 -11.5696  -3.0204  -0.3665   9.1866   9.6382  10.9226

     occupation numbers 
     1.0000   1.0000   1.0000   1.0000  -0.0000  -0.0000  -0.0000  -0.0000

          k = 0.3542 0.5052 0.0000 (  3635 PWs)   bands (ev):

   -15.1038 -14.0765 -11.6678  -2.6512  -0.7490   9.2140  10.4394  10.8736

     occupation numbers 
     1.0000   1.0000   1.0000   1.0002  -0.0004  -0.0000  -0.0000  -0.0000

          k = 0.2917 0.4691 0.0000 (  3650 PWs)   bands (ev):

   -16.1299 -13.0581 -11.3562  -3.5327   0.1759   8.8248   9.0297  10.4281

     occupation numbers 
     1.0000   1.0000   1.0000   1.0000  -0.0000  -0.0000  -0.0000  -0.0000

          k = 0.2604 0.4511 0.0000 (  3634 PWs)   bands (ev):

   -16.6641 -12.5758 -11.0062  -4.0776   0.7677   8.0447   8.6337   9.6072

     occupation numbers 
     1.0000   1.0000   1.0000   1.0000  -0.0000  -0.0000  -0.0000  -0.0000

          k = 0.3854 0.4511 0.0000 (  3633 PWs)   bands (ev):

   -15.5363 -14.3595 -10.5553  -3.2545  -0.2988   9.2414   9.6788   9.8983

     occupation numbers 
     1.0000   1.0000   1.0000   1.0000  -0.0000  -0.0000  -0.0000  -0.0000

          k =-0.6146-0.0902 0.0000 (  3628 PWs)   bands (ev):

   -15.2350 -14.3098 -11.1404  -2.9216  -0.5469   9.4449  10.0784  10.4911

     occupation numbers 
     1.0000   1.0000   1.0000   1.0000  -0.0000  -0.0000  -0.0000  -0.0000

          k = 0.3542 0.4330 0.0000 (  3633 PWs)   bands (ev):

   -16.0247 -13.8205 -10.4975  -3.5685   0.0557   8.9884   9.3074   9.3805

     occupation numbers 
     1.0000   1.0000   1.0000   1.0000  -0.0000  -0.0000  -0.0000  -0.0000

          k = 0.3229 0.4511 0.0000 (  3650 PWs)   bands (ev):

   -16.0936 -13.3834 -10.9996  -3.5432   0.1299   8.8848   9.1529  10.1615

     occupation numbers 
     1.0000   1.0000   1.0000   1.0000  -0.0000  -0.0000  -0.0000  -0.0000

          k = 0.3229 0.4150 0.0000 (  3636 PWs)   bands (ev):

   -16.5830 -13.1658 -10.3800  -4.0500   0.6165   8.1657   8.8242   9.3336

     occupation numbers 
     1.0000   1.0000   1.0000   1.0000  -0.0000  -0.0000  -0.0000  -0.0000

          k = 0.3646 0.4511 0.0000 (  3631 PWs)   bands (ev):

   -15.6937 -14.0684 -10.7262  -3.2936  -0.2145   9.4579   9.5118   9.6342

     occupation numbers 
     1.0000   1.0000   1.0000   1.0000  -0.0000  -0.0000  -0.0000  -0.0000

          k = 0.3333 0.4691 0.0000 (  3642 PWs)   bands (ev):

   -15.7430 -13.6482 -11.2408  -3.2127  -0.2045   9.2617   9.4103  10.4180

     occupation numbers 
     1.0000   1.0000   1.0000   1.0000  -0.0000  -0.0000  -0.0000  -0.0000

          k = 0.3646 0.4871 0.0000 (  3631 PWs)   bands (ev):

   -15.2599 -14.1588 -11.3169  -2.8690  -0.5720   9.3533  10.2095  10.4200

     occupation numbers 
     1.0000   1.0000   1.0000   1.0000  -0.0000  -0.0000  -0.0000  -0.0000

          k = 0.3021 0.4511 0.0000 (  3648 PWs)   bands (ev):

   -16.2933 -13.0543 -11.0786  -3.7133   0.3432   8.5871   8.9763  10.1715

     occupation numbers 
     1.0000   1.0000   1.0000   1.0000  -0.0000  -0.0000  -0.0000  -0.0000

          k = 0.3021 0.4150 0.0000 (  3647 PWs)   bands (ev):

   -16.7906 -12.7992 -10.4757  -4.2376   0.8718   7.8627   8.5584   9.4078

     occupation numbers 
     1.0000   1.0000   1.0000   1.0000  -0.0000  -0.0000  -0.0000  -0.0000

          k = 0.2708 0.4330 0.0000 (  3629 PWs)   bands (ev):

   -16.8319 -12.4767 -10.8112  -4.2572   0.9582   7.8016   8.4682   9.3526

     occupation numbers 
     1.0000   1.0000   1.0000   1.0000  -0.0000  -0.0000  -0.0000  -0.0000

          k =-0.6615-0.0090 0.0000 (  3654 PWs)   bands (ev):

   -14.4522 -14.2562 -12.3287  -1.8181  -1.5304   8.9888  11.2292  11.3187

     occupation numbers 
     1.0000   1.0000   1.0000   0.8300   0.1803  -0.0000  -0.0000  -0.0000

          k = 0.3333 0.5593 0.0000 (  3658 PWs)   bands (ev):

   -14.5444 -14.1825 -12.3028  -1.9286  -1.4214   8.9971  11.1291  11.3495

     occupation numbers 
     1.0000   1.0000   1.0000   0.9779   0.0285  -0.0000  -0.0000  -0.0000

          k = 0.3177 0.5503 0.0000 (  3644 PWs)   bands (ev):

   -14.7461 -14.0206 -12.2387  -2.1370  -1.2148   9.0180  10.8539  11.4263

     occupation numbers 
     1.0000   1.0000   1.0000   1.0329  -0.0337  -0.0000  -0.0000  -0.0000

          k =-0.6510-0.0271 0.0000 (  3646 PWs)   bands (ev):

   -14.6489 -14.1456 -12.2120  -2.0940  -1.2623   9.0255  11.0848  11.2355

     occupation numbers 
     1.0000   1.0000   1.0000   1.0354  -0.0354  -0.0000  -0.0000  -0.0000

          k = 0.3490 0.5322 0.0000 (  3639 PWs)   bands (ev):

   -14.8172 -14.0980 -12.0462  -2.3085  -1.0592   9.0801  10.8663  11.1737

     occupation numbers 
     1.0000   1.0000   1.0000   1.0118  -0.0144  -0.0000  -0.0000  -0.0000

          k = 0.3385 0.5503 0.0000 (  3650 PWs)   bands (ev):

   -14.6355 -14.1330 -12.2456  -2.0545  -1.2988   9.0150  11.0473  11.3168

     occupation numbers 
     1.0000   1.0000   1.0000   1.0338  -0.0324  -0.0000  -0.0000  -0.0000

          k = 0.3385 0.5322 0.0000 (  3640 PWs)   bands (ev):

   -14.8500 -14.0273 -12.0906  -2.3025  -1.0603   9.0649  10.7558  11.2963

     occupation numbers 
     1.0000   1.0000   1.0000   1.0124  -0.0146  -0.0000  -0.0000  -0.0000

          k = 0.3229 0.5413 0.0000 (  3642 PWs)   bands (ev):

   -14.8270 -13.9710 -12.1916  -2.2283  -1.1259   9.0328  10.7459  11.4231

     occupation numbers 
     1.0000   1.0000   1.0000   1.0214  -0.0229  -0.0000  -0.0000  -0.0000

          k = 0.3542 0.5232 0.0000 (  3634 PWs)   bands (ev):

   -14.9048 -14.1089 -11.9113  -2.4311  -0.9477   9.1271  10.7700  11.0671

     occupation numbers 
     1.0000   1.0000   1.0000   1.0035  -0.0052  -0.0000  -0.0000  -0.0000

          k =-0.6302-0.0631 0.0000 (  3630 PWs)   bands (ev):

   -15.0034 -14.1773 -11.6795  -2.5933  -0.8086   9.2150  10.7503  10.7696

     occupation numbers 
     1.0000   1.0000   1.0000   1.0004  -0.0010  -0.0000  -0.0000  -0.0000

          k = 0.3073 0.5142 0.0000 (  3644 PWs)   bands (ev):

   -15.3307 -13.6133 -11.9255  -2.7301  -0.6324   9.1033  10.0051  11.4317

     occupation numbers 
     1.0000   1.0000   1.0000   1.0000  -0.0001  -0.0000  -0.0000  -0.0000

          k = 0.3073 0.5322 0.0000 (  3646 PWs)   bands (ev):

   -15.0718 -13.7855 -12.0842  -2.4689  -0.8886   9.0649  10.3865  11.4643

     occupation numbers 
     1.0000   1.0000   1.0000   1.0023  -0.0027  -0.0000  -0.0000  -0.0000

          k = 0.3229 0.5052 0.0000 (  3644 PWs)   bands (ev):

   -15.3282 -13.7033 -11.8183  -2.7555  -0.6182   9.1386  10.0192  11.2188

     occupation numbers 
     1.0000   1.0000   1.0000   1.0000  -0.0001  -0.0000  -0.0000  -0.0000

          k = 0.3385 0.5142 0.0000 (  3642 PWs)   bands (ev):

   -15.0824 -13.9367 -11.8807  -2.5535  -0.8239   9.1327  10.4122  11.1754

     occupation numbers 
     1.0000   1.0000   1.0000   1.0008  -0.0012  -0.0000  -0.0000  -0.0000

          k = 0.3385 0.4962 0.0000 (  3640 PWs)   bands (ev):

   -15.3244 -13.8536 -11.6315  -2.8056  -0.5896   9.2078  10.0466  10.9013

     occupation numbers 
     1.0000   1.0000   1.0000   1.0000  -0.0000  -0.0000  -0.0000  -0.0000

          k = 0.3177 0.5142 0.0000 (  3644 PWs)   bands (ev):

   -15.2432 -13.7093 -11.9346  -2.6554  -0.7102   9.1061  10.1398  11.3635

     occupation numbers 
     1.0000   1.0000   1.0000   1.0002  -0.0002  -0.0000  -0.0000  -0.0000

          k = 0.3333 0.5232 0.0000 (  3642 PWs)   bands (ev):

   -14.9977 -13.9293 -12.0096  -2.4424  -0.9246   9.0903  10.5237  11.3054

     occupation numbers 
     1.0000   1.0000   1.0000   1.0031  -0.0040  -0.0000  -0.0000  -0.0000

          k = 0.3177 0.5322 0.0000 (  3644 PWs)   bands (ev):

   -14.9886 -13.8555 -12.1137  -2.3912  -0.9663   9.0567  10.5113  11.4411

     occupation numbers 
     1.0000   1.0000   1.0000   1.0054  -0.0063  -0.0000  -0.0000  -0.0000

          k = 0.3490 0.5142 0.0000 (  3639 PWs)   bands (ev):

   -15.0214 -14.0469 -11.8266  -2.5373  -0.8477   9.1554  10.5458  11.0602

     occupation numbers 
     1.0000   1.0000   1.0000   1.0009  -0.0016  -0.0000  -0.0000  -0.0000

          k = 0.3490 0.4962 0.0000 (  3639 PWs)   bands (ev):

   -15.2459 -13.9908 -11.5696  -2.7728  -0.6343   9.2422  10.1918  10.7763

     occupation numbers 
     1.0000   1.0000   1.0000   1.0000  -0.0001  -0.0000  -0.0000  -0.0000

          k = 0.3646 0.5052 0.0000 (  3633 PWs)   bands (ev):

   -15.0713 -14.1685 -11.5920  -2.6652  -0.7455   9.2483  10.5604  10.7488

     occupation numbers 
     1.0000   1.0000   1.0000   1.0001  -0.0004  -0.0000  -0.0000  -0.0000

     the Fermi energy is    -1.6714 ev

!    total energy              =     -24.08294723 Ry
     estimated scf accuracy    <          1.4E-15 Ry
     smearing contrib. (-TS)   =       0.00004664 Ry
     internal energy E=F+TS    =     -24.08299386 Ry

     The total energy is F=E-TS. E is the sum of the following terms:
     one-electron contribution =    -157.91442007 Ry
     hartree contribution      =      80.45744630 Ry
     xc contribution           =      -8.58731244 Ry
     ewald contribution        =      61.96129234 Ry

     convergence has been achieved in  17 iterations

     Forces acting on atoms (cartesian axes, Ry/au):

     atom    1 type  1   force =     0.00000000    0.00000000    0.00000000
     atom    2 type  1   force =     0.00000000    0.00000000    0.00000000
     The non-local contrib.  to forces
     atom    1 type  1   force =     0.00000000   -0.00000000    0.00000000
     atom    2 type  1   force =     0.00000000    0.00000000    0.00000000
     The ionic contribution  to forces
     atom    1 type  1   force =    -0.00000001    0.00000000    0.00000000
     atom    2 type  1   force =     0.00000001   -0.00000000    0.00000000
     The local contribution  to forces
     atom    1 type  1   force =     0.00000000    0.00000000    0.00000000
     atom    2 type  1   force =     0.00000001   -0.00000000    0.00000000
     The core correction contribution to forces
     atom    1 type  1   force =     0.00000000   -0.00000000   -0.00000000
     atom    2 type  1   force =    -0.00000000    0.00000000   -0.00000000
     The Hubbard contrib.    to forces
     atom    1 type  1   force =     0.00000000    0.00000000    0.00000000
     atom    2 type  1   force =     0.00000000    0.00000000    0.00000000
     The SCF correction term to forces
     atom    1 type  1   force =    -0.00000000   -0.00000000    0.00000000
     atom    2 type  1   force =    -0.00000000   -0.00000000    0.00000000

     Total force =     0.000000     Total SCF correction =     0.000000


     Computing stress (Cartesian axis) and pressure

          total   stress  (Ry/bohr**3)                   (kbar)     P=      -11.27
  -0.00005224   0.00000000   0.00000000           -7.68        0.00        0.00
   0.00000000  -0.00005224   0.00000000            0.00       -7.68        0.00
   0.00000000   0.00000000  -0.00012537            0.00        0.00      -18.44

     kinetic stress (kbar)   3002.12      0.00      0.00
                                0.00   3002.12      0.00
                                0.00      0.00   3309.99

     local   stress (kbar) -46818.51      0.00      0.00
                                0.00 -46818.51      0.00
                                0.00      0.00  47727.81

     nonloc. stress (kbar)   -310.87     -0.00      0.00
                               -0.00   -310.87      0.00
                                0.00      0.00   -261.41

     hartree stress (kbar)  22107.66     -0.00     -0.00
                               -0.00  22107.66     -0.00
                               -0.00     -0.00 -21879.04

     exc-cor stress (kbar)   -239.12     -0.00     -0.00
                               -0.00   -239.12      0.00
                               -0.00      0.00   -267.61

     corecor stress (kbar)   -452.80      0.00      0.00
                                0.00   -452.80      0.00
                                0.00      0.00   -441.98

     ewald   stress (kbar)  22703.83     -0.00     -0.00
                               -0.00  22703.83      0.00
                               -0.00      0.00 -28206.21

     hubbard stress (kbar)      0.00      0.00      0.00
                                0.00      0.00      0.00
                                0.00      0.00      0.00

     DFT-D   stress (kbar)      0.00      0.00      0.00
                                0.00      0.00      0.00
                                0.00      0.00      0.00

     XDM     stress (kbar)      0.00      0.00      0.00
                                0.00      0.00      0.00
                                0.00      0.00      0.00

     dft-nl  stress (kbar)      0.00      0.00      0.00
                                0.00      0.00      0.00
                                0.00      0.00      0.00

     TS-vdW  stress (kbar)      0.00      0.00      0.00
                                0.00      0.00      0.00
                                0.00      0.00      0.00

     MDB     stress (kbar)      0.00      0.00      0.00
                                0.00      0.00      0.00
                                0.00      0.00      0.00

     3D-RISM stress (kbar)      0.00      0.00      0.00
                                0.00      0.00      0.00
                                0.00      0.00      0.00


     Writing all to output data dir /home/babby/epiq_tutorial_test//tutorials/graphene/results/scf/graphene.save/

     init_run     :      0.57s CPU      0.58s WALL (       1 calls)
     electrons    :     11.40s CPU     11.86s WALL (       1 calls)
     forces       :      0.12s CPU      0.13s WALL (       1 calls)
     stress       :      0.25s CPU      0.26s WALL (       1 calls)

     Called by init_run:
     wfcinit      :      0.25s CPU      0.26s WALL (       1 calls)
     wfcinit:atom :      0.00s CPU      0.00s WALL (      10 calls)
     wfcinit:wfcr :      0.23s CPU      0.24s WALL (      10 calls)
     potinit      :      0.10s CPU      0.10s WALL (       1 calls)
     hinit0       :      0.21s CPU      0.21s WALL (       1 calls)

     Called by electrons:
     c_bands      :      8.83s CPU      9.10s WALL (      17 calls)
     sum_band     :      1.71s CPU      1.85s WALL (      17 calls)
     v_of_rho     :      0.62s CPU      0.64s WALL (      18 calls)
     v_h          :      0.04s CPU      0.04s WALL (      18 calls)
     v_xc         :      0.63s CPU      0.66s WALL (      20 calls)
     mix_rho      :      0.07s CPU      0.07s WALL (      17 calls)

     Called by c_bands:
     init_us_2    :      0.21s CPU      0.27s WALL (     370 calls)
     init_us_2:cp :      0.21s CPU      0.27s WALL (     370 calls)
     cegterg      :      7.52s CPU      7.71s WALL (     170 calls)

     Called by sum_band:
     sum_band:wei :      0.00s CPU      0.00s WALL (      17 calls)
     sum_band:loo :      1.51s CPU      1.65s WALL (      17 calls)
     sum_band:buf :      0.03s CPU      0.03s WALL (     170 calls)
     sum_band:ini :      0.10s CPU      0.12s WALL (     170 calls)

     Called by *egterg:
     cdiaghg      :      0.04s CPU      0.04s WALL (     676 calls)
     cegterg:over :      0.34s CPU      0.34s WALL (     506 calls)
     cegterg:upda :      0.21s CPU      0.21s WALL (     506 calls)
     cegterg:last :      0.33s CPU      0.34s WALL (     344 calls)
     h_psi        :      6.63s CPU      6.81s WALL (     686 calls)
     g_psi        :      0.03s CPU      0.03s WALL (     506 calls)

     Called by h_psi:
     h_psi:calbec :      0.51s CPU      0.54s WALL (     686 calls)
     vloc_psi     :      5.75s CPU      5.89s WALL (     686 calls)
     add_vuspsi   :      0.32s CPU      0.33s WALL (     686 calls)

     General routines
     calbec       :      0.55s CPU      0.58s WALL (     736 calls)
     fft          :      0.40s CPU      0.43s WALL (     204 calls)
     ffts         :      0.03s CPU      0.03s WALL (      17 calls)
     fftw         :      5.52s CPU      5.72s WALL (    8626 calls)

     Parallel routines

     PWSCF        :     12.38s CPU     12.88s WALL


   This run was terminated on:  10:23:19  20Sep2022            

=------------------------------------------------------------------------------=
   JOB DONE.
=------------------------------------------------------------------------------=

Time required:	 0   minutes and 13 seconds 
