
     Program PHONON v.7.1 starts on 20Sep2022 at 10:24:29 

     This program is part of the open-source Quantum ESPRESSO suite
     for quantum simulation of materials; please cite
         "P. Giannozzi et al., J. Phys.:Condens. Matter 21 395502 (2009);
         "P. Giannozzi et al., J. Phys.:Condens. Matter 29 465901 (2017);
         "P. Giannozzi et al., J. Chem. Phys. 152 154105 (2020);
          URL http://www.quantum-espresso.org", 
     in publications or presentations arising from this work. More details at
     http://www.quantum-espresso.org/quote

     Parallel version (MPI), running on     8 processors

     MPI processes distributed on     1 nodes
     K-points division:     npool     =       8
     5059 MiB available memory on the printing compute node when the environment starts

     Reading input from graphene.ph.in

     Reading xml data from directory:

     /home/babby/epiq_tutorial_test//tutorials/graphene/results/ph/graphene.save/

     IMPORTANT: XC functional enforced from input :
     Exchange-correlation= PBE
                           (   1   4   3   4   0   0   0)
     Any further DFT definition will be discarded
     Please, verify this is what you really want


     G-vector sticks info
     --------------------
     sticks:   dense  smooth     PW     G-vecs:    dense   smooth      PW
     Sum         313     313    109                28981    28981    5151

     Using Slab Decomposition

     Reading collected, re-writing distributed wavefunctions


     Dynamical matrices for ( 6, 6, 1)  uniform grid of q-points
     (   7 q-points):
       N         xq(1)         xq(2)         xq(3) 
       1   0.000000000   0.000000000   0.000000000
       2   0.000000000   0.192450090   0.000000000
       3   0.000000000   0.384900179   0.000000000
       4   0.000000000  -0.577350269   0.000000000
       5   0.166666667   0.288675135   0.000000000
       6   0.166666667   0.481125224   0.000000000
       7   0.333333333   0.577350269   0.000000000

     Saving dvscf to file. Distribute only q points, not irreducible represetations.

     Calculation of q =    0.0000000   0.0000000   0.0000000
 initialize_ph

     PH of graphene                                                             

     bravais-lattice index     =            4
     lattice parameter (alat)  =       4.6463  a.u.
     unit-cell volume          =     529.8869 (a.u.)^3
     number of atoms/cell      =            2
     number of atomic types    =            1
     kinetic-energy cut-off    =      55.0000  Ry
     charge density cut-off    =     220.0000  Ry
     convergence threshold     =      1.0E-12
     beta                      =       0.7000
     number of iterations used =            4
     Exchange-correlation= PBE
                           (   1   4   3   4   0   0   0)


     celldm(1)=    4.64630  celldm(2)=    0.00000  celldm(3)=    6.10000
     celldm(4)=    0.00000  celldm(5)=    0.00000  celldm(6)=    0.00000

     crystal axes: (cart. coord. in units of alat)
               a(1) = (  1.0000  0.0000  0.0000 )  
               a(2) = ( -0.5000  0.8660  0.0000 )  
               a(3) = (  0.0000  0.0000  6.1000 )  

     reciprocal axes: (cart. coord. in units 2 pi/alat)
               b(1) = (  1.0000  0.5774 -0.0000 )  
               b(2) = (  0.0000  1.1547  0.0000 )  
               b(3) = (  0.0000 -0.0000  0.1639 )  


     Atoms inside the unit cell: 

     Cartesian axes

     site n.  atom      mass           positions (alat units)
        1     C   12.0100   tau(    1) = (    0.00000    0.00000    3.05000  )
        2     C   12.0100   tau(    2) = (   -0.00000    0.57735    3.05000  )

     Computing dynamical matrix for 
                    q = (   0.0000000   0.0000000   0.0000000 )

     25 Sym.Ops. (with q -> -q+G )


     G cutoff =  120.3034  (  28981 G-vectors)     FFT grid: ( 24, 24,135)

     number of k points=    78  Methfessel-Paxton smearing, width (Ry)=  0.0250

     PseudoPot. # 1 for C  read from file:
     /home/babby/epiq_tutorial_test//tutorials/graphene/pseudo/C.UPF
     MD5 check sum: 34a24e64c0a39f27c6c36b90a16ac686
     Pseudo is Norm-conserving + core correction, Zval =  4.0
     Generated using ONCVPSP code by D. R. Hamann
     Using radial grid of 1248 points,  4 beta functions with: 
                l(1) =   0
                l(2) =   0
                l(3) =   1
                l(4) =   1

     Mode symmetry, D_6h(6/mmm) point group:


     Atomic displacements:
     There are    4 irreducible representations

     Representation     1      1 modes -  To be done

     Representation     2      2 modes -  To be done

     Representation     3      1 modes -  To be done

     Representation     4      2 modes -  To be done



     Alpha used in Ewald sum =   2.3000
     PHONON       :      1.34s CPU      1.47s WALL

 initialize_ph ended


     Representation #   1 mode #   1

     Self-consistent Calculation

     Pert. #  1: Fermi energy shift (Ry) =     2.2058E-24    -4.8979E-40

      iter #   1 total cpu time :     2.7 secs   av.it.:   5.4
      thresh= 1.000E-02 alpha_mix =  0.700 |ddv_scf|^2 =  1.137E-08

     Pert. #  1: Fermi energy shift (Ry) =    -2.2058E-24     1.9592E-39

      iter #   2 total cpu time :     4.2 secs   av.it.:   9.2
      thresh= 1.066E-05 alpha_mix =  0.700 |ddv_scf|^2 =  7.666E-10

     Pert. #  1: Fermi energy shift (Ry) =    -1.3786E-25     2.4489E-40

      iter #   3 total cpu time :     5.8 secs   av.it.:   9.0
      thresh= 2.769E-06 alpha_mix =  0.700 |ddv_scf|^2 =  1.098E-11

     Pert. #  1: Fermi energy shift (Ry) =     6.8932E-26     4.8979E-40

      iter #   4 total cpu time :     7.3 secs   av.it.:   9.1
      thresh= 3.313E-07 alpha_mix =  0.700 |ddv_scf|^2 =  3.446E-14

     End of self-consistent calculation

     Convergence has been achieved 


     Representation #   2 modes #   2   3

     Self-consistent Calculation

     Pert. #  1: Fermi energy shift (Ry) =    -2.1458E-20     2.4489E-40
     Pert. #  2: Fermi energy shift (Ry) =     7.0473E-19    -2.5714E-39

      iter #   1 total cpu time :     9.8 secs   av.it.:   6.4
      thresh= 1.000E-02 alpha_mix =  0.700 |ddv_scf|^2 =  4.321E-08

     Pert. #  1: Fermi energy shift (Ry) =    -1.8070E-19     7.3468E-40
     Pert. #  2: Fermi energy shift (Ry) =    -3.4333E-19    -2.6938E-39

      iter #   2 total cpu time :    12.8 secs   av.it.:  11.0
      thresh= 2.079E-05 alpha_mix =  0.700 |ddv_scf|^2 =  2.084E-10

     Pert. #  1: Fermi energy shift (Ry) =    -7.2280E-20     7.3468E-40
     Pert. #  2: Fermi energy shift (Ry) =    -2.1684E-19    -2.6938E-39

      iter #   3 total cpu time :    15.8 secs   av.it.:  10.8
      thresh= 1.444E-06 alpha_mix =  0.700 |ddv_scf|^2 =  1.331E-11

     Pert. #  1: Fermi energy shift (Ry) =    -2.8912E-19     7.3468E-40
     Pert. #  2: Fermi energy shift (Ry) =    -4.5175E-19    -2.6938E-39

      iter #   4 total cpu time :    18.9 secs   av.it.:  10.9
      thresh= 3.648E-07 alpha_mix =  0.700 |ddv_scf|^2 =  1.798E-14

     End of self-consistent calculation

     Convergence has been achieved 


     Representation #   3 mode #   4

     Self-consistent Calculation

     Pert. #  1: Fermi energy shift (Ry) =     1.7233E-26     0.0000E+00

      iter #   1 total cpu time :    20.8 secs   av.it.:   6.5
      thresh= 1.000E-02 alpha_mix =  0.700 |ddv_scf|^2 =  9.662E-05

     Pert. #  1: Fermi energy shift (Ry) =     5.5145E-25    -9.5662E-43

      iter #   2 total cpu time :    22.4 secs   av.it.:   9.0
      thresh= 9.830E-04 alpha_mix =  0.700 |ddv_scf|^2 =  9.941E-05

     Pert. #  1: Fermi energy shift (Ry) =     0.0000E+00     0.0000E+00

      iter #   3 total cpu time :    23.9 secs   av.it.:   8.3
      thresh= 9.970E-04 alpha_mix =  0.700 |ddv_scf|^2 =  2.933E-08

     Pert. #  1: Fermi energy shift (Ry) =     1.1029E-24     0.0000E+00

      iter #   4 total cpu time :    25.2 secs   av.it.:   8.3
      thresh= 1.713E-05 alpha_mix =  0.700 |ddv_scf|^2 =  1.120E-09

     Pert. #  1: Fermi energy shift (Ry) =     2.7573E-25     0.0000E+00

      iter #   5 total cpu time :    26.4 secs   av.it.:   8.4
      thresh= 3.347E-06 alpha_mix =  0.700 |ddv_scf|^2 =  1.768E-12

     Pert. #  1: Fermi energy shift (Ry) =    -8.6165E-27     0.0000E+00

      iter #   6 total cpu time :    27.7 secs   av.it.:   8.9
      thresh= 1.330E-07 alpha_mix =  0.700 |ddv_scf|^2 =  1.871E-15

     End of self-consistent calculation

     Convergence has been achieved 


     Representation #   4 modes #   5   6

     Self-consistent Calculation

     Pert. #  1: Fermi energy shift (Ry) =    -4.1359E-25     8.0247E-36
     Pert. #  2: Fermi energy shift (Ry) =     3.4466E-25     1.6049E-35

      iter #   1 total cpu time :    30.1 secs   av.it.:   5.9
      thresh= 1.000E-02 alpha_mix =  0.700 |ddv_scf|^2 =  8.364E-09

     Pert. #  1: Fermi energy shift (Ry) =     2.7573E-25     1.7241E-37
     Pert. #  2: Fermi energy shift (Ry) =     6.8932E-26     7.8366E-39

      iter #   2 total cpu time :    33.3 secs   av.it.:  11.0
      thresh= 9.146E-06 alpha_mix =  0.700 |ddv_scf|^2 =  2.279E-10

     Pert. #  1: Fermi energy shift (Ry) =    -5.5145E-25    -4.8979E-40
     Pert. #  2: Fermi energy shift (Ry) =     1.3786E-25     4.8979E-40

      iter #   3 total cpu time :    36.8 secs   av.it.:  10.8
      thresh= 1.510E-06 alpha_mix =  0.700 |ddv_scf|^2 =  5.990E-12

     Pert. #  1: Fermi energy shift (Ry) =     2.7573E-25     4.8979E-40
     Pert. #  2: Fermi energy shift (Ry) =     3.4466E-25     9.7958E-40

      iter #   4 total cpu time :    40.0 secs   av.it.:  10.7
      thresh= 2.447E-07 alpha_mix =  0.700 |ddv_scf|^2 =  3.085E-14

     End of self-consistent calculation

     Convergence has been achieved 

     Number of q in the star =    1
     List of q in the star:
          1   0.000000000   0.000000000   0.000000000

     Diagonalizing the dynamical matrix

     q = (    0.000000000   0.000000000   0.000000000 ) 

 **************************************************************************
     freq (    1) =       0.224988 [THz] =       7.504787 [cm-1]
     freq (    2) =       0.601464 [THz] =      20.062680 [cm-1]
     freq (    3) =       0.601464 [THz] =      20.062680 [cm-1]
     freq (    4) =      26.289064 [THz] =     876.908792 [cm-1]
     freq (    5) =      47.945899 [THz] =    1599.303028 [cm-1]
     freq (    6) =      47.945899 [THz] =    1599.303028 [cm-1]
 **************************************************************************

     Mode symmetry, D_6h(6/mmm) point group:

     freq (   1-   1) =          7.5  [cm-1]   --> A_2u            I  
     freq (   2-   3) =         20.1  [cm-1]   --> E_1u            I  
     freq (   4-   4) =        876.9  [cm-1]   --> B_1g               
     freq (   5-   6) =       1599.3  [cm-1]   --> E_2g            R  

     Number of q in the star =    1
     List of q in the star:
          1   0.000000000   0.000000000   0.000000000
       Writing drho for q = (  0.000000  0.000000  0.000000) on file "dvscf.0_0_0"

     Calculation of q =    0.0000000   0.1924501   0.0000000
     Subspace diagonalization in iterative solution of the eigenvalue problem:
     a serial algorithm will be used


     G-vector sticks info
     --------------------
     sticks:   dense  smooth     PW     G-vecs:    dense   smooth      PW
     Sum         313     313    109                28981    28981    5585

     Using Slab Decomposition


     Title: 
     PH of graphene                                                             


     bravais-lattice index     =            4
     lattice parameter (alat)  =       4.6463  a.u.
     unit-cell volume          =     529.8869 (a.u.)^3
     number of atoms/cell      =            2
     number of atomic types    =            1
     number of electrons       =         8.00
     number of Kohn-Sham states=            8
     kinetic-energy cutoff     =      55.0000  Ry
     charge density cutoff     =     220.0000  Ry
     Exchange-correlation= PBE
                           (   1   4   3   4   0   0   0)

     celldm(1)=   4.646303  celldm(2)=   0.000000  celldm(3)=   6.100000
     celldm(4)=   0.000000  celldm(5)=   0.000000  celldm(6)=   0.000000

     crystal axes: (cart. coord. in units of alat)
               a(1) = (   1.000000   0.000000   0.000000 )  
               a(2) = (  -0.500000   0.866025   0.000000 )  
               a(3) = (   0.000000   0.000000   6.100000 )  

     reciprocal axes: (cart. coord. in units 2 pi/alat)
               b(1) = (  1.000000  0.577350 -0.000000 )  
               b(2) = (  0.000000  1.154701  0.000000 )  
               b(3) = (  0.000000 -0.000000  0.163934 )  


     PseudoPot. # 1 for C  read from file:
     /home/babby/epiq_tutorial_test//tutorials/graphene/pseudo/C.UPF
     MD5 check sum: 34a24e64c0a39f27c6c36b90a16ac686
     Pseudo is Norm-conserving + core correction, Zval =  4.0
     Generated using ONCVPSP code by D. R. Hamann
     Using radial grid of 1248 points,  4 beta functions with: 
                l(1) =   0
                l(2) =   0
                l(3) =   1
                l(4) =   1

     atomic species   valence    mass     pseudopotential
        C              4.00    12.01000     C ( 1.00)

     24 Sym. Ops., with inversion, found



   Cartesian axes

     site n.     atom                  positions (alat units)
         1           C   tau(   1) = (   0.0000000   0.0000000   3.0500000  )
         2           C   tau(   2) = (  -0.0000000   0.5773503   3.0500000  )

     number of k points=   794  Methfessel-Paxton smearing, width (Ry)=  0.0250

     Number of k-points >= 100: set verbosity='high' to print them.

     Dense  grid:    28981 G-vectors     FFT dimensions: (  24,  24, 135)

     Estimated max dynamical RAM per process >      14.59 MB

     Estimated total dynamical RAM >     116.70 MB

     The potential is recalculated from file :
     /home/babby/epiq_tutorial_test//tutorials/graphene/results/ph/_ph0/graphene.q_2/graphene.save/charge-density

     Starting wfcs are    8 atomic wfcs

     Band Structure Calculation
     Davidson diagonalization with overlap

     ethr =  1.25E-10,  avg # of iterations = 25.4

     total cpu time spent up to now is       35.1 secs

     End of band structure calculation

     Number of k-points >= 100: set verbosity='high' to print the bands.

     the Fermi energy is    -1.6714 ev

     Writing config to output data dir /home/babby/epiq_tutorial_test//tutorials/graphene/results/ph/_ph0/graphene.q_2/graphene.save/
 initialize_ph

     PH of graphene                                                             

     bravais-lattice index     =            4
     lattice parameter (alat)  =       4.6463  a.u.
     unit-cell volume          =     529.8869 (a.u.)^3
     number of atoms/cell      =            2
     number of atomic types    =            1
     kinetic-energy cut-off    =      55.0000  Ry
     charge density cut-off    =     220.0000  Ry
     convergence threshold     =      1.0E-12
     beta                      =       0.7000
     number of iterations used =            4
     Exchange-correlation= PBE
                           (   1   4   3   4   0   0   0)


     celldm(1)=    4.64630  celldm(2)=    0.00000  celldm(3)=    6.10000
     celldm(4)=    0.00000  celldm(5)=    0.00000  celldm(6)=    0.00000

     crystal axes: (cart. coord. in units of alat)
               a(1) = (  1.0000  0.0000  0.0000 )  
               a(2) = ( -0.5000  0.8660  0.0000 )  
               a(3) = (  0.0000  0.0000  6.1000 )  

     reciprocal axes: (cart. coord. in units 2 pi/alat)
               b(1) = (  1.0000  0.5774 -0.0000 )  
               b(2) = (  0.0000  1.1547  0.0000 )  
               b(3) = (  0.0000 -0.0000  0.1639 )  


     Atoms inside the unit cell: 

     Cartesian axes

     site n.  atom      mass           positions (alat units)
        1     C   12.0100   tau(    1) = (    0.00000    0.00000    3.05000  )
        2     C   12.0100   tau(    2) = (   -0.00000    0.57735    3.05000  )

     Computing dynamical matrix for 
                    q = (   0.0000000   0.1924501   0.0000000 )

      4 Sym.Ops. (no q -> -q+G )


     G cutoff =  120.3034  (  28981 G-vectors)     FFT grid: ( 24, 24,135)

     number of k points=   794  Methfessel-Paxton smearing, width (Ry)=  0.0250

     PseudoPot. # 1 for C  read from file:
     /home/babby/epiq_tutorial_test//tutorials/graphene/pseudo/C.UPF
     MD5 check sum: 34a24e64c0a39f27c6c36b90a16ac686
     Pseudo is Norm-conserving + core correction, Zval =  4.0
     Generated using ONCVPSP code by D. R. Hamann
     Using radial grid of 1248 points,  4 beta functions with: 
                l(1) =   0
                l(2) =   0
                l(3) =   1
                l(4) =   1

     Mode symmetry, C_2v (mm2)  point group:


     Atomic displacements:
     There are    6 irreducible representations

     Representation     1      1 modes -  To be done

     Representation     2      1 modes -  To be done

     Representation     3      1 modes -  To be done

     Representation     4      1 modes -  To be done

     Representation     5      1 modes -  To be done

     Representation     6      1 modes -  To be done



     Alpha used in Ewald sum =   2.3000
     PHONON       :   1m11.94s CPU   1m17.33s WALL

 initialize_ph ended


     Representation #   1 mode #   1

     Self-consistent Calculation

      iter #   1 total cpu time :    83.1 secs   av.it.:   6.8
      thresh= 1.000E-02 alpha_mix =  0.700 |ddv_scf|^2 =  6.894E-05

      iter #   2 total cpu time :    89.6 secs   av.it.:   9.3
      thresh= 8.303E-04 alpha_mix =  0.700 |ddv_scf|^2 =  4.216E-04

      iter #   3 total cpu time :    96.0 secs   av.it.:   7.9
      thresh= 2.053E-03 alpha_mix =  0.700 |ddv_scf|^2 =  1.621E-08

      iter #   4 total cpu time :   103.3 secs   av.it.:  10.9
      thresh= 1.273E-05 alpha_mix =  0.700 |ddv_scf|^2 =  6.444E-09

      iter #   5 total cpu time :   110.1 secs   av.it.:  10.2
      thresh= 8.027E-06 alpha_mix =  0.700 |ddv_scf|^2 =  1.921E-10

      iter #   6 total cpu time :   116.6 secs   av.it.:   9.6
      thresh= 1.386E-06 alpha_mix =  0.700 |ddv_scf|^2 =  3.632E-12

      iter #   7 total cpu time :   123.0 secs   av.it.:   9.5
      thresh= 1.906E-07 alpha_mix =  0.700 |ddv_scf|^2 =  5.289E-12

      iter #   8 total cpu time :   129.6 secs   av.it.:   8.4
      thresh= 2.300E-07 alpha_mix =  0.700 |ddv_scf|^2 =  1.610E-13

     End of self-consistent calculation

     Convergence has been achieved 


     Representation #   2 mode #   2

     Self-consistent Calculation

      iter #   1 total cpu time :   136.5 secs   av.it.:   6.8
      thresh= 1.000E-02 alpha_mix =  0.700 |ddv_scf|^2 =  6.894E-05

      iter #   2 total cpu time :   144.4 secs   av.it.:   9.3
      thresh= 8.303E-04 alpha_mix =  0.700 |ddv_scf|^2 =  4.216E-04

      iter #   3 total cpu time :   151.7 secs   av.it.:   7.9
      thresh= 2.053E-03 alpha_mix =  0.700 |ddv_scf|^2 =  1.621E-08

      iter #   4 total cpu time :   160.6 secs   av.it.:  10.9
      thresh= 1.273E-05 alpha_mix =  0.700 |ddv_scf|^2 =  6.444E-09

      iter #   5 total cpu time :   168.1 secs   av.it.:  10.2
      thresh= 8.027E-06 alpha_mix =  0.700 |ddv_scf|^2 =  1.921E-10

      iter #   6 total cpu time :   175.4 secs   av.it.:   9.6
      thresh= 1.386E-06 alpha_mix =  0.700 |ddv_scf|^2 =  3.632E-12

      iter #   7 total cpu time :   181.9 secs   av.it.:   9.5
      thresh= 1.906E-07 alpha_mix =  0.700 |ddv_scf|^2 =  5.289E-12

      iter #   8 total cpu time :   188.0 secs   av.it.:   8.4
      thresh= 2.300E-07 alpha_mix =  0.700 |ddv_scf|^2 =  1.610E-13

     End of self-consistent calculation

     Convergence has been achieved 


     Representation #   3 mode #   3

     Self-consistent Calculation

      iter #   1 total cpu time :   193.8 secs   av.it.:   6.5
      thresh= 1.000E-02 alpha_mix =  0.700 |ddv_scf|^2 =  1.339E-07

      iter #   2 total cpu time :   200.8 secs   av.it.:  10.8
      thresh= 3.660E-05 alpha_mix =  0.700 |ddv_scf|^2 =  8.241E-10

      iter #   3 total cpu time :   208.3 secs   av.it.:  10.4
      thresh= 2.871E-06 alpha_mix =  0.700 |ddv_scf|^2 =  6.133E-11

      iter #   4 total cpu time :   215.4 secs   av.it.:  10.7
      thresh= 7.831E-07 alpha_mix =  0.700 |ddv_scf|^2 =  2.942E-13

     End of self-consistent calculation

     Convergence has been achieved 


     Representation #   4 mode #   4

     Self-consistent Calculation

      iter #   1 total cpu time :   221.1 secs   av.it.:   6.5
      thresh= 1.000E-02 alpha_mix =  0.700 |ddv_scf|^2 =  1.339E-07

      iter #   2 total cpu time :   228.5 secs   av.it.:  10.8
      thresh= 3.660E-05 alpha_mix =  0.700 |ddv_scf|^2 =  8.241E-10

      iter #   3 total cpu time :   235.7 secs   av.it.:  10.4
      thresh= 2.871E-06 alpha_mix =  0.700 |ddv_scf|^2 =  6.133E-11

      iter #   4 total cpu time :   242.8 secs   av.it.:  10.7
      thresh= 7.831E-07 alpha_mix =  0.700 |ddv_scf|^2 =  2.942E-13

     End of self-consistent calculation

     Convergence has been achieved 


     Representation #   5 mode #   5

     Self-consistent Calculation

      iter #   1 total cpu time :   248.7 secs   av.it.:   6.7
      thresh= 1.000E-02 alpha_mix =  0.700 |ddv_scf|^2 =  7.323E-06

      iter #   2 total cpu time :   255.6 secs   av.it.:   9.8
      thresh= 2.706E-04 alpha_mix =  0.700 |ddv_scf|^2 =  2.524E-06

      iter #   3 total cpu time :   262.2 secs   av.it.:   9.3
      thresh= 1.589E-04 alpha_mix =  0.700 |ddv_scf|^2 =  5.023E-10

      iter #   4 total cpu time :   269.2 secs   av.it.:  10.0
      thresh= 2.241E-06 alpha_mix =  0.700 |ddv_scf|^2 =  2.504E-11

      iter #   5 total cpu time :   276.4 secs   av.it.:   9.6
      thresh= 5.004E-07 alpha_mix =  0.700 |ddv_scf|^2 =  3.582E-13

     End of self-consistent calculation

     Convergence has been achieved 


     Representation #   6 mode #   6

     Self-consistent Calculation

      iter #   1 total cpu time :   282.3 secs   av.it.:   6.7
      thresh= 1.000E-02 alpha_mix =  0.700 |ddv_scf|^2 =  7.323E-06

      iter #   2 total cpu time :   289.4 secs   av.it.:   9.8
      thresh= 2.706E-04 alpha_mix =  0.700 |ddv_scf|^2 =  2.524E-06

      iter #   3 total cpu time :   295.8 secs   av.it.:   9.3
      thresh= 1.589E-04 alpha_mix =  0.700 |ddv_scf|^2 =  5.023E-10

      iter #   4 total cpu time :   302.6 secs   av.it.:  10.0
      thresh= 2.241E-06 alpha_mix =  0.700 |ddv_scf|^2 =  2.504E-11

      iter #   5 total cpu time :   309.0 secs   av.it.:   9.6
      thresh= 5.004E-07 alpha_mix =  0.700 |ddv_scf|^2 =  3.582E-13

     End of self-consistent calculation

     Convergence has been achieved 

     Number of q in the star =    6
     List of q in the star:
          1   0.000000000   0.192450090   0.000000000
          2   0.000000000  -0.192450090   0.000000000
          3  -0.166666667   0.096225045   0.000000000
          4  -0.166666667  -0.096225045   0.000000000
          5   0.166666667  -0.096225045   0.000000000
          6   0.166666667   0.096225045   0.000000000

     Diagonalizing the dynamical matrix

     q = (    0.000000000   0.192450090   0.000000000 ) 

 **************************************************************************
     freq (    1) =       2.286157 [THz] =      76.257983 [cm-1]
     freq (    2) =      10.150387 [THz] =     338.580475 [cm-1]
     freq (    3) =      16.648616 [THz] =     555.338070 [cm-1]
     freq (    4) =      25.607862 [THz] =     854.186339 [cm-1]
     freq (    5) =      46.512085 [THz] =    1551.476162 [cm-1]
     freq (    6) =      49.154075 [THz] =    1639.603444 [cm-1]
 **************************************************************************

     Mode symmetry, C_2v (mm2)  point group:

     freq (   1-   1) =         76.3  [cm-1]   --> B_2  D_4  S_4      
     freq (   2-   2) =        338.6  [cm-1]   --> B_1  D_3  S_3      
     freq (   3-   3) =        555.3  [cm-1]   --> A_1  D_1  S_1      
     freq (   4-   4) =        854.2  [cm-1]   --> B_2  D_4  S_4      
     freq (   5-   5) =       1551.5  [cm-1]   --> B_1  D_3  S_3      
     freq (   6-   6) =       1639.6  [cm-1]   --> A_1  D_1  S_1      

     Number of q in the star =    6
     List of q in the star:
          1   0.000000000   0.192450090   0.000000000
          2   0.000000000  -0.192450090   0.000000000
          3  -0.166666667   0.096225045   0.000000000
          4  -0.166666667  -0.096225045   0.000000000
          5   0.166666667  -0.096225045   0.000000000
          6   0.166666667   0.096225045   0.000000000
       Writing drho for q = (  0.000000  0.192450  0.000000) on file "dvscf.0_1o6_0"
       Writing drho for q = (  0.000000 -0.192450  0.000000) on file "dvscf.0_-1o6_0"
       Writing drho for q = ( -0.166667  0.096225  0.000000) on file "dvscf.-1o6_1o6_0"
       Writing drho for q = ( -0.166667 -0.096225  0.000000) on file "dvscf.-1o6_0_0"
       Writing drho for q = (  0.166667 -0.096225  0.000000) on file "dvscf.1o6_-1o6_0"
       Writing drho for q = (  0.166667  0.096225  0.000000) on file "dvscf.1o6_0_0"

     Calculation of q =    0.0000000   0.3849002   0.0000000

     G-vector sticks info
     --------------------
     sticks:   dense  smooth     PW     G-vecs:    dense   smooth      PW
     Sum         313     313    121                28981    28981    6163

     Using Slab Decomposition


     Title: 
     PH of graphene                                                             


     bravais-lattice index     =            4
     lattice parameter (alat)  =       4.6463  a.u.
     unit-cell volume          =     529.8869 (a.u.)^3
     number of atoms/cell      =            2
     number of atomic types    =            1
     number of electrons       =         8.00
     number of Kohn-Sham states=            8
     kinetic-energy cutoff     =      55.0000  Ry
     charge density cutoff     =     220.0000  Ry
     Exchange-correlation= PBE
                           (   1   4   3   4   0   0   0)

     celldm(1)=   4.646303  celldm(2)=   0.000000  celldm(3)=   6.100000
     celldm(4)=   0.000000  celldm(5)=   0.000000  celldm(6)=   0.000000

     crystal axes: (cart. coord. in units of alat)
               a(1) = (   1.000000   0.000000   0.000000 )  
               a(2) = (  -0.500000   0.866025   0.000000 )  
               a(3) = (   0.000000   0.000000   6.100000 )  

     reciprocal axes: (cart. coord. in units 2 pi/alat)
               b(1) = (  1.000000  0.577350 -0.000000 )  
               b(2) = (  0.000000  1.154701  0.000000 )  
               b(3) = (  0.000000 -0.000000  0.163934 )  


     PseudoPot. # 1 for C  read from file:
     /home/babby/epiq_tutorial_test//tutorials/graphene/pseudo/C.UPF
     MD5 check sum: 34a24e64c0a39f27c6c36b90a16ac686
     Pseudo is Norm-conserving + core correction, Zval =  4.0
     Generated using ONCVPSP code by D. R. Hamann
     Using radial grid of 1248 points,  4 beta functions with: 
                l(1) =   0
                l(2) =   0
                l(3) =   1
                l(4) =   1

     atomic species   valence    mass     pseudopotential
        C              4.00    12.01000     C ( 1.00)

     24 Sym. Ops., with inversion, found



   Cartesian axes

     site n.     atom                  positions (alat units)
         1           C   tau(   1) = (   0.0000000   0.0000000   3.0500000  )
         2           C   tau(   2) = (  -0.0000000   0.5773503   3.0500000  )

     number of k points=   794  Methfessel-Paxton smearing, width (Ry)=  0.0250

     Number of k-points >= 100: set verbosity='high' to print them.

     Dense  grid:    28981 G-vectors     FFT dimensions: (  24,  24, 135)

     Estimated max dynamical RAM per process >      14.59 MB

     Estimated total dynamical RAM >     116.75 MB

     The potential is recalculated from file :
     /home/babby/epiq_tutorial_test//tutorials/graphene/results/ph/_ph0/graphene.q_3/graphene.save/charge-density

     Starting wfcs are    8 atomic wfcs

     Band Structure Calculation
     Davidson diagonalization with overlap

     ethr =  1.25E-10,  avg # of iterations = 25.2

     total cpu time spent up to now is       71.4 secs

     End of band structure calculation

     Number of k-points >= 100: set verbosity='high' to print the bands.

     the Fermi energy is    -1.6714 ev

     Writing config to output data dir /home/babby/epiq_tutorial_test//tutorials/graphene/results/ph/_ph0/graphene.q_3/graphene.save/
 initialize_ph

     PH of graphene                                                             

     bravais-lattice index     =            4
     lattice parameter (alat)  =       4.6463  a.u.
     unit-cell volume          =     529.8869 (a.u.)^3
     number of atoms/cell      =            2
     number of atomic types    =            1
     kinetic-energy cut-off    =      55.0000  Ry
     charge density cut-off    =     220.0000  Ry
     convergence threshold     =      1.0E-12
     beta                      =       0.7000
     number of iterations used =            4
     Exchange-correlation= PBE
                           (   1   4   3   4   0   0   0)


     celldm(1)=    4.64630  celldm(2)=    0.00000  celldm(3)=    6.10000
     celldm(4)=    0.00000  celldm(5)=    0.00000  celldm(6)=    0.00000

     crystal axes: (cart. coord. in units of alat)
               a(1) = (  1.0000  0.0000  0.0000 )  
               a(2) = ( -0.5000  0.8660  0.0000 )  
               a(3) = (  0.0000  0.0000  6.1000 )  

     reciprocal axes: (cart. coord. in units 2 pi/alat)
               b(1) = (  1.0000  0.5774 -0.0000 )  
               b(2) = (  0.0000  1.1547  0.0000 )  
               b(3) = (  0.0000 -0.0000  0.1639 )  


     Atoms inside the unit cell: 

     Cartesian axes

     site n.  atom      mass           positions (alat units)
        1     C   12.0100   tau(    1) = (    0.00000    0.00000    3.05000  )
        2     C   12.0100   tau(    2) = (   -0.00000    0.57735    3.05000  )

     Computing dynamical matrix for 
                    q = (   0.0000000   0.3849002   0.0000000 )

      4 Sym.Ops. (no q -> -q+G )


     G cutoff =  120.3034  (  28981 G-vectors)     FFT grid: ( 24, 24,135)

     number of k points=   794  Methfessel-Paxton smearing, width (Ry)=  0.0250

     PseudoPot. # 1 for C  read from file:
     /home/babby/epiq_tutorial_test//tutorials/graphene/pseudo/C.UPF
     MD5 check sum: 34a24e64c0a39f27c6c36b90a16ac686
     Pseudo is Norm-conserving + core correction, Zval =  4.0
     Generated using ONCVPSP code by D. R. Hamann
     Using radial grid of 1248 points,  4 beta functions with: 
                l(1) =   0
                l(2) =   0
                l(3) =   1
                l(4) =   1

     Mode symmetry, C_2v (mm2)  point group:


     Atomic displacements:
     There are    6 irreducible representations

     Representation     1      1 modes -  To be done

     Representation     2      1 modes -  To be done

     Representation     3      1 modes -  To be done

     Representation     4      1 modes -  To be done

     Representation     5      1 modes -  To be done

     Representation     6      1 modes -  To be done



     Alpha used in Ewald sum =   2.3000
     PHONON       :   5m21.81s CPU   5m47.82s WALL

 initialize_ph ended


     Representation #   1 mode #   1

     Self-consistent Calculation

      iter #   1 total cpu time :   353.4 secs   av.it.:   6.8
      thresh= 1.000E-02 alpha_mix =  0.700 |ddv_scf|^2 =  1.399E-05

      iter #   2 total cpu time :   360.9 secs   av.it.:  10.5
      thresh= 3.741E-04 alpha_mix =  0.700 |ddv_scf|^2 =  3.647E-05

      iter #   3 total cpu time :   367.4 secs   av.it.:   9.2
      thresh= 6.039E-04 alpha_mix =  0.700 |ddv_scf|^2 =  6.681E-08

      iter #   4 total cpu time :   374.6 secs   av.it.:  10.5
      thresh= 2.585E-05 alpha_mix =  0.700 |ddv_scf|^2 =  2.819E-09

      iter #   5 total cpu time :   382.2 secs   av.it.:  10.6
      thresh= 5.310E-06 alpha_mix =  0.700 |ddv_scf|^2 =  3.728E-11

      iter #   6 total cpu time :   389.4 secs   av.it.:  10.6
      thresh= 6.106E-07 alpha_mix =  0.700 |ddv_scf|^2 =  3.101E-13

     End of self-consistent calculation

     Convergence has been achieved 


     Representation #   2 mode #   2

     Self-consistent Calculation

      iter #   1 total cpu time :   395.4 secs   av.it.:   6.8
      thresh= 1.000E-02 alpha_mix =  0.700 |ddv_scf|^2 =  1.399E-05

      iter #   2 total cpu time :   402.6 secs   av.it.:  10.5
      thresh= 3.741E-04 alpha_mix =  0.700 |ddv_scf|^2 =  3.647E-05

      iter #   3 total cpu time :   409.2 secs   av.it.:   9.2
      thresh= 6.039E-04 alpha_mix =  0.700 |ddv_scf|^2 =  6.681E-08

      iter #   4 total cpu time :   417.3 secs   av.it.:  10.5
      thresh= 2.585E-05 alpha_mix =  0.700 |ddv_scf|^2 =  2.819E-09

      iter #   5 total cpu time :   425.1 secs   av.it.:  10.6
      thresh= 5.310E-06 alpha_mix =  0.700 |ddv_scf|^2 =  3.728E-11

      iter #   6 total cpu time :   432.7 secs   av.it.:  10.6
      thresh= 6.106E-07 alpha_mix =  0.700 |ddv_scf|^2 =  3.101E-13

     End of self-consistent calculation

     Convergence has been achieved 


     Representation #   3 mode #   3

     Self-consistent Calculation

      iter #   1 total cpu time :   438.4 secs   av.it.:   6.5
      thresh= 1.000E-02 alpha_mix =  0.700 |ddv_scf|^2 =  1.995E-07

      iter #   2 total cpu time :   445.6 secs   av.it.:  10.9
      thresh= 4.467E-05 alpha_mix =  0.700 |ddv_scf|^2 =  1.305E-09

      iter #   3 total cpu time :   452.7 secs   av.it.:  10.8
      thresh= 3.613E-06 alpha_mix =  0.700 |ddv_scf|^2 =  7.561E-11

      iter #   4 total cpu time :   459.7 secs   av.it.:  10.8
      thresh= 8.695E-07 alpha_mix =  0.700 |ddv_scf|^2 =  2.110E-13

     End of self-consistent calculation

     Convergence has been achieved 


     Representation #   4 mode #   4

     Self-consistent Calculation

      iter #   1 total cpu time :   465.2 secs   av.it.:   6.5
      thresh= 1.000E-02 alpha_mix =  0.700 |ddv_scf|^2 =  1.995E-07

      iter #   2 total cpu time :   472.4 secs   av.it.:  10.9
      thresh= 4.467E-05 alpha_mix =  0.700 |ddv_scf|^2 =  1.305E-09

      iter #   3 total cpu time :   479.9 secs   av.it.:  10.8
      thresh= 3.613E-06 alpha_mix =  0.700 |ddv_scf|^2 =  7.561E-11

      iter #   4 total cpu time :   487.7 secs   av.it.:  10.8
      thresh= 8.695E-07 alpha_mix =  0.700 |ddv_scf|^2 =  2.110E-13

     End of self-consistent calculation

     Convergence has been achieved 


     Representation #   5 mode #   5

     Self-consistent Calculation

      iter #   1 total cpu time :   493.5 secs   av.it.:   6.6
      thresh= 1.000E-02 alpha_mix =  0.700 |ddv_scf|^2 =  9.818E-07

      iter #   2 total cpu time :   501.4 secs   av.it.:  10.6
      thresh= 9.908E-05 alpha_mix =  0.700 |ddv_scf|^2 =  6.089E-08

      iter #   3 total cpu time :   509.1 secs   av.it.:  10.4
      thresh= 2.467E-05 alpha_mix =  0.700 |ddv_scf|^2 =  2.186E-10

      iter #   4 total cpu time :   516.4 secs   av.it.:  10.7
      thresh= 1.479E-06 alpha_mix =  0.700 |ddv_scf|^2 =  5.452E-12

      iter #   5 total cpu time :   523.9 secs   av.it.:  10.6
      thresh= 2.335E-07 alpha_mix =  0.700 |ddv_scf|^2 =  9.425E-14

     End of self-consistent calculation

     Convergence has been achieved 


     Representation #   6 mode #   6

     Self-consistent Calculation

      iter #   1 total cpu time :   529.7 secs   av.it.:   6.6
      thresh= 1.000E-02 alpha_mix =  0.700 |ddv_scf|^2 =  9.818E-07

      iter #   2 total cpu time :   537.3 secs   av.it.:  10.6
      thresh= 9.908E-05 alpha_mix =  0.700 |ddv_scf|^2 =  6.089E-08

      iter #   3 total cpu time :   544.5 secs   av.it.:  10.4
      thresh= 2.467E-05 alpha_mix =  0.700 |ddv_scf|^2 =  2.186E-10

      iter #   4 total cpu time :   551.8 secs   av.it.:  10.7
      thresh= 1.479E-06 alpha_mix =  0.700 |ddv_scf|^2 =  5.452E-12

      iter #   5 total cpu time :   559.1 secs   av.it.:  10.6
      thresh= 2.335E-07 alpha_mix =  0.700 |ddv_scf|^2 =  9.425E-14

     End of self-consistent calculation

     Convergence has been achieved 

     Number of q in the star =    6
     List of q in the star:
          1   0.000000000   0.384900179   0.000000000
          2   0.000000000  -0.384900179   0.000000000
          3  -0.333333333   0.192450090   0.000000000
          4  -0.333333333  -0.192450090   0.000000000
          5   0.333333333  -0.192450090   0.000000000
          6   0.333333333   0.192450090   0.000000000

     Diagonalizing the dynamical matrix

     q = (    0.000000000   0.384900179   0.000000000 ) 

 **************************************************************************
     freq (    1) =       8.045793 [THz] =     268.378778 [cm-1]
     freq (    2) =      16.695122 [THz] =     556.889330 [cm-1]
     freq (    3) =      23.001956 [THz] =     767.262666 [cm-1]
     freq (    4) =      30.616732 [THz] =    1021.264250 [cm-1]
     freq (    5) =      44.042607 [THz] =    1469.103220 [cm-1]
     freq (    6) =      47.020391 [THz] =    1568.431402 [cm-1]
 **************************************************************************

     Mode symmetry, C_2v (mm2)  point group:

     freq (   1-   1) =        268.4  [cm-1]   --> B_2  D_4  S_4      
     freq (   2-   2) =        556.9  [cm-1]   --> B_1  D_3  S_3      
     freq (   3-   3) =        767.3  [cm-1]   --> B_2  D_4  S_4      
     freq (   4-   4) =       1021.3  [cm-1]   --> A_1  D_1  S_1      
     freq (   5-   5) =       1469.1  [cm-1]   --> B_1  D_3  S_3      
     freq (   6-   6) =       1568.4  [cm-1]   --> A_1  D_1  S_1      

     Number of q in the star =    6
     List of q in the star:
          1   0.000000000   0.384900179   0.000000000
          2   0.000000000  -0.384900179   0.000000000
          3  -0.333333333   0.192450090   0.000000000
          4  -0.333333333  -0.192450090   0.000000000
          5   0.333333333  -0.192450090   0.000000000
          6   0.333333333   0.192450090   0.000000000
       Writing drho for q = (  0.000000  0.384900  0.000000) on file "dvscf.0_1o3_0"
       Writing drho for q = (  0.000000 -0.384900  0.000000) on file "dvscf.0_-1o3_0"
       Writing drho for q = ( -0.333333  0.192450  0.000000) on file "dvscf.-1o3_1o3_0"
       Writing drho for q = ( -0.333333 -0.192450  0.000000) on file "dvscf.-1o3_0_0"
       Writing drho for q = (  0.333333 -0.192450  0.000000) on file "dvscf.1o3_-1o3_0"
       Writing drho for q = (  0.333333  0.192450  0.000000) on file "dvscf.1o3_0_0"

     Calculation of q =    0.0000000  -0.5773503   0.0000000

     G-vector sticks info
     --------------------
     sticks:   dense  smooth     PW     G-vecs:    dense   smooth      PW
     Sum         313     313    121                28981    28981    6609

     Using Slab Decomposition


     Title: 
     PH of graphene                                                             


     bravais-lattice index     =            4
     lattice parameter (alat)  =       4.6463  a.u.
     unit-cell volume          =     529.8869 (a.u.)^3
     number of atoms/cell      =            2
     number of atomic types    =            1
     number of electrons       =         8.00
     number of Kohn-Sham states=            8
     kinetic-energy cutoff     =      55.0000  Ry
     charge density cutoff     =     220.0000  Ry
     Exchange-correlation= PBE
                           (   1   4   3   4   0   0   0)

     celldm(1)=   4.646303  celldm(2)=   0.000000  celldm(3)=   6.100000
     celldm(4)=   0.000000  celldm(5)=   0.000000  celldm(6)=   0.000000

     crystal axes: (cart. coord. in units of alat)
               a(1) = (   1.000000   0.000000   0.000000 )  
               a(2) = (  -0.500000   0.866025   0.000000 )  
               a(3) = (   0.000000   0.000000   6.100000 )  

     reciprocal axes: (cart. coord. in units 2 pi/alat)
               b(1) = (  1.000000  0.577350 -0.000000 )  
               b(2) = (  0.000000  1.154701  0.000000 )  
               b(3) = (  0.000000 -0.000000  0.163934 )  


     PseudoPot. # 1 for C  read from file:
     /home/babby/epiq_tutorial_test//tutorials/graphene/pseudo/C.UPF
     MD5 check sum: 34a24e64c0a39f27c6c36b90a16ac686
     Pseudo is Norm-conserving + core correction, Zval =  4.0
     Generated using ONCVPSP code by D. R. Hamann
     Using radial grid of 1248 points,  4 beta functions with: 
                l(1) =   0
                l(2) =   0
                l(3) =   1
                l(4) =   1

     atomic species   valence    mass     pseudopotential
        C              4.00    12.01000     C ( 1.00)

     24 Sym. Ops., with inversion, found



   Cartesian axes

     site n.     atom                  positions (alat units)
         1           C   tau(   1) = (   0.0000000   0.0000000   3.0500000  )
         2           C   tau(   2) = (  -0.0000000   0.5773503   3.0500000  )

     number of k points=   420  Methfessel-Paxton smearing, width (Ry)=  0.0250

     Number of k-points >= 100: set verbosity='high' to print them.

     Dense  grid:    28981 G-vectors     FFT dimensions: (  24,  24, 135)

     Estimated max dynamical RAM per process >      14.60 MB

     Estimated total dynamical RAM >     116.79 MB

     The potential is recalculated from file :
     /home/babby/epiq_tutorial_test//tutorials/graphene/results/ph/_ph0/graphene.q_4/graphene.save/charge-density

     Starting wfcs are    8 atomic wfcs

     Band Structure Calculation
     Davidson diagonalization with overlap

     ethr =  1.25E-10,  avg # of iterations = 24.6

     total cpu time spent up to now is       92.3 secs

     End of band structure calculation

     Number of k-points >= 100: set verbosity='high' to print the bands.

     the Fermi energy is    -1.6714 ev

     Writing config to output data dir /home/babby/epiq_tutorial_test//tutorials/graphene/results/ph/_ph0/graphene.q_4/graphene.save/
 initialize_ph

     PH of graphene                                                             

     bravais-lattice index     =            4
     lattice parameter (alat)  =       4.6463  a.u.
     unit-cell volume          =     529.8869 (a.u.)^3
     number of atoms/cell      =            2
     number of atomic types    =            1
     kinetic-energy cut-off    =      55.0000  Ry
     charge density cut-off    =     220.0000  Ry
     convergence threshold     =      1.0E-12
     beta                      =       0.7000
     number of iterations used =            4
     Exchange-correlation= PBE
                           (   1   4   3   4   0   0   0)


     celldm(1)=    4.64630  celldm(2)=    0.00000  celldm(3)=    6.10000
     celldm(4)=    0.00000  celldm(5)=    0.00000  celldm(6)=    0.00000

     crystal axes: (cart. coord. in units of alat)
               a(1) = (  1.0000  0.0000  0.0000 )  
               a(2) = ( -0.5000  0.8660  0.0000 )  
               a(3) = (  0.0000  0.0000  6.1000 )  

     reciprocal axes: (cart. coord. in units 2 pi/alat)
               b(1) = (  1.0000  0.5774 -0.0000 )  
               b(2) = (  0.0000  1.1547  0.0000 )  
               b(3) = (  0.0000 -0.0000  0.1639 )  


     Atoms inside the unit cell: 

     Cartesian axes

     site n.  atom      mass           positions (alat units)
        1     C   12.0100   tau(    1) = (    0.00000    0.00000    3.05000  )
        2     C   12.0100   tau(    2) = (   -0.00000    0.57735    3.05000  )

     Computing dynamical matrix for 
                    q = (   0.0000000  -0.5773503   0.0000000 )

      9 Sym.Ops. (with q -> -q+G )


     G cutoff =  120.3034  (  28981 G-vectors)     FFT grid: ( 24, 24,135)

     number of k points=   420  Methfessel-Paxton smearing, width (Ry)=  0.0250

     PseudoPot. # 1 for C  read from file:
     /home/babby/epiq_tutorial_test//tutorials/graphene/pseudo/C.UPF
     MD5 check sum: 34a24e64c0a39f27c6c36b90a16ac686
     Pseudo is Norm-conserving + core correction, Zval =  4.0
     Generated using ONCVPSP code by D. R. Hamann
     Using radial grid of 1248 points,  4 beta functions with: 
                l(1) =   0
                l(2) =   0
                l(3) =   1
                l(4) =   1


     Atomic displacements:
     There are    6 irreducible representations

     Representation     1      1 modes -  To be done

     Representation     2      1 modes -  To be done

     Representation     3      1 modes -  To be done

     Representation     4      1 modes -  To be done

     Representation     5      1 modes -  To be done

     Representation     6      1 modes -  To be done



     Alpha used in Ewald sum =   2.3000
     PHONON       :   9m 0.05s CPU   9m41.69s WALL

 initialize_ph ended


     Representation #   1 mode #   1

     Self-consistent Calculation

      iter #   1 total cpu time :   584.9 secs   av.it.:   6.6
      thresh= 1.000E-02 alpha_mix =  0.700 |ddv_scf|^2 =  7.912E-06

      iter #   2 total cpu time :   588.7 secs   av.it.:  10.6
      thresh= 2.813E-04 alpha_mix =  0.700 |ddv_scf|^2 =  6.981E-06

      iter #   3 total cpu time :   592.5 secs   av.it.:   9.9
      thresh= 2.642E-04 alpha_mix =  0.700 |ddv_scf|^2 =  2.302E-08

      iter #   4 total cpu time :   596.2 secs   av.it.:  10.2
      thresh= 1.517E-05 alpha_mix =  0.700 |ddv_scf|^2 =  4.433E-11

      iter #   5 total cpu time :   600.3 secs   av.it.:  10.6
      thresh= 6.658E-07 alpha_mix =  0.700 |ddv_scf|^2 =  2.130E-13

     End of self-consistent calculation

     Convergence has been achieved 


     Representation #   2 mode #   2

     Self-consistent Calculation

      iter #   1 total cpu time :   603.5 secs   av.it.:   6.2
      thresh= 1.000E-02 alpha_mix =  0.700 |ddv_scf|^2 =  5.523E-07

      iter #   2 total cpu time :   607.4 secs   av.it.:  10.6
      thresh= 7.432E-05 alpha_mix =  0.700 |ddv_scf|^2 =  9.028E-09

      iter #   3 total cpu time :   612.0 secs   av.it.:  10.6
      thresh= 9.502E-06 alpha_mix =  0.700 |ddv_scf|^2 =  1.668E-10

      iter #   4 total cpu time :   616.0 secs   av.it.:  10.6
      thresh= 1.292E-06 alpha_mix =  0.700 |ddv_scf|^2 =  6.482E-13

     End of self-consistent calculation

     Convergence has been achieved 


     Representation #   3 mode #   3

     Self-consistent Calculation

      iter #   1 total cpu time :   619.0 secs   av.it.:   6.0
      thresh= 1.000E-02 alpha_mix =  0.700 |ddv_scf|^2 =  1.633E-07

      iter #   2 total cpu time :   622.9 secs   av.it.:  10.5
      thresh= 4.042E-05 alpha_mix =  0.700 |ddv_scf|^2 =  8.252E-10

      iter #   3 total cpu time :   626.7 secs   av.it.:  10.1
      thresh= 2.873E-06 alpha_mix =  0.700 |ddv_scf|^2 =  7.717E-11

      iter #   4 total cpu time :   630.6 secs   av.it.:  10.4
      thresh= 8.785E-07 alpha_mix =  0.700 |ddv_scf|^2 =  2.985E-13

     End of self-consistent calculation

     Convergence has been achieved 


     Representation #   4 mode #   4

     Self-consistent Calculation

      iter #   1 total cpu time :   633.5 secs   av.it.:   5.5
      thresh= 1.000E-02 alpha_mix =  0.700 |ddv_scf|^2 =  6.387E-09

      iter #   2 total cpu time :   637.9 secs   av.it.:  10.4
      thresh= 7.992E-06 alpha_mix =  0.700 |ddv_scf|^2 =  5.588E-10

      iter #   3 total cpu time :   641.7 secs   av.it.:  10.2
      thresh= 2.364E-06 alpha_mix =  0.700 |ddv_scf|^2 =  1.222E-12

      iter #   4 total cpu time :   645.6 secs   av.it.:  10.2
      thresh= 1.106E-07 alpha_mix =  0.700 |ddv_scf|^2 =  1.257E-14

     End of self-consistent calculation

     Convergence has been achieved 


     Representation #   5 mode #   5

     Self-consistent Calculation

      iter #   1 total cpu time :   648.9 secs   av.it.:   6.5
      thresh= 1.000E-02 alpha_mix =  0.700 |ddv_scf|^2 =  3.961E-06

      iter #   2 total cpu time :   652.9 secs   av.it.:  10.5
      thresh= 1.990E-04 alpha_mix =  0.700 |ddv_scf|^2 =  5.974E-06

      iter #   3 total cpu time :   656.6 secs   av.it.:   9.7
      thresh= 2.444E-04 alpha_mix =  0.700 |ddv_scf|^2 =  9.919E-10

      iter #   4 total cpu time :   660.5 secs   av.it.:  10.2
      thresh= 3.150E-06 alpha_mix =  0.700 |ddv_scf|^2 =  5.918E-12

      iter #   5 total cpu time :   664.3 secs   av.it.:  10.4
      thresh= 2.433E-07 alpha_mix =  0.700 |ddv_scf|^2 =  2.580E-13

     End of self-consistent calculation

     Convergence has been achieved 


     Representation #   6 mode #   6

     Self-consistent Calculation

      iter #   1 total cpu time :   667.4 secs   av.it.:   6.3
      thresh= 1.000E-02 alpha_mix =  0.700 |ddv_scf|^2 =  4.627E-07

      iter #   2 total cpu time :   671.2 secs   av.it.:  10.5
      thresh= 6.802E-05 alpha_mix =  0.700 |ddv_scf|^2 =  3.270E-09

      iter #   3 total cpu time :   675.0 secs   av.it.:  10.5
      thresh= 5.718E-06 alpha_mix =  0.700 |ddv_scf|^2 =  9.164E-11

      iter #   4 total cpu time :   678.8 secs   av.it.:  10.4
      thresh= 9.573E-07 alpha_mix =  0.700 |ddv_scf|^2 =  1.374E-13

     End of self-consistent calculation

     Convergence has been achieved 

     Number of q in the star =    3
     List of q in the star:
          1   0.000000000  -0.577350269   0.000000000
          2  -0.500000000   0.288675135   0.000000000
          3   0.500000000   0.288675135   0.000000000

     Diagonalizing the dynamical matrix

     q = (    0.000000000  -0.577350269   0.000000000 ) 

 **************************************************************************
     freq (    1) =      14.085970 [THz] =     469.857371 [cm-1]
     freq (    2) =      18.783950 [THz] =     626.565129 [cm-1]
     freq (    3) =      18.862380 [THz] =     629.181273 [cm-1]
     freq (    4) =      40.535158 [THz] =    1352.107316 [cm-1]
     freq (    5) =      41.284661 [THz] =    1377.108058 [cm-1]
     freq (    6) =      43.053310 [THz] =    1436.103852 [cm-1]
 **************************************************************************

     Number of q in the star =    3
     List of q in the star:
          1   0.000000000  -0.577350269   0.000000000
          2  -0.500000000   0.288675135   0.000000000
          3   0.500000000   0.288675135   0.000000000
       Writing drho for q = (  0.000000 -0.577350  0.000000) on file "dvscf.0_-1o2_0"
       Writing drho for q = ( -0.500000  0.288675  0.000000) on file "dvscf.-1o2_1o2_0"
       Writing drho for q = (  0.500000  0.288675  0.000000) on file "dvscf.1o2_0_0"

     Calculation of q =    0.1666667   0.2886751   0.0000000

     G-vector sticks info
     --------------------
     sticks:   dense  smooth     PW     G-vecs:    dense   smooth      PW
     Sum         313     313    121                28981    28981    6019

     Using Slab Decomposition


     Title: 
     PH of graphene                                                             


     bravais-lattice index     =            4
     lattice parameter (alat)  =       4.6463  a.u.
     unit-cell volume          =     529.8869 (a.u.)^3
     number of atoms/cell      =            2
     number of atomic types    =            1
     number of electrons       =         8.00
     number of Kohn-Sham states=            8
     kinetic-energy cutoff     =      55.0000  Ry
     charge density cutoff     =     220.0000  Ry
     Exchange-correlation= PBE
                           (   1   4   3   4   0   0   0)

     celldm(1)=   4.646303  celldm(2)=   0.000000  celldm(3)=   6.100000
     celldm(4)=   0.000000  celldm(5)=   0.000000  celldm(6)=   0.000000

     crystal axes: (cart. coord. in units of alat)
               a(1) = (   1.000000   0.000000   0.000000 )  
               a(2) = (  -0.500000   0.866025   0.000000 )  
               a(3) = (   0.000000   0.000000   6.100000 )  

     reciprocal axes: (cart. coord. in units 2 pi/alat)
               b(1) = (  1.000000  0.577350 -0.000000 )  
               b(2) = (  0.000000  1.154701  0.000000 )  
               b(3) = (  0.000000 -0.000000  0.163934 )  


     PseudoPot. # 1 for C  read from file:
     /home/babby/epiq_tutorial_test//tutorials/graphene/pseudo/C.UPF
     MD5 check sum: 34a24e64c0a39f27c6c36b90a16ac686
     Pseudo is Norm-conserving + core correction, Zval =  4.0
     Generated using ONCVPSP code by D. R. Hamann
     Using radial grid of 1248 points,  4 beta functions with: 
                l(1) =   0
                l(2) =   0
                l(3) =   1
                l(4) =   1

     atomic species   valence    mass     pseudopotential
        C              4.00    12.01000     C ( 1.00)

     24 Sym. Ops., with inversion, found



   Cartesian axes

     site n.     atom                  positions (alat units)
         1           C   tau(   1) = (   0.0000000   0.0000000   3.0500000  )
         2           C   tau(   2) = (  -0.0000000   0.5773503   3.0500000  )

     number of k points=   840  Methfessel-Paxton smearing, width (Ry)=  0.0250

     Number of k-points >= 100: set verbosity='high' to print them.

     Dense  grid:    28981 G-vectors     FFT dimensions: (  24,  24, 135)

     Estimated max dynamical RAM per process >      14.59 MB

     Estimated total dynamical RAM >     116.73 MB

     The potential is recalculated from file :
     /home/babby/epiq_tutorial_test//tutorials/graphene/results/ph/_ph0/graphene.q_5/graphene.save/charge-density

     Starting wfcs are    8 atomic wfcs

     Band Structure Calculation
     Davidson diagonalization with overlap

     ethr =  1.25E-10,  avg # of iterations = 24.4

     total cpu time spent up to now is      130.8 secs

     End of band structure calculation

     Number of k-points >= 100: set verbosity='high' to print the bands.

     the Fermi energy is    -1.6714 ev

     Writing config to output data dir /home/babby/epiq_tutorial_test//tutorials/graphene/results/ph/_ph0/graphene.q_5/graphene.save/
 initialize_ph

     PH of graphene                                                             

     bravais-lattice index     =            4
     lattice parameter (alat)  =       4.6463  a.u.
     unit-cell volume          =     529.8869 (a.u.)^3
     number of atoms/cell      =            2
     number of atomic types    =            1
     kinetic-energy cut-off    =      55.0000  Ry
     charge density cut-off    =     220.0000  Ry
     convergence threshold     =      1.0E-12
     beta                      =       0.7000
     number of iterations used =            4
     Exchange-correlation= PBE
                           (   1   4   3   4   0   0   0)


     celldm(1)=    4.64630  celldm(2)=    0.00000  celldm(3)=    6.10000
     celldm(4)=    0.00000  celldm(5)=    0.00000  celldm(6)=    0.00000

     crystal axes: (cart. coord. in units of alat)
               a(1) = (  1.0000  0.0000  0.0000 )  
               a(2) = ( -0.5000  0.8660  0.0000 )  
               a(3) = (  0.0000  0.0000  6.1000 )  

     reciprocal axes: (cart. coord. in units 2 pi/alat)
               b(1) = (  1.0000  0.5774 -0.0000 )  
               b(2) = (  0.0000  1.1547  0.0000 )  
               b(3) = (  0.0000 -0.0000  0.1639 )  


     Atoms inside the unit cell: 

     Cartesian axes

     site n.  atom      mass           positions (alat units)
        1     C   12.0100   tau(    1) = (    0.00000    0.00000    3.05000  )
        2     C   12.0100   tau(    2) = (   -0.00000    0.57735    3.05000  )

     Computing dynamical matrix for 
                    q = (   0.1666667   0.2886751   0.0000000 )

      4 Sym.Ops. (no q -> -q+G )


     G cutoff =  120.3034  (  28981 G-vectors)     FFT grid: ( 24, 24,135)

     number of k points=   840  Methfessel-Paxton smearing, width (Ry)=  0.0250

     PseudoPot. # 1 for C  read from file:
     /home/babby/epiq_tutorial_test//tutorials/graphene/pseudo/C.UPF
     MD5 check sum: 34a24e64c0a39f27c6c36b90a16ac686
     Pseudo is Norm-conserving + core correction, Zval =  4.0
     Generated using ONCVPSP code by D. R. Hamann
     Using radial grid of 1248 points,  4 beta functions with: 
                l(1) =   0
                l(2) =   0
                l(3) =   1
                l(4) =   1

     Mode symmetry, C_2v (mm2)  point group:


     Atomic displacements:
     There are    6 irreducible representations

     Representation     1      1 modes -  To be done

     Representation     2      1 modes -  To be done

     Representation     3      1 modes -  To be done

     Representation     4      1 modes -  To be done

     Representation     5      1 modes -  To be done

     Representation     6      1 modes -  To be done



     Alpha used in Ewald sum =   2.3000
     PHONON       :  11m 9.49s CPU  11m59.26s WALL

 initialize_ph ended


     Representation #   1 mode #   1

     Self-consistent Calculation

      iter #   1 total cpu time :   725.4 secs   av.it.:   6.8
      thresh= 1.000E-02 alpha_mix =  0.700 |ddv_scf|^2 =  3.409E-05

      iter #   2 total cpu time :   732.6 secs   av.it.:   9.9
      thresh= 5.839E-04 alpha_mix =  0.700 |ddv_scf|^2 =  1.077E-04

      iter #   3 total cpu time :   739.2 secs   av.it.:   8.8
      thresh= 1.038E-03 alpha_mix =  0.700 |ddv_scf|^2 =  1.123E-08

      iter #   4 total cpu time :   746.5 secs   av.it.:  10.1
      thresh= 1.060E-05 alpha_mix =  0.700 |ddv_scf|^2 =  4.295E-10

      iter #   5 total cpu time :   754.0 secs   av.it.:   9.7
      thresh= 2.072E-06 alpha_mix =  0.700 |ddv_scf|^2 =  1.723E-12

      iter #   6 total cpu time :   761.5 secs   av.it.:  10.4
      thresh= 1.313E-07 alpha_mix =  0.700 |ddv_scf|^2 =  4.516E-14

     End of self-consistent calculation

     Convergence has been achieved 


     Representation #   2 mode #   2

     Self-consistent Calculation

      iter #   1 total cpu time :   768.1 secs   av.it.:   6.6
      thresh= 1.000E-02 alpha_mix =  0.700 |ddv_scf|^2 =  4.872E-06

      iter #   2 total cpu time :   775.6 secs   av.it.:  10.1
      thresh= 2.207E-04 alpha_mix =  0.700 |ddv_scf|^2 =  1.497E-05

      iter #   3 total cpu time :   782.4 secs   av.it.:   8.8
      thresh= 3.869E-04 alpha_mix =  0.700 |ddv_scf|^2 =  6.419E-09

      iter #   4 total cpu time :   790.0 secs   av.it.:  10.3
      thresh= 8.012E-06 alpha_mix =  0.700 |ddv_scf|^2 =  8.541E-11

      iter #   5 total cpu time :   798.3 secs   av.it.:  10.4
      thresh= 9.242E-07 alpha_mix =  0.700 |ddv_scf|^2 =  3.936E-12

      iter #   6 total cpu time :   806.0 secs   av.it.:  10.2
      thresh= 1.984E-07 alpha_mix =  0.700 |ddv_scf|^2 =  2.153E-14

     End of self-consistent calculation

     Convergence has been achieved 


     Representation #   3 mode #   3

     Self-consistent Calculation

      iter #   1 total cpu time :   811.8 secs   av.it.:   5.7
      thresh= 1.000E-02 alpha_mix =  0.700 |ddv_scf|^2 =  4.113E-08

      iter #   2 total cpu time :   819.3 secs   av.it.:  10.3
      thresh= 2.028E-05 alpha_mix =  0.700 |ddv_scf|^2 =  9.581E-10

      iter #   3 total cpu time :   826.6 secs   av.it.:   9.9
      thresh= 3.095E-06 alpha_mix =  0.700 |ddv_scf|^2 =  4.224E-11

      iter #   4 total cpu time :   833.9 secs   av.it.:  10.0
      thresh= 6.499E-07 alpha_mix =  0.700 |ddv_scf|^2 =  1.391E-13

     End of self-consistent calculation

     Convergence has been achieved 


     Representation #   4 mode #   4

     Self-consistent Calculation

      iter #   1 total cpu time :   839.8 secs   av.it.:   6.4
      thresh= 1.000E-02 alpha_mix =  0.700 |ddv_scf|^2 =  4.013E-07

      iter #   2 total cpu time :   847.2 secs   av.it.:  10.7
      thresh= 6.335E-05 alpha_mix =  0.700 |ddv_scf|^2 =  1.848E-07

      iter #   3 total cpu time :   854.6 secs   av.it.:  10.2
      thresh= 4.299E-05 alpha_mix =  0.700 |ddv_scf|^2 =  3.121E-09

      iter #   4 total cpu time :   861.8 secs   av.it.:  10.3
      thresh= 5.587E-06 alpha_mix =  0.700 |ddv_scf|^2 =  1.742E-11

      iter #   5 total cpu time :   869.6 secs   av.it.:  10.7
      thresh= 4.174E-07 alpha_mix =  0.700 |ddv_scf|^2 =  6.196E-14

     End of self-consistent calculation

     Convergence has been achieved 


     Representation #   5 mode #   5

     Self-consistent Calculation

      iter #   1 total cpu time :   875.6 secs   av.it.:   6.4
      thresh= 1.000E-02 alpha_mix =  0.700 |ddv_scf|^2 =  5.716E-07

      iter #   2 total cpu time :   883.2 secs   av.it.:  10.7
      thresh= 7.561E-05 alpha_mix =  0.700 |ddv_scf|^2 =  2.751E-07

      iter #   3 total cpu time :   890.5 secs   av.it.:  10.2
      thresh= 5.245E-05 alpha_mix =  0.700 |ddv_scf|^2 =  3.789E-09

      iter #   4 total cpu time :   898.0 secs   av.it.:  10.3
      thresh= 6.156E-06 alpha_mix =  0.700 |ddv_scf|^2 =  1.766E-11

      iter #   5 total cpu time :   905.6 secs   av.it.:  10.6
      thresh= 4.203E-07 alpha_mix =  0.700 |ddv_scf|^2 =  6.839E-14

     End of self-consistent calculation

     Convergence has been achieved 


     Representation #   6 mode #   6

     Self-consistent Calculation

      iter #   1 total cpu time :   911.6 secs   av.it.:   6.4
      thresh= 1.000E-02 alpha_mix =  0.700 |ddv_scf|^2 =  3.115E-06

      iter #   2 total cpu time :   919.2 secs   av.it.:  10.1
      thresh= 1.765E-04 alpha_mix =  0.700 |ddv_scf|^2 =  3.197E-07

      iter #   3 total cpu time :   926.6 secs   av.it.:  10.0
      thresh= 5.654E-05 alpha_mix =  0.700 |ddv_scf|^2 =  2.607E-10

      iter #   4 total cpu time :   934.2 secs   av.it.:  10.3
      thresh= 1.615E-06 alpha_mix =  0.700 |ddv_scf|^2 =  6.425E-12

      iter #   5 total cpu time :   941.3 secs   av.it.:   9.5
      thresh= 2.535E-07 alpha_mix =  0.700 |ddv_scf|^2 =  9.453E-14

     End of self-consistent calculation

     Convergence has been achieved 

     Number of q in the star =    6
     List of q in the star:
          1   0.166666667   0.288675135   0.000000000
          2   0.166666667  -0.288675135   0.000000000
          3  -0.166666667  -0.288675135   0.000000000
          4  -0.333333333   0.000000000   0.000000000
          5  -0.166666667   0.288675135   0.000000000
          6   0.333333333  -0.000000000   0.000000000

     Diagonalizing the dynamical matrix

     q = (    0.166666667   0.288675135   0.000000000 ) 

 **************************************************************************
     freq (    1) =       5.809464 [THz] =     193.782861 [cm-1]
     freq (    2) =      18.129159 [THz] =     604.723660 [cm-1]
     freq (    3) =      23.986302 [THz] =     800.096906 [cm-1]
     freq (    4) =      25.634710 [THz] =     855.081878 [cm-1]
     freq (    5) =      44.267327 [THz] =    1476.599081 [cm-1]
     freq (    6) =      47.753259 [THz] =    1592.877277 [cm-1]
 **************************************************************************

     Mode symmetry, C_2v (mm2)  point group:

     freq (   1-   1) =        193.8  [cm-1]   --> B_2  D_4  S_4      
     freq (   2-   2) =        604.7  [cm-1]   --> B_1  D_3  S_3      
     freq (   3-   3) =        800.1  [cm-1]   --> A_2  D_2  S_2      
     freq (   4-   4) =        855.1  [cm-1]   --> A_1  D_1  S_1      
     freq (   5-   5) =       1476.6  [cm-1]   --> A_1  D_1  S_1      
     freq (   6-   6) =       1592.9  [cm-1]   --> B_1  D_3  S_3      

     Number of q in the star =    6
     List of q in the star:
          1   0.166666667   0.288675135   0.000000000
          2   0.166666667  -0.288675135   0.000000000
          3  -0.166666667  -0.288675135   0.000000000
          4  -0.333333333   0.000000000   0.000000000
          5  -0.166666667   0.288675135   0.000000000
          6   0.333333333  -0.000000000   0.000000000
       Writing drho for q = (  0.166667  0.288675  0.000000) on file "dvscf.1o6_1o6_0"
       Writing drho for q = (  0.166667 -0.288675  0.000000) on file "dvscf.1o6_-1o3_0"
       Writing drho for q = ( -0.166667 -0.288675  0.000000) on file "dvscf.-1o6_-1o6_0"
       Writing drho for q = ( -0.333333  0.000000  0.000000) on file "dvscf.-1o3_1o6_0"
       Writing drho for q = ( -0.166667  0.288675  0.000000) on file "dvscf.-1o6_1o3_0"
       Writing drho for q = (  0.333333 -0.000000  0.000000) on file "dvscf.1o3_-1o6_0"

     Calculation of q =    0.1666667   0.4811252   0.0000000

     G-vector sticks info
     --------------------
     sticks:   dense  smooth     PW     G-vecs:    dense   smooth      PW
     Sum         313     313    121                28981    28981    6537

     Using Slab Decomposition


     Title: 
     PH of graphene                                                             


     bravais-lattice index     =            4
     lattice parameter (alat)  =       4.6463  a.u.
     unit-cell volume          =     529.8869 (a.u.)^3
     number of atoms/cell      =            2
     number of atomic types    =            1
     number of electrons       =         8.00
     number of Kohn-Sham states=            8
     kinetic-energy cutoff     =      55.0000  Ry
     charge density cutoff     =     220.0000  Ry
     Exchange-correlation= PBE
                           (   1   4   3   4   0   0   0)

     celldm(1)=   4.646303  celldm(2)=   0.000000  celldm(3)=   6.100000
     celldm(4)=   0.000000  celldm(5)=   0.000000  celldm(6)=   0.000000

     crystal axes: (cart. coord. in units of alat)
               a(1) = (   1.000000   0.000000   0.000000 )  
               a(2) = (  -0.500000   0.866025   0.000000 )  
               a(3) = (   0.000000   0.000000   6.100000 )  

     reciprocal axes: (cart. coord. in units 2 pi/alat)
               b(1) = (  1.000000  0.577350 -0.000000 )  
               b(2) = (  0.000000  1.154701  0.000000 )  
               b(3) = (  0.000000 -0.000000  0.163934 )  


     PseudoPot. # 1 for C  read from file:
     /home/babby/epiq_tutorial_test//tutorials/graphene/pseudo/C.UPF
     MD5 check sum: 34a24e64c0a39f27c6c36b90a16ac686
     Pseudo is Norm-conserving + core correction, Zval =  4.0
     Generated using ONCVPSP code by D. R. Hamann
     Using radial grid of 1248 points,  4 beta functions with: 
                l(1) =   0
                l(2) =   0
                l(3) =   1
                l(4) =   1

     atomic species   valence    mass     pseudopotential
        C              4.00    12.01000     C ( 1.00)

     24 Sym. Ops., with inversion, found



   Cartesian axes

     site n.     atom                  positions (alat units)
         1           C   tau(   1) = (   0.0000000   0.0000000   3.0500000  )
         2           C   tau(   2) = (  -0.0000000   0.5773503   3.0500000  )

     number of k points=  1588  Methfessel-Paxton smearing, width (Ry)=  0.0250

     Number of k-points >= 100: set verbosity='high' to print them.

     Dense  grid:    28981 G-vectors     FFT dimensions: (  24,  24, 135)

     Estimated max dynamical RAM per process >      14.60 MB

     Estimated total dynamical RAM >     116.78 MB

     The potential is recalculated from file :
     /home/babby/epiq_tutorial_test//tutorials/graphene/results/ph/_ph0/graphene.q_6/graphene.save/charge-density

     Starting wfcs are    8 atomic wfcs

     Band Structure Calculation
     Davidson diagonalization with overlap

     ethr =  1.25E-10,  avg # of iterations = 25.0

     total cpu time spent up to now is      201.5 secs

     End of band structure calculation

     Number of k-points >= 100: set verbosity='high' to print the bands.

     the Fermi energy is    -1.6714 ev

     Writing config to output data dir /home/babby/epiq_tutorial_test//tutorials/graphene/results/ph/_ph0/graphene.q_6/graphene.save/
 initialize_ph

     PH of graphene                                                             

     bravais-lattice index     =            4
     lattice parameter (alat)  =       4.6463  a.u.
     unit-cell volume          =     529.8869 (a.u.)^3
     number of atoms/cell      =            2
     number of atomic types    =            1
     kinetic-energy cut-off    =      55.0000  Ry
     charge density cut-off    =     220.0000  Ry
     convergence threshold     =      1.0E-12
     beta                      =       0.7000
     number of iterations used =            4
     Exchange-correlation= PBE
                           (   1   4   3   4   0   0   0)


     celldm(1)=    4.64630  celldm(2)=    0.00000  celldm(3)=    6.10000
     celldm(4)=    0.00000  celldm(5)=    0.00000  celldm(6)=    0.00000

     crystal axes: (cart. coord. in units of alat)
               a(1) = (  1.0000  0.0000  0.0000 )  
               a(2) = ( -0.5000  0.8660  0.0000 )  
               a(3) = (  0.0000  0.0000  6.1000 )  

     reciprocal axes: (cart. coord. in units 2 pi/alat)
               b(1) = (  1.0000  0.5774 -0.0000 )  
               b(2) = (  0.0000  1.1547  0.0000 )  
               b(3) = (  0.0000 -0.0000  0.1639 )  


     Atoms inside the unit cell: 

     Cartesian axes

     site n.  atom      mass           positions (alat units)
        1     C   12.0100   tau(    1) = (    0.00000    0.00000    3.05000  )
        2     C   12.0100   tau(    2) = (   -0.00000    0.57735    3.05000  )

     Computing dynamical matrix for 
                    q = (   0.1666667   0.4811252   0.0000000 )

      2 Sym.Ops. (no q -> -q+G )


     G cutoff =  120.3034  (  28981 G-vectors)     FFT grid: ( 24, 24,135)

     number of k points=  1588  Methfessel-Paxton smearing, width (Ry)=  0.0250

     PseudoPot. # 1 for C  read from file:
     /home/babby/epiq_tutorial_test//tutorials/graphene/pseudo/C.UPF
     MD5 check sum: 34a24e64c0a39f27c6c36b90a16ac686
     Pseudo is Norm-conserving + core correction, Zval =  4.0
     Generated using ONCVPSP code by D. R. Hamann
     Using radial grid of 1248 points,  4 beta functions with: 
                l(1) =   0
                l(2) =   0
                l(3) =   1
                l(4) =   1

     Mode symmetry, C_s (m)     point group:


     Atomic displacements:
     There are    6 irreducible representations

     Representation     1      1 modes -  To be done

     Representation     2      1 modes -  To be done

     Representation     3      1 modes -  To be done

     Representation     4      1 modes -  To be done

     Representation     5      1 modes -  To be done

     Representation     6      1 modes -  To be done



     Alpha used in Ewald sum =   2.3000
     PHONON       :  15m51.25s CPU  16m54.55s WALL

 initialize_ph ended


     Representation #   1 mode #   1

     Self-consistent Calculation

      iter #   1 total cpu time :  1025.0 secs   av.it.:   6.6
      thresh= 1.000E-02 alpha_mix =  0.700 |ddv_scf|^2 =  7.072E-07

      iter #   2 total cpu time :  1040.4 secs   av.it.:  11.1
      thresh= 8.409E-05 alpha_mix =  0.700 |ddv_scf|^2 =  2.744E-07

      iter #   3 total cpu time :  1055.1 secs   av.it.:  10.6
      thresh= 5.238E-05 alpha_mix =  0.700 |ddv_scf|^2 =  3.793E-08

      iter #   4 total cpu time :  1069.8 secs   av.it.:  10.2
      thresh= 1.948E-05 alpha_mix =  0.700 |ddv_scf|^2 =  1.012E-09

      iter #   5 total cpu time :  1085.1 secs   av.it.:  10.8
      thresh= 3.181E-06 alpha_mix =  0.700 |ddv_scf|^2 =  1.324E-10

      iter #   6 total cpu time :  1099.7 secs   av.it.:  10.5
      thresh= 1.151E-06 alpha_mix =  0.700 |ddv_scf|^2 =  1.104E-12

      iter #   7 total cpu time :  1114.3 secs   av.it.:  10.7
      thresh= 1.051E-07 alpha_mix =  0.700 |ddv_scf|^2 =  1.058E-14

     End of self-consistent calculation

     Convergence has been achieved 


     Representation #   2 mode #   2

     Self-consistent Calculation

      iter #   1 total cpu time :  1125.9 secs   av.it.:   6.8
      thresh= 1.000E-02 alpha_mix =  0.700 |ddv_scf|^2 =  5.339E-06

      iter #   2 total cpu time :  1140.6 secs   av.it.:  10.9
      thresh= 2.311E-04 alpha_mix =  0.700 |ddv_scf|^2 =  6.954E-06

      iter #   3 total cpu time :  1154.5 secs   av.it.:  10.1
      thresh= 2.637E-04 alpha_mix =  0.700 |ddv_scf|^2 =  5.641E-08

      iter #   4 total cpu time :  1168.9 secs   av.it.:  10.4
      thresh= 2.375E-05 alpha_mix =  0.700 |ddv_scf|^2 =  3.143E-09

      iter #   5 total cpu time :  1183.5 secs   av.it.:  10.5
      thresh= 5.606E-06 alpha_mix =  0.700 |ddv_scf|^2 =  2.697E-11

      iter #   6 total cpu time :  1198.5 secs   av.it.:  11.0
      thresh= 5.193E-07 alpha_mix =  0.700 |ddv_scf|^2 =  5.348E-13

     End of self-consistent calculation

     Convergence has been achieved 


     Representation #   3 mode #   3

     Self-consistent Calculation

      iter #   1 total cpu time :  1209.8 secs   av.it.:   6.6
      thresh= 1.000E-02 alpha_mix =  0.700 |ddv_scf|^2 =  1.524E-06

      iter #   2 total cpu time :  1224.9 secs   av.it.:  11.0
      thresh= 1.235E-04 alpha_mix =  0.700 |ddv_scf|^2 =  1.961E-06

      iter #   3 total cpu time :  1239.0 secs   av.it.:  10.1
      thresh= 1.401E-04 alpha_mix =  0.700 |ddv_scf|^2 =  2.040E-08

      iter #   4 total cpu time :  1254.3 secs   av.it.:  10.6
      thresh= 1.428E-05 alpha_mix =  0.700 |ddv_scf|^2 =  1.813E-09

      iter #   5 total cpu time :  1268.9 secs   av.it.:  10.5
      thresh= 4.258E-06 alpha_mix =  0.700 |ddv_scf|^2 =  4.522E-11

      iter #   6 total cpu time :  1283.8 secs   av.it.:  10.7
      thresh= 6.724E-07 alpha_mix =  0.700 |ddv_scf|^2 =  1.213E-12

      iter #   7 total cpu time :  1298.8 secs   av.it.:  10.9
      thresh= 1.101E-07 alpha_mix =  0.700 |ddv_scf|^2 =  1.120E-14

     End of self-consistent calculation

     Convergence has been achieved 


     Representation #   4 mode #   4

     Self-consistent Calculation

      iter #   1 total cpu time :  1310.5 secs   av.it.:   6.8
      thresh= 1.000E-02 alpha_mix =  0.700 |ddv_scf|^2 =  6.157E-06

      iter #   2 total cpu time :  1325.5 secs   av.it.:  10.9
      thresh= 2.481E-04 alpha_mix =  0.700 |ddv_scf|^2 =  8.643E-06

      iter #   3 total cpu time :  1339.6 secs   av.it.:  10.1
      thresh= 2.940E-04 alpha_mix =  0.700 |ddv_scf|^2 =  4.631E-08

      iter #   4 total cpu time :  1354.4 secs   av.it.:  10.5
      thresh= 2.152E-05 alpha_mix =  0.700 |ddv_scf|^2 =  2.891E-09

      iter #   5 total cpu time :  1369.1 secs   av.it.:  10.5
      thresh= 5.376E-06 alpha_mix =  0.700 |ddv_scf|^2 =  2.549E-11

      iter #   6 total cpu time :  1384.7 secs   av.it.:  11.0
      thresh= 5.049E-07 alpha_mix =  0.700 |ddv_scf|^2 =  7.476E-13

     End of self-consistent calculation

     Convergence has been achieved 


     Representation #   5 mode #   5

     Self-consistent Calculation

      iter #   1 total cpu time :  1396.4 secs   av.it.:   6.5
      thresh= 1.000E-02 alpha_mix =  0.700 |ddv_scf|^2 =  3.975E-07

      iter #   2 total cpu time :  1411.8 secs   av.it.:  11.0
      thresh= 6.305E-05 alpha_mix =  0.700 |ddv_scf|^2 =  6.911E-09

      iter #   3 total cpu time :  1426.6 secs   av.it.:  10.9
      thresh= 8.313E-06 alpha_mix =  0.700 |ddv_scf|^2 =  1.561E-10

      iter #   4 total cpu time :  1441.5 secs   av.it.:  10.8
      thresh= 1.249E-06 alpha_mix =  0.700 |ddv_scf|^2 =  3.791E-12

      iter #   5 total cpu time :  1456.6 secs   av.it.:  10.8
      thresh= 1.947E-07 alpha_mix =  0.700 |ddv_scf|^2 =  4.871E-14

     End of self-consistent calculation

     Convergence has been achieved 


     Representation #   6 mode #   6

     Self-consistent Calculation

      iter #   1 total cpu time :  1468.3 secs   av.it.:   6.5
      thresh= 1.000E-02 alpha_mix =  0.700 |ddv_scf|^2 =  3.975E-07

      iter #   2 total cpu time :  1483.9 secs   av.it.:  11.0
      thresh= 6.305E-05 alpha_mix =  0.700 |ddv_scf|^2 =  6.911E-09

      iter #   3 total cpu time :  1499.3 secs   av.it.:  10.9
      thresh= 8.313E-06 alpha_mix =  0.700 |ddv_scf|^2 =  1.561E-10

      iter #   4 total cpu time :  1514.6 secs   av.it.:  10.8
      thresh= 1.249E-06 alpha_mix =  0.700 |ddv_scf|^2 =  3.791E-12

      iter #   5 total cpu time :  1530.0 secs   av.it.:  10.8
      thresh= 1.947E-07 alpha_mix =  0.700 |ddv_scf|^2 =  4.871E-14

     End of self-consistent calculation

     Convergence has been achieved 

     Number of q in the star =   12
     List of q in the star:
          1   0.166666667   0.481125224   0.000000000
          2   0.333333333   0.384900179   0.000000000
          3   0.166666667  -0.481125224   0.000000000
          4  -0.166666667  -0.481125224   0.000000000
          5   0.333333333  -0.384900179   0.000000000
          6  -0.500000000  -0.096225045   0.000000000
          7  -0.500000000   0.096225045   0.000000000
          8  -0.333333333   0.384900179   0.000000000
          9   0.500000000   0.096225045   0.000000000
         10  -0.333333333  -0.384900179   0.000000000
         11   0.500000000  -0.096225045   0.000000000
         12  -0.166666667   0.481125224   0.000000000

     Diagonalizing the dynamical matrix

     q = (    0.166666667   0.481125224   0.000000000 ) 

 **************************************************************************
     freq (    1) =      12.003475 [THz] =     400.392825 [cm-1]
     freq (    2) =      20.002631 [THz] =     667.215941 [cm-1]
     freq (    3) =      23.397320 [THz] =     780.450596 [cm-1]
     freq (    4) =      35.069794 [THz] =    1169.802423 [cm-1]
     freq (    5) =      42.594858 [THz] =    1420.811514 [cm-1]
     freq (    6) =      43.154269 [THz] =    1439.471466 [cm-1]
 **************************************************************************

     Mode symmetry, C_s (m)     point group:

     freq (   1-   1) =        400.4  [cm-1]   --> A''                
     freq (   2-   2) =        667.2  [cm-1]   --> A''                
     freq (   3-   3) =        780.5  [cm-1]   --> A'                 
     freq (   4-   4) =       1169.8  [cm-1]   --> A'                 
     freq (   5-   5) =       1420.8  [cm-1]   --> A'                 
     freq (   6-   6) =       1439.5  [cm-1]   --> A'                 

     Number of q in the star =   12
     List of q in the star:
          1   0.166666667   0.481125224   0.000000000
          2   0.333333333   0.384900179   0.000000000
          3   0.166666667  -0.481125224   0.000000000
          4  -0.166666667  -0.481125224   0.000000000
          5   0.333333333  -0.384900179   0.000000000
          6  -0.500000000  -0.096225045   0.000000000
          7  -0.500000000   0.096225045   0.000000000
          8  -0.333333333   0.384900179   0.000000000
          9   0.500000000   0.096225045   0.000000000
         10  -0.333333333  -0.384900179   0.000000000
         11   0.500000000  -0.096225045   0.000000000
         12  -0.166666667   0.481125224   0.000000000
       Writing drho for q = (  0.166667  0.481125  0.000000) on file "dvscf.1o6_1o3_0"
       Writing drho for q = (  0.333333  0.384900  0.000000) on file "dvscf.1o3_1o6_0"
       Writing drho for q = (  0.166667 -0.481125  0.000000) on file "dvscf.1o6_-1o2_0"
       Writing drho for q = ( -0.166667 -0.481125  0.000000) on file "dvscf.-1o6_-1o3_0"
       Writing drho for q = (  0.333333 -0.384900  0.000000) on file "dvscf.1o3_-1o2_0"
       Writing drho for q = ( -0.500000 -0.096225  0.000000) on file "dvscf.-1o2_1o6_0"
       Writing drho for q = ( -0.500000  0.096225  0.000000) on file "dvscf.-1o2_1o3_0"
       Writing drho for q = ( -0.333333  0.384900  0.000000) on file "dvscf.-1o3_1o2_0"
       Writing drho for q = (  0.500000  0.096225  0.000000) on file "dvscf.1o2_-1o6_0"
       Writing drho for q = ( -0.333333 -0.384900  0.000000) on file "dvscf.-1o3_-1o6_0"
       Writing drho for q = (  0.500000 -0.096225  0.000000) on file "dvscf.1o2_-1o3_0"
       Writing drho for q = ( -0.166667  0.481125  0.000000) on file "dvscf.-1o6_1o2_0"

     Calculation of q =    0.3333333   0.5773503   0.0000000

     G-vector sticks info
     --------------------
     sticks:   dense  smooth     PW     G-vecs:    dense   smooth      PW
     Sum         313     313    121                28981    28981    6947

     Using Slab Decomposition


     Title: 
     PH of graphene                                                             


     bravais-lattice index     =            4
     lattice parameter (alat)  =       4.6463  a.u.
     unit-cell volume          =     529.8869 (a.u.)^3
     number of atoms/cell      =            2
     number of atomic types    =            1
     number of electrons       =         8.00
     number of Kohn-Sham states=            8
     kinetic-energy cutoff     =      55.0000  Ry
     charge density cutoff     =     220.0000  Ry
     Exchange-correlation= PBE
                           (   1   4   3   4   0   0   0)

     celldm(1)=   4.646303  celldm(2)=   0.000000  celldm(3)=   6.100000
     celldm(4)=   0.000000  celldm(5)=   0.000000  celldm(6)=   0.000000

     crystal axes: (cart. coord. in units of alat)
               a(1) = (   1.000000   0.000000   0.000000 )  
               a(2) = (  -0.500000   0.866025   0.000000 )  
               a(3) = (   0.000000   0.000000   6.100000 )  

     reciprocal axes: (cart. coord. in units 2 pi/alat)
               b(1) = (  1.000000  0.577350 -0.000000 )  
               b(2) = (  0.000000  1.154701  0.000000 )  
               b(3) = (  0.000000 -0.000000  0.163934 )  


     PseudoPot. # 1 for C  read from file:
     /home/babby/epiq_tutorial_test//tutorials/graphene/pseudo/C.UPF
     MD5 check sum: 34a24e64c0a39f27c6c36b90a16ac686
     Pseudo is Norm-conserving + core correction, Zval =  4.0
     Generated using ONCVPSP code by D. R. Hamann
     Using radial grid of 1248 points,  4 beta functions with: 
                l(1) =   0
                l(2) =   0
                l(3) =   1
                l(4) =   1

     atomic species   valence    mass     pseudopotential
        C              4.00    12.01000     C ( 1.00)

     24 Sym. Ops., with inversion, found



   Cartesian axes

     site n.     atom                  positions (alat units)
         1           C   tau(   1) = (   0.0000000   0.0000000   3.0500000  )
         2           C   tau(   2) = (  -0.0000000   0.5773503   3.0500000  )

     number of k points=   312  Methfessel-Paxton smearing, width (Ry)=  0.0250

     Number of k-points >= 100: set verbosity='high' to print them.

     Dense  grid:    28981 G-vectors     FFT dimensions: (  24,  24, 135)

     Estimated max dynamical RAM per process >      14.60 MB

     Estimated total dynamical RAM >     116.82 MB

     The potential is recalculated from file :
     /home/babby/epiq_tutorial_test//tutorials/graphene/results/ph/_ph0/graphene.q_7/graphene.save/charge-density

     Starting wfcs are    8 atomic wfcs

     Band Structure Calculation
     Davidson diagonalization with overlap

     ethr =  1.25E-10,  avg # of iterations = 24.0

     total cpu time spent up to now is      215.3 secs

     End of band structure calculation

     Number of k-points >= 100: set verbosity='high' to print the bands.

     the Fermi energy is    -1.6714 ev

     Writing config to output data dir /home/babby/epiq_tutorial_test//tutorials/graphene/results/ph/_ph0/graphene.q_7/graphene.save/
 initialize_ph

     PH of graphene                                                             

     bravais-lattice index     =            4
     lattice parameter (alat)  =       4.6463  a.u.
     unit-cell volume          =     529.8869 (a.u.)^3
     number of atoms/cell      =            2
     number of atomic types    =            1
     kinetic-energy cut-off    =      55.0000  Ry
     charge density cut-off    =     220.0000  Ry
     convergence threshold     =      1.0E-12
     beta                      =       0.7000
     number of iterations used =            4
     Exchange-correlation= PBE
                           (   1   4   3   4   0   0   0)


     celldm(1)=    4.64630  celldm(2)=    0.00000  celldm(3)=    6.10000
     celldm(4)=    0.00000  celldm(5)=    0.00000  celldm(6)=    0.00000

     crystal axes: (cart. coord. in units of alat)
               a(1) = (  1.0000  0.0000  0.0000 )  
               a(2) = ( -0.5000  0.8660  0.0000 )  
               a(3) = (  0.0000  0.0000  6.1000 )  

     reciprocal axes: (cart. coord. in units 2 pi/alat)
               b(1) = (  1.0000  0.5774 -0.0000 )  
               b(2) = (  0.0000  1.1547  0.0000 )  
               b(3) = (  0.0000 -0.0000  0.1639 )  


     Atoms inside the unit cell: 

     Cartesian axes

     site n.  atom      mass           positions (alat units)
        1     C   12.0100   tau(    1) = (    0.00000    0.00000    3.05000  )
        2     C   12.0100   tau(    2) = (   -0.00000    0.57735    3.05000  )

     Computing dynamical matrix for 
                    q = (   0.3333333   0.5773503   0.0000000 )

     12 Sym.Ops. (no q -> -q+G )


     G cutoff =  120.3034  (  28981 G-vectors)     FFT grid: ( 24, 24,135)

     number of k points=   312  Methfessel-Paxton smearing, width (Ry)=  0.0250

     PseudoPot. # 1 for C  read from file:
     /home/babby/epiq_tutorial_test//tutorials/graphene/pseudo/C.UPF
     MD5 check sum: 34a24e64c0a39f27c6c36b90a16ac686
     Pseudo is Norm-conserving + core correction, Zval =  4.0
     Generated using ONCVPSP code by D. R. Hamann
     Using radial grid of 1248 points,  4 beta functions with: 
                l(1) =   0
                l(2) =   0
                l(3) =   1
                l(4) =   1


     Atomic displacements:
     There are    4 irreducible representations

     Representation     1      2 modes -  To be done

     Representation     2      1 modes -  To be done

     Representation     3      1 modes -  To be done

     Representation     4      2 modes -  To be done



     Alpha used in Ewald sum =   2.3000
     PHONON       :  24m16.38s CPU  25m45.73s WALL

 initialize_ph ended


     Representation #   1 modes #   1   2

     Self-consistent Calculation

      iter #   1 total cpu time :  1550.2 secs   av.it.:   6.2
      thresh= 1.000E-02 alpha_mix =  0.700 |ddv_scf|^2 =  6.285E-08

      iter #   2 total cpu time :  1556.7 secs   av.it.:  11.3
      thresh= 2.507E-05 alpha_mix =  0.700 |ddv_scf|^2 =  3.436E-10

      iter #   3 total cpu time :  1563.1 secs   av.it.:  11.0
      thresh= 1.854E-06 alpha_mix =  0.700 |ddv_scf|^2 =  2.702E-11

      iter #   4 total cpu time :  1569.7 secs   av.it.:  11.1
      thresh= 5.198E-07 alpha_mix =  0.700 |ddv_scf|^2 =  9.473E-14

     End of self-consistent calculation

     Convergence has been achieved 


     Representation #   2 mode #   3

     Self-consistent Calculation

      iter #   1 total cpu time :  1572.0 secs   av.it.:   5.2
      thresh= 1.000E-02 alpha_mix =  0.700 |ddv_scf|^2 =  5.815E-09

      iter #   2 total cpu time :  1574.8 secs   av.it.:   9.9
      thresh= 7.625E-06 alpha_mix =  0.700 |ddv_scf|^2 =  4.205E-10

      iter #   3 total cpu time :  1577.4 secs   av.it.:   9.2
      thresh= 2.051E-06 alpha_mix =  0.700 |ddv_scf|^2 =  4.264E-12

      iter #   4 total cpu time :  1580.1 secs   av.it.:   9.5
      thresh= 2.065E-07 alpha_mix =  0.700 |ddv_scf|^2 =  3.799E-15

     End of self-consistent calculation

     Convergence has been achieved 


     Representation #   3 mode #   4

     Self-consistent Calculation

      iter #   1 total cpu time :  1582.6 secs   av.it.:   6.4
      thresh= 1.000E-02 alpha_mix =  0.700 |ddv_scf|^2 =  3.015E-06

      iter #   2 total cpu time :  1585.4 secs   av.it.:  10.0
      thresh= 1.736E-04 alpha_mix =  0.700 |ddv_scf|^2 =  4.037E-07

      iter #   3 total cpu time :  1588.3 secs   av.it.:   9.8
      thresh= 6.354E-05 alpha_mix =  0.700 |ddv_scf|^2 =  1.902E-10

      iter #   4 total cpu time :  1591.4 secs   av.it.:  10.2
      thresh= 1.379E-06 alpha_mix =  0.700 |ddv_scf|^2 =  1.242E-12

      iter #   5 total cpu time :  1594.1 secs   av.it.:   9.8
      thresh= 1.115E-07 alpha_mix =  0.700 |ddv_scf|^2 =  2.120E-14

     End of self-consistent calculation

     Convergence has been achieved 


     Representation #   4 modes #   5   6

     Self-consistent Calculation

      iter #   1 total cpu time :  1598.9 secs   av.it.:   6.7
      thresh= 1.000E-02 alpha_mix =  0.700 |ddv_scf|^2 =  8.817E-07

      iter #   2 total cpu time :  1605.2 secs   av.it.:  11.5
      thresh= 9.390E-05 alpha_mix =  0.700 |ddv_scf|^2 =  1.030E-06

      iter #   3 total cpu time :  1611.3 secs   av.it.:  10.8
      thresh= 1.015E-04 alpha_mix =  0.700 |ddv_scf|^2 =  8.672E-10

      iter #   4 total cpu time :  1617.5 secs   av.it.:  11.2
      thresh= 2.945E-06 alpha_mix =  0.700 |ddv_scf|^2 =  3.848E-12

      iter #   5 total cpu time :  1623.8 secs   av.it.:  11.3
      thresh= 1.962E-07 alpha_mix =  0.700 |ddv_scf|^2 =  1.563E-14

     End of self-consistent calculation

     Convergence has been achieved 

     Number of q in the star =    2
     List of q in the star:
          1   0.333333333   0.577350269   0.000000000
          2  -0.333333333   0.577350269   0.000000000

     Diagonalizing the dynamical matrix

     q = (    0.333333333   0.577350269   0.000000000 ) 

 **************************************************************************
     freq (    1) =      15.914241 [THz] =     530.841957 [cm-1]
     freq (    2) =      15.914242 [THz] =     530.841957 [cm-1]
     freq (    3) =      30.060142 [THz] =    1002.698411 [cm-1]
     freq (    4) =      37.282712 [THz] =    1243.617406 [cm-1]
     freq (    5) =      37.282712 [THz] =    1243.617406 [cm-1]
     freq (    6) =      39.809698 [THz] =    1327.908591 [cm-1]
 **************************************************************************

     Number of q in the star =    2
     List of q in the star:
          1   0.333333333   0.577350269   0.000000000
          2  -0.333333333   0.577350269   0.000000000
       Writing drho for q = (  0.333333  0.577350  0.000000) on file "dvscf.1o3_1o3_0"
       Writing drho for q = ( -0.333333  0.577350  0.000000) on file "dvscf.-1o3_2o3_0"

     init_run     :      0.81s CPU      0.83s WALL (       6 calls)
     electrons    :    205.00s CPU    213.96s WALL (       6 calls)

     Called by init_run:
     wfcinit      :      0.00s CPU      0.00s WALL (       6 calls)
     potinit      :      0.29s CPU      0.30s WALL (       6 calls)
     hinit0       :      0.28s CPU      0.28s WALL (       6 calls)

     Called by electrons:
     c_bands      :    204.99s CPU    213.96s WALL (       6 calls)
     v_of_rho     :      0.30s CPU      0.31s WALL (       7 calls)

     Called by c_bands:
     init_us_2    :      6.96s CPU      8.02s WALL (   14545 calls)
     init_us_2:cp :      6.92s CPU      7.99s WALL (   14545 calls)
     cegterg      :    162.96s CPU    170.17s WALL (    1002 calls)

     Called by *egterg:
     cdiaghg      :      1.93s CPU      2.02s WALL (   14907 calls)
     h_psi        :    962.89s CPU   1015.39s WALL (  131052 calls)
     g_psi        :      0.85s CPU      0.88s WALL (   14307 calls)

     Called by h_psi:
     h_psi:calbec :     86.55s CPU     90.89s WALL (  131052 calls)
     vloc_psi     :    813.31s CPU    858.19s WALL (  131052 calls)
     add_vuspsi   :     58.91s CPU     62.00s WALL (  131052 calls)

     General routines
     calbec       :    156.58s CPU    165.61s WALL (  256775 calls)
     fft          :      4.81s CPU      5.30s WALL (    3363 calls)
     ffts         :      1.96s CPU      2.20s WALL (    2252 calls)
     fftw         :    773.14s CPU    818.89s WALL ( 1154128 calls)
     davcio       :      7.27s CPU     10.49s WALL (   55977 calls)

     Parallel routines

     PHONON       :  25m31.57s CPU  27m 4.11s WALL

     INITIALIZATION: 
     phq_setup    :      0.46s CPU      0.54s WALL (       7 calls)
     phq_init     :      9.19s CPU     11.05s WALL (       7 calls)

     phq_init     :      9.19s CPU     11.05s WALL (       7 calls)
     set_drhoc    :      3.90s CPU      4.13s WALL (      21 calls)
     init_vloc    :      0.07s CPU      0.07s WALL (       7 calls)
     init_us_1    :      0.03s CPU      0.03s WALL (       7 calls)
     init_us_2    :      6.96s CPU      8.02s WALL (   14545 calls)

     DYNAMICAL MATRIX:
     dynmat0      :      5.41s CPU      6.98s WALL (       7 calls)
     phqscf       :   1315.33s CPU   1396.32s WALL (       7 calls)
     dynmatrix    :      0.00s CPU      0.01s WALL (       7 calls)

     phqscf       :   1315.33s CPU   1396.32s WALL (       7 calls)
     solve_linter :   1306.94s CPU   1387.14s WALL (      38 calls)
     drhodv       :      8.31s CPU      9.04s WALL (      38 calls)

     dynmat0      :      5.41s CPU      6.98s WALL (       7 calls)
     dynmat_us    :      2.26s CPU      2.63s WALL (       7 calls)
     d2ionq       :      0.04s CPU      0.05s WALL (       7 calls)
     dynmatcc     :      2.91s CPU      3.08s WALL (       7 calls)

     dynmat_us    :      2.26s CPU      2.63s WALL (       7 calls)

     phqscf       :   1315.33s CPU   1396.32s WALL (       7 calls)
     solve_linter :   1306.94s CPU   1387.14s WALL (      38 calls)

     solve_linter :   1306.94s CPU   1387.14s WALL (      38 calls)
     dvqpsi_us    :     31.44s CPU     33.59s WALL (    1860 calls)
                                        0.00s GPU  (    1860 calls)
     sth_kernel   :   1251.93s CPU   1326.14s WALL (     193 calls)
     h_prec       :      1.12s CPU      1.32s WALL (    9685 calls)
     apply_dpot_b :     59.22s CPU     64.94s WALL (    8085 calls)
     ortho        :      6.31s CPU      6.81s WALL (    9945 calls)
     cgsolve      :    981.24s CPU   1036.36s WALL (    9945 calls)
     incdrhoscf   :     84.56s CPU     90.44s WALL (    9945 calls)
                                        0.00s GPU  (    9945 calls)
     dv_of_drho   :      8.94s CPU      9.79s WALL (     210 calls)
     mix_pot      :      1.19s CPU      2.19s WALL (     193 calls)
     ef_shift     :      0.08s CPU      0.09s WALL (      18 calls)
     ef_shift_wfc :      0.00s CPU      0.03s WALL (       4 calls)
     localdos     :      0.39s CPU      0.40s WALL (       4 calls)
     psymdvscf    :      3.67s CPU      3.95s WALL (     193 calls)

     dvqpsi_us    :     31.44s CPU     33.59s WALL (    1860 calls)
                                        0.00s GPU  (    1860 calls)
     dvqpsi_us_on :      3.87s CPU      4.11s WALL (    1860 calls)

     cgsolve      :    981.24s CPU   1036.36s WALL (    9945 calls)
     ch_psi       :    943.05s CPU    995.89s WALL (  115143 calls)

     ch_psi       :    943.05s CPU    995.89s WALL (  115143 calls)
     h_psi        :    962.89s CPU   1015.39s WALL (  131052 calls)
     last         :    100.22s CPU    106.09s WALL (  115143 calls)

     h_psi        :    962.89s CPU   1015.39s WALL (  131052 calls)
     add_vuspsi   :     58.91s CPU     62.00s WALL (  131052 calls)

     incdrhoscf   :     84.56s CPU     90.44s WALL (    9945 calls)
                                        0.00s GPU  (    9945 calls)


      General routines
     calbec       :    156.58s CPU    165.61s WALL (  256775 calls)
     fft          :      4.81s CPU      5.30s WALL (    3363 calls)
     ffts         :      1.96s CPU      2.20s WALL (    2252 calls)
     fftw         :    773.14s CPU    818.89s WALL ( 1154128 calls)
     davcio       :      7.27s CPU     10.49s WALL (   55977 calls)
     write_rec    :      0.70s CPU      1.05s WALL (     231 calls)

      Additional routines
     ch_psi       :    943.05s CPU    995.89s WALL (  115143 calls)
     last         :    100.22s CPU    106.09s WALL (  115143 calls)
     Hesh         :      5.84s CPU      6.16s WALL (  115143 calls)
     ch_psi_all_k :     94.02s CPU     99.62s WALL (  115143 calls)
                                        0.00s GPU  (  115143 calls)
     ch_psi_calbe :     62.62s CPU     66.23s WALL (  115143 calls)
                                        0.00s GPU  (  115143 calls)
     h_psi_bgrp   :    963.03s CPU   1015.52s WALL (  131052 calls)
     h_psi        :    962.89s CPU   1015.39s WALL (  131052 calls)
     h_psi:pot    :    959.26s CPU   1011.42s WALL (  131052 calls)
     h_psi:calbec :     86.55s CPU     90.89s WALL (  131052 calls)
     s_psi_bgrp   :      6.85s CPU      7.22s WALL (  240231 calls)


     PHONON       :  25m31.57s CPU  27m 4.12s WALL


   This run was terminated on:  10:51:33  20Sep2022            

=------------------------------------------------------------------------------=
   JOB DONE.
=------------------------------------------------------------------------------=
    Time required:	 27   minutes and 5 seconds 
